TM	HGV	DDB	papyri-info	series	volume	fascicle	numbers	side	generic	page	number	format-type	format-subtype	format-variation	text-type	text-subtype	hgv-subjects	hgv-de	hgv-en	iframe	IIIF	canvasID	image	printed-image	image-rights	fibres	height	width	shape	writing-parallel	margin-top	margin-bottom	margin-left	margin-right	columns	blank-after	blank-height	seal	hand-nb	section-nb	m1	m2	m3	m4	m5	m6	m7	m8	m9	m10	m11	section1	section2	section3	section4	section5	section6	section7	section8	section9	section10	section11	section12	section13	section14	section15	section16	section17	section18	section19	section20	section21	section22	section23	section24	section25	section26	section27	section28	section29	section30	section31	section32	section33	section34	section35	section36	section37	section38	section39	section40	section41	section42	section43	section44	section45	section43	section44	section45
503	503	p.dryton;1;41	http://papyri.info/ddbdp/p.dryton;1;41	P.Dryton			41					gt_ri	gt_list	gt_acct			Abrechnung,Weizen		Account,wheat				https://www.bl.uk/manuscripts/Viewer.aspx?ref=papyrus_611_f001r	XVIII		fv	15.2	11.3	VR		1.8	2.1	1.2	0	1				1	3	#section1 #section2 #section3/											1-1/#m1/date	1-1/#m1/descr-contents	2-12/#m1/main-text																																													
674	674	p.cair.zen;1;59013	http://papyri.info/ddbdp/p.cair.zen;1;59013	P.Cair. Zen.	1		59013					gt_ri	gt_list	gt_acct			Abrechnung,Kosten,Transport		account,transport				http://ipap.csad.ox.ac.uk/4DLink4/4DACTION/IPAPwebquery?vPub=P.Cair.Zen.&vVol=1&vNum=59013	Pl. III Seider, Paläographie III, 1, II Abb. 25, S. 177 Harrauer, Paläographie, Tafelband, Abb. 6		fh	17	13.5	VR		1.2	1	0	0	1				1	2	#section1 #section2/											1-1/#m1/descr-contents	2-35/#m1/main-text																																														
682	682	p.cair.zen;1;59022	http://papyri.info/ddbdp/p.cair.zen;1;59022	P.Cair. Zen.	1		59022					gt_ri	gt_list	gt_acct			Abrechnung,Geld,Bank,Münzfuß,Wechselkurs,Gold,Silber		account,money				http://ipap.csad.ox.ac.uk/4DLink4/4DACTION/IPAPwebquery?vPub=P.Cair.Zen.&vVol=1&vNum=59022	Pl. VIII		fv	40.5	18	VR		1.5	0	0	0	1				1	1	#section1/											1-22/#m1/main-text																																															
743	743	p.cair.zen;1;59089	http://papyri.info/ddbdp/p.cair.zen;1;59089	P.Cair. Zen.	1		59089					gt_ri	gt_list	gt_acct			Abrechnung,Liste,Ausgabe,Myrrhe		account,myrrh				http://ipap.csad.ox.ac.uk/4DLink4/4DACTION/IPAPwebquery?vPub=P.Cair.Zen.&vVol=1&vNum=59089			fh	31.5	21	VR		3	5.2	3	3.2	1				1	3	#section1 #section2 #section3/											1-1/#m1/date	1-1/#m1/heading	2-21/#m1/main-text																																													
918	918	p.cair.zen;2;59274	http://papyri.info/ddbdp/p.cair.zen;2;59274	P.Cair. Zen.	2		59274					gt_ri	gt_list	gt_acct			Abrechnung,Schweine,Liste		account,pigs				http://ipap.csad.ox.ac.uk/4DLink4/4DACTION/IPAPwebquery?vPub=P.Cair.Zen.&vVol=2&vNum=59274			fh	11.5	13	HR		0.6	6.4	1	0	1				1	4	#section1 #section2 #section3 #section4/											1-1/#m1/date	1-3/#m1/main-text	4-4/#m1/heading	4-5/#m1/main-text																																												
956	956	p.cair.zen;3;59312	http://papyri.info/ddbdp/p.cair.zen;3;59312	P.Cair. Zen.	3		59312					gt_ri	gt_list	gt_acct			Quittung,Liste,Schweine,Ferkel,Bericht,Dörfer		account,pigs				http://ipap.csad.ox.ac.uk/4DLink4/4DACTION/IPAPwebquery?vPub=P.Cair.Zen.&vVol=3&vNum=59312			fv	35	11	VR		0	1.5	0	0	1				1	2	#section1 #section2/											1-1/#m1/date	1-43/#m1/main-text																																														
964	964	p.cair.zen;3;59320	http://papyri.info/ddbdp/p.cair.zen;3;59320	P.Cair. Zen.	3		59320					gt_ri	gt_list	gt_acct			Abrechnung,Getreide,Fracht,Kosten,Transport,Schiff		account,transport				http://ipap.csad.ox.ac.uk/4DLink4/4DACTION/IPAPwebquery?vPub=P.Cair.Zen.&vVol=3&vNum=59320			fh	29.5	9.5	VR		3.5	5.6	1	0.5	1				1	3	#section1 #section2 #section3/											1-1/#m1/date	2-5/#m1/descr-contents	6-15/#m1/main-text																																													
965	965	p.cair.zen;3;59321	http://papyri.info/ddbdp/p.cair.zen;3;59321	P.Cair. Zen.	3		59321					gt_ri	gt_list	gt_acct			Abrechnung,Öl		account,oil				http://ipap.csad.ox.ac.uk/4DLink4/4DACTION/IPAPwebquery?vPub=P.Cair.Zen.&vVol=3&vNum=59321			fv	21	10	VR		1.5	14	1	1.8	1				1	2	#section1 #section2/											1-1/#m1/date	2-4/#m1/main-text																																														
976	976	p.cair.zen;3;59333	http://papyri.info/ddbdp/p.cair.zen;3;59333	P.Cair. Zen.	3		59333					gt_ri	gt_list	gt_acct			Liste,Abrechnung,Weizen,Sitometrie,tageweise,Namen		Account,wheat				http://ipap.csad.ox.ac.uk/4DLink4/4DACTION/IPAPwebquery?vPub=P.Cair.Zen.&vVol=3&vNum=59333			fh	102	32	VR		3.3	0	0	0	1				1	5	#section1 #section2 #section3 #section4 #section5/											1-1/#m1/heading	1-1/#m1/date	1-3/#m1/descr-contents	4-4/#m1/heading	5-78/#m1/main-text																																											
1004	1004	p.cair.zen;3;59361	http://papyri.info/ddbdp/p.cair.zen;3;59361	P.Cair. Zen.	3		59361					gt_ri	gt_list	gt_acct			Brief (amtlich),Demetrios an Kriton,Steuerpächter,Apomoira,Abrechnung,Dörfer,Überblick,Steuern,Einnahmen		account,tax				http://ipap.csad.ox.ac.uk/4DLink4/4DACTION/IPAPwebquery?vPub=P.Cair.Zen.&vVol=3&vNum=59361			fh	17.5	41.5	HR		2	0	1	0	4				1	5	#section1 #section2 #section3 #section4 #section5/											1-1/#m1/opening	2-3/#m1/descr-contents	4-44/#m1/main-text	45-45/#m1/closing	45-45/#m1/date																																											
1019	1019	p.cair.zen;3;59376	http://papyri.info/ddbdp/p.cair.zen;3;59376	P.Cair. Zen.	3		59376					gt_ri	gt_list	gt_acct			Abrechnung,Gerste,Pferde,Verpflegung,Lohn,Pferdepfleger		account				http://ipap.csad.ox.ac.uk/4DLink4/4DACTION/IPAPwebquery?vPub=P.Cair.Zen.&vVol=3&vNum=59376			fh	33	9.5	VR		1.5	7.5	1	0.2	1				1	2	#section1 #section2/											1-3/#m1/descr-contents	3-21/#m1/main-text																																														
1057	1057	p.cair.zen;3;59417	http://papyri.info/ddbdp/p.cair.zen;3;59417	P.Cair. Zen.	3		59417					gt_ri	gt_list	gt_acct			Brief (geschäftlich),Demetrios an Zenon,Abrechnung,Pfand,Darlehen,Geld		account				http://ipap.csad.ox.ac.uk/4DLink4/4DACTION/IPAPwebquery?vPub=P.Cair.Zen.&vVol=3&vNum=59417			fh	30.5	10.5	VR		1.5	1	1	0	1				1	4	#section1 #section2 #section3 #section4/											1-1/#m1/opening	2-9/#m1/main-text	9-9/#m1/closing	10-35/#m1/main-text																																												
1069	1069	p.cair.zen;3;59429	http://papyri.info/ddbdp/p.cair.zen;3;59429	P.Cair. Zen.	3		59429					gt_ri	gt_list	gt_acct			Abrechnung,Ziegen,Preis,Hermias an Zenon		account				http://ipap.csad.ox.ac.uk/4DLink4/4DACTION/IPAPwebquery?vPub=P.Cair.Zen.&vVol=3&vNum=59429			fh	18	11	VR		1.8	2.8	0	0	1				1	2	#section1 #section2/											1-1/#m1/descr-contents	2-20/#m1/main-text																																														
1070	1070	p.cair.zen;3;59430	http://papyri.info/ddbdp/p.cair.zen;3;59430	P.Cair. Zen.	3		59430					gt_ri	gt_list	gt_acct			Abrechnung,Hermon,Schafe,Schur,Preis,Aufwendung,Geld		account				http://ipap.csad.ox.ac.uk/4DLink4/4DACTION/IPAPwebquery?vPub=P.Cair.Zen.&vVol=3&vNum=59430			fh	33.5	12	VR		1.9	5.5	2	0.4	1				1	2	#section1 #section2/											1-2/#m1/descr-contents	3-20/#m1/main-text																																														
1102	1102	p.cair.zen;3;59464	http://papyri.info/ddbdp/p.cair.zen;3;59464	P.Cair. Zen.	3		59464					gt_ri	gt_list	gt_acct			Abrechnung,Gerste,Mast,Schweine		account				http://ipap.csad.ox.ac.uk/4DLink4/4DACTION/IPAPwebquery?vPub=P.Cair.Zen.&vVol=3&vNum=59464			fh	33	8.5	VR		2.5	4	1	0	1				1	2	#section1 #section2/											1-2/#m1/descr-contents	2-27/#m1/main-text																																														
1154	1154	p.cair.zen;3;59517	http://papyri.info/ddbdp/p.cair.zen;3;59517	P.Cair. Zen.	3		59517					gt_ri	gt_list	gt_acct			Abrechnung,Lohn,Arbeiter,Land		account				http://ipap.csad.ox.ac.uk/4DLink4/4DACTION/IPAPwebquery?vPub=P.Cair.Zen.&vVol=3&vNum=59517			fh	25.5	12	VR		0.5	0	0	0	1				1	2	#section1 #section2/											1-1/#m1/descr-contents	1-23/#m1/main-text																																														
1331	1331	p.cair.zen;4;59704	http://papyri.info/ddbdp/p.cair.zen;4;59704	P.Cair. Zen.	4		59704					gt_ri	gt_list	gt_acct			Liste,täglich,Aufwendungen,Kosten		account				http://ipap.csad.ox.ac.uk/4DLink4/4DACTION/IPAPwebquery?vPub=P.Cair.Zen.&vVol=4&vNum=59704			fv	25.5	14.5	VR		1	2	1.5	0	2				1	2	#section1 #section2/											1-1/#m1/heading	2-38/#m1/main-text																																														
1351	1351	p.cair.zen;4;59724	http://papyri.info/ddbdp/p.cair.zen;4;59724	P.Cair. Zen.	4		59724					gt_ri	gt_list	gt_acct			Abrechnung,Quittung,Pacht,Geld,Saatgut,Getreide		account				http://ipap.csad.ox.ac.uk/4DLink4/4DACTION/IPAPwebquery?vPub=P.Cair.Zen.&vVol=4&vNum=59724			fh	19	21	HR		1.5	1	1.5	8.6	1				1	2	#section1 #section2/											1-1/#m1/descr-contents	2-20/#m1/main-text																																														
1354	1354	p.cair.zen;4;59727	http://papyri.info/ddbdp/p.cair.zen;4;59727	P.Cair. Zen.	4		59727					gt_ri	gt_list	gt_acct			Abrechnung,Geld,Bebauung,Land,Namen		account				http://ipap.csad.ox.ac.uk/4DLink4/4DACTION/IPAPwebquery?vPub=P.Cair.Zen.&vVol=4&vNum=59727			fh	25	8	VR		1.6	1.3	1.1	0	1				1	2	#section1 #section2/											1-2/#m1/descr-contents	3-24/#m1/main-text																																														
1357	1357	p.cair.zen;4;59732	http://papyri.info/ddbdp/p.cair.zen;4;59732	P.Cair. Zen.	4		59732					gt_ri	gt_list	gt_acct			Abrechnung,Sesam		account				http://ipap.csad.ox.ac.uk/4DLink4/4DACTION/IPAPwebquery?vPub=P.Cair.Zen.&vVol=4&vNum=59732	Pl. XX Harrauer, Paläographie, Tafelband, Abb. 30		fh	20.5	16	VR		1.2	6.3	0.5	0.5	1				1	2	#section1 #section2/											1-2/#m1/descr-contents	3-8/#m1/main-text																																														
1358	1358	p.cair.zen;4;59733	http://papyri.info/ddbdp/p.cair.zen;4;59733	P.Cair. Zen.	4		59733					gt_ri	gt_list	gt_acct			Abrechnung,Weizen,Speltweizen		account				http://ipap.csad.ox.ac.uk/4DLink4/4DACTION/IPAPwebquery?vPub=P.Cair.Zen.&vVol=4&vNum=59733			fh	24	6	VR		0.8	3.2	0.4	0.4	1				1	1	#section1/											1-13/#m1/main-text																																															
1359	1359	p.cair.zen;4;59734	http://papyri.info/ddbdp/p.cair.zen;4;59734	P.Cair. Zen.	4		59734					gt_ri	gt_list	gt_acct			Abrechnung,Gespann,Ochsen,Ölbaum,Pflanzung		account				http://ipap.csad.ox.ac.uk/4DLink4/4DACTION/IPAPwebquery?vPub=P.Cair.Zen.&vVol=4&vNum=59734			fv	7	14.5	HR		0.9	1.6	0.9	0	1				1	2	#section1 #section2/											1-1/#m1/descr-contents	2-5/#m1/main-text																																														
1367	1367	p.cair.zen;4;59742	http://papyri.info/ddbdp/p.cair.zen;4;59742	P.Cair. Zen.	4		59742					gt_ri	gt_list	gt_acct			Abrechnung,Wein,Fässer,Fassungsvermögen		account				http://ipap.csad.ox.ac.uk/4DLink4/4DACTION/IPAPwebquery?vPub=P.Cair.Zen.&vVol=4&vNum=59742			fh	25	11	VR		1.6	0	1.4	0.3	1				3	2	#section2/	#section1 #section2/	#section2/									1-2/#m2/descr-contents	3-22/#m1 #m2 #m3/main-text																																														
1399	1399	p.cair.zen;4;59774	http://papyri.info/ddbdp/p.cair.zen;4;59774	P.Cair. Zen.	4		59774					gt_ri	gt_list	gt_acct			Abrechnung,Schafschur,Wolle,Ballen,Gewicht		account				http://ipap.csad.ox.ac.uk/4DLink4/4DACTION/IPAPwebquery?vPub=P.Cair.Zen.&vVol=4&vNum=59774			fh	10	12	HR		1.6	4.3	1.1	3.9	1				1	1	#section1/											1-5/#m1/main-text																																															
1403	1403	p.cair.zen;4;59778	http://papyri.info/ddbdp/p.cair.zen;4;59778	P.Cair. Zen.	4		59778					gt_ri	gt_list	gt_acct			Liste,Abrechnung,Kleider,Verkauf,Preise		account				http://ipap.csad.ox.ac.uk/4DLink4/4DACTION/IPAPwebquery?vPub=P.Cair.Zen.&vVol=4&vNum=59778			fh	28.5	8.5	VR		0.3	16.3	2	0.6	1				1	1	#section1/											1-8/#m1/main-text																																															
1408	1408	p.cair.zen;4;59783	http://papyri.info/ddbdp/p.cair.zen;4;59783	P.Cair. Zen.	4		59783					gt_ri	gt_list	gt_acct			Abrechnung,Liste,Geräte,Namen		account				http://ipap.csad.ox.ac.uk/4DLink4/4DACTION/IPAPwebquery?vPub=P.Cair.Zen.&vVol=4&vNum=59783			fh	22.5	7	VR		1.4	1.7	0.6	0	1				1	1	#section1/											1-17/#m1/main-text																																															
1415	1415	p.cair.zen;4;59790	http://papyri.info/ddbdp/p.cair.zen;4;59790	P.Cair. Zen.	4		59790					gt_ri	gt_list	gt_acct			Abrechnung,Geld,Quittung,Bank,Wachs,Honig,Bienen,Preis		account				http://ipap.csad.ox.ac.uk/4DLink4/4DACTION/IPAPwebquery?vPub=P.Cair.Zen.&vVol=4&vNum=59790			fh	25.5	14.5	VR		2	0	1.5	1	1				1	3	#section1 #section2 #section3/											1-7/#m1/main-text	8-8/#m1/heading	9-25/#m1/main-text																																													
1424	1424c	psi;6;625	http://papyri.info/ddbdp/psi;6;625	PSI	6		625					gt_ri	gt_list	gt_acct			Abrechnung,Ausgaben (Geld),Tagesdaten		account				http://www.psi-online.it/documents/psi;6;625			fh	19.6	5.3	VR		0.6	3.1	0.5	0	1				1	3	#section1 #section2 #section3/											1-5/#m1/main-text	6-6/#m1/heading	7-21/#m1/main-text																																													
1791	1791	p.col;4;77	http://papyri.info/ddbdp/p.col;4;77	P.Col.	4		77					gt_ri	gt_list	gt_acct			Abrechnung,Aufwendungen,Weizen,Geld,Namen		account				https://papyri.info/ddbdp/p.col;4;77/images			fh	33	9.6	VR		0.5	0.3	0	0	1				1	1	#section1/											1-42/#m1/main-text																																															
1808	1808	p.col;4;95	http://papyri.info/ddbdp/p.col;4;95	P.Col.	4		95					gt_ri	gt_list	gt_acct			Abrechnung,Heu,Mengen		account				https://papyri.info/ddbdp/p.col;4;95/images			fh	9.5	10.4	Sq		1.8	1	0.6	1.3	1				1	2	#section1 #section2/											1-1/#m1/descr-contents	1-8/#m1/main-text																																														
1961	1961	p.mich;1;61	http://papyri.info/ddbdp/p.mich;1;61	P.Mich.	1		61					gt_ri	gt_list	gt_acct			Abrechnung,Geld		account		https://quod.lib.umich.edu/cgi/i/image/api/manifest/apis:1882:3218R.TIF		http://quod.lib.umich.edu/a/apis/x-1882			fh	33	17.5	VR		2.5	3.1	5.8	0	1				1	1	#section1/											1-29/#m1/main-text																																															
2054	2054	psi;4;368	http://papyri.info/ddbdp/psi;4;368	PSI	4		368					gt_ri	gt_list	gt_acct			Abrechnung,Namen		account				http://www.psi-online.it/documents/psi;4;368			fh	32	24.1	VR		1	0	0	0	2				1	1	#section1/											1-63/#m1/main-text																																															
2140	2140	psi;5;518	http://papyri.info/ddbdp/psi;5;518	PSI	5		518					gt_ri	gt_list	gt_acct			Abrechnung,Erhalt (Sesam),Bezahlung,Name		account				http://www.psi-online.it/documents/psi;5;518	Pap.Flor. XXX, Tav. XC		fh	16.5	11	VR		2.2	3.6	2.3	0	1				1	3	#section1 #section2 #section3/											1-1/#m1/date	1-3/#m1/descr-contents	4-10/#m1/main-text																																													
2420	2420	p.ryl;4;564	http://papyri.info/ddbdp/p.ryl;4;564	P.Ryl.	4		564					gt_ri	gt_list	gt_acct			Abrechnung,Wein		account		https://luna.manchester.ac.uk/luna/servlet/iiif/m/ManchesterDev~93~3~38349~100622/manifest		https://luna.manchester.ac.uk/luna/servlet/s/yf9821			fh	25	10	VR		1.8	0.2	0.2	0	1				1	3	#section1 #section2 #section3/											1-1/#m1/date	2-3/#m1/descr-contents	4-20/#m1/main-text																																													
2427	2427	p.ryl;4;571	http://papyri.info/ddbdp/p.ryl;4;571	P.Ryl.	4		571					gt_ri	gt_list	gt_acct			Abrechnung,Arzt,Ölsaaten,Getreide		account		https://luna.manchester.ac.uk/luna/servlet/iiif/m/ManchesterDev~93~3~38468~100632/manifest		https://luna.manchester.ac.uk/luna/servlet/s/91uxl5			fh	15.5	9.5	VR		1.3	3.2	1	0.2	1				1	2	#section1 #section2/											1-2/#m1/descr-contents	3-11/#m1/main-text																																														
3485	3485a	upz;1;94	http://papyri.info/ddbdp/upz;1;94	UPZ	1		94					gt_ri	gt_list	gt_acct			Abrechnung,Getreide		account				https://collections.louvre.fr/en/ark:/53355/cl010001455	P.Par., Planche XXXVI		fh	16.5	23.4	HR		0.8	1	1	1	4				1	1	#section1/											1-45/#m1/main-text																																															
3749	3749	p.tebt;5;1154	http://papyri.info/ddbdp/p.tebt;5;1154	P.Tebt.	5		1154					gt_ri	gt_list	gt_acct			Abrechnung (Eingänge und Ausgaben,Geld),Menches		account		https://digicoll.lib.berkeley.edu/nanna/iiif/231447/manifest		https://digicoll.lib.berkeley.edu/record/231447 and https://papyri.info/ddbdp/p.tebt;5;1154/images	P.Tebt. V, Plate IV		fh	30.5	15	VR		3.1	8	3.5	0	1				1	3	#section1 #section2 #section3/											1-1/#m1/date	1-1/#m1/descr-contents	2-16/#m1/main-text																																													
3758	3758	p.tebt;1;122	http://papyri.info/ddbdp/p.tebt;1;122	P.Tebt.	1		122					gt_ri	gt_list	gt_acct			Abrechnung,Ausgaben		account		https://digicoll.lib.berkeley.edu/nanna/iiif/232045/manifest		https://digicoll.lib.berkeley.edu/record/232045			fh	22.8	16.5	VR		1.2	10.7	2.4	5.1	1				1	3	#section1 #section2 #section3/											1-1/#m1/date	1-1/#m1/descr-contents	2-12/#m1/main-text																																													
3767	3767	sb;16;12675	http://papyri.info/ddbdp/sb;16;12675	SB	16		12675					gt_ri	gt_list	gt_acct			Abrechnung,Liste,Ausgaben,Nahrungsmittel,Getreide,Arbeit,Tagelohn,Namen		account		https://digicoll.lib.berkeley.edu/nanna/iiif/231890/manifest	https://digicoll.lib.berkeley.edu/nanna/iiif/231890/canvas/1	https://digicoll.lib.berkeley.edu/record/231890	ZPE 41, 1981, Tafel XVI		fm	14.5	13	VR		0.7	1	4.7	0	1				1	3	#section1 #section2 #section3/											1-1/#m1/date	1-3/#m1/descr-contents	4-22/#m1/main-text																																													
3913	3913	p.tebt;4;1140	http://papyri.info/ddbdp/p.tebt;4;1140	P.Tebt.	4		1140					gt_ri	gt_list	gt_acct			Abrechnungen,Liste,Weizen,Linsen,Namen		account		https://digicoll.lib.berkeley.edu/nanna/iiif/231422/manifest		https://digicoll.lib.berkeley.edu/record/231422			fm	30.1	41	HR		1.5	1	2.5	0	5				1	2	#section1 #section2/											1-1/#m1/descr-contents	2-111/#m1/main-text																																														
4138	4138	sb;16;12560	http://papyri.info/ddbdp/sb;16;12560	SB	16		12560					gt_ri	gt_list	gt_acct			Abrechnung,Namen,Artaben,Empfang,Abgabe		account		https://quod.lib.umich.edu/cgi/i/image/api/manifest/apis:2432:53R.TIF		http://quod.lib.umich.edu/a/apis/x-2432			fh	11	15	HR		1	3	3	5.5	1				1	2	#section1 #section2/											1-1/#m1/date	2-8/#m1/main-text																																														
5245	5245	p.mich;3;200	http://papyri.info/ddbdp/p.mich;3;200	P.Mich.	3		200					gt_ri	gt_list	gt_acct			Abrechnung,Landwirtschaft,Geld,Steuern,Arbeiter		account		https://quod.lib.umich.edu/cgi/i/image/api/manifest/apis:2167:4226V.TIF		http://quod.lib.umich.edu/a/apis/x-2167			fh	17	31	HR		0	0	2	0	4				1	2	#section1 #section2/											1-1/#m1/date	2-78/#m1/main-text																																														
5693	5693	sb;5;7521	http://papyri.info/ddbdp/sb;5;7521	SB	5		7521					gt_ri	gt_list	gt_acct			Abrechnung,Miete (Haus),Namen		account		https://quod.lib.umich.edu/cgi/i/image/api/manifest/apis:1860:3197R.TIF		http://quod.lib.umich.edu/a/apis/x-1860			fh	16	32.1	HR		2	2.5	5	5	2				1	3	#section1 #section2 #section3/											1-1/#m1/date	1-2/#m1/descr-contents	3-26/#m1/main-text																																													
7459	7459	p.petr;3;46	https://papyri.info/ddbdp/p.petr.kleon;;124	P.Petr.	3		46					gt_ri	gt_list	gt_acct			Abrechnung,Ziegel,Geld		account				https://digital.bodleian.ox.ac.uk/objects/66a5e4e2-17be-4664-a261-543aa769d925/	P.Petr. II, XV (2)		fh	25	23.5	VR		6	3	3.3	1	1				1	2	#section1 #section2/											1-1/#m1/descr-contents	2-13/#m1/main-text																																														
7947	7947	p.tebt;3.2;858	http://papyri.info/ddbdp/p.tebt;3.2;858	P.Tebt.	3	.2	858					gt_ri	gt_list	gt_acct			Abrechnung,Liste,Getreide,Transport,Schiff,Esel		account		https://digicoll.lib.berkeley.edu/nanna/iiif/230867/manifest		https://digicoll.lib.berkeley.edu/record/230867			fh	28	17	VR		1	8	1	2.5	1				1	2	#section1 #section2/											1-1/#m1/descr-contents	2-12/#m1/main-text																																														
11972	11972	p.mich;2;127	http://papyri.info/ddbdp/p.mich;2;127	P.Mich.	2		127					gt_ri	gt_list	gt_acct			Abrechnung,Ausgaben,Getreide,Öl,Wolle		account		https://quod.lib.umich.edu/cgi/i/image/api/manifest/apis:3031:693R.TIF		http://quod.lib.umich.edu/a/apis/x-3031			fh	28	31.2	HR		0	0	0.8	1	3				1	3	#section1 #section2 #section3/											1-1/#m1/descr-contents	1-3/#m1/date	4-120/#m1/main-text																																													
12275	12275	p.mich;10;594	http://papyri.info/ddbdp/p.mich;10;594	P.Mich.	10		594					gt_ri	gt_list	gt_acct			Liste,Schulden,Steuern,Geld		account		https://quod.lib.umich.edu/cgi/i/image/api/manifest/apis:2663:618R.TIF-2		http://quod.lib.umich.edu/a/apis/x-2663			fh	28.7	22	VR		2	9	2.5	7	1				1	2	#section1 #section2/											1-4/#m1/descr-contents	5-15/#m1/main-text																																														
12348	12348	p.mil.vogl;1;28	http://papyri.info/ddbdp/p.mil.vogl;1;28	P.Mil. Vogl.	1		28					gt_ri	gt_list	gt_acct			Liste,Abrechnung,Ernte (Gerste),Einnahmen,Ausgaben		account				http://ipap.csad.ox.ac.uk/4DLink4/4DACTION/IPAPwebquery?vPub=P.Mil.Vogl.&vVol=&vNum=28			fh	23	53	HR		1.5	2.5	5	3.4	4				1	5	#section1 #section2 #section3 #section4 #section5/											1-4/#m1/descr-contents	4-4/#m1/trans-clause	5-28/#m1/main-text	29-29/#m1/heading	30-108/#m1/main-text																																											
13727	13727	p.wisc;2;80	http://papyri.info/ddbdp/p.wisc;2;80	P.Wisc.	2		80					gt_ri	gt_list	gt_acct			Verzeichnis,Torzoll,Lebensmittel,Wolle,Esel,Gefäße,Holz		account		https://quod.lib.umich.edu/cgi/i/image/api/manifest/apis:5443:W16RO.TIF		https://quod.lib.umich.edu/a/apis/x-5443	Plates XXXV und XXXVI P.Merton I XVIII nach S. 62		fh	21.8	59.9	HR		1	1	0	0	5				1	6	#section1 #section2 #section3 #section4 #section5 #section6/											1-5/#m1/opening	6-11/#m1/descr-contents	11-11/#m1/trans-clause	12-191/#m1/main-text	191-196/#m1/subscription	196-197/#m1/date																																										
13788	13788	psi;7;735	http://papyri.info/ddbdp/psi;7;735	PSI	7		735					gt_ri	gt_list	gt_acct			amtliche Abrechnung,Fischfang		account				http://www.psi-online.it/documents/psi;7;735			fh	16.1	7.4	VR		0.8	5	1	0	1				1	6	#section1 #section2 #section3 #section4 #section5 #section6/											1-9/#m1/opening	10-14/#m1/descr-contents	14-14/#m1/trans-clause	14-16/#m1/main-text	17-18/#m1/date	18-19/#m1/addition																																										
14476	14476	sb;14;11555	http://papyri.info/ddbdp/sb;14;11555	SB	14		11555					gt_ri	gt_list	gt_acct			Abrechnung,Wein,Namen		account				http://www.bml.firenze.sbn.it/laformadelibro/sezioni_ing/scheda13.htm	La forma del libro, S. 40-41		fv	19.5	20.5	Sq			1.1	0.6	1.8	2.8				1	2	#section1 #section2/											1-1/#m1/descr-contents	2-41/#m1/main-text																																														
14542	14542	sb;14;12078	http://papyri.info/ddbdp/sb;14;12078	SB	14		12078					gt_ri	gt_list	gt_acct			Abrechnung,Steuer,Bezirke		account		https://quod.lib.umich.edu/cgi/i/image/api/manifest/apis:1511:1716R.TIF		http://quod.lib.umich.edu/a/apis/x-1511			fh	25	12	VR		1.8	21.2	1	0.5	1				1	2	#section1 #section2/											1-1/#m1/descr-contents	2-5/#m1/main-text																																														
17072	17072	p.sarap;;55	http://papyri.info/ddbdp/p.sarap;;55	P.Sarap.			55					gt_ri	gt_list	gt_acct			Abrechnung,Einnahmen,Ausgaben		account				http://corsair.themorgan.org/vwebv/holdingsInfo?bibId=350381			fh	22.8	15.2	VR		1.4	0.8	0.8	0	2				1	2	#section1 #section2/											1-1/#m1/descr-contents	2-56/#m1/main-text																																														
17073	17073	p.sarap;;56	http://papyri.info/ddbdp/p.sarap;;56	P.Sarap.			56					gt_ri	gt_list	gt_acct			Abrechnung,Einnahmen,Ausgaben		account				http://corsair.themorgan.org/vwebv/holdingsInfo?bibId=350382			fh	21.5	16.5	VR		1.5	1.5	1	1.3	2				1	2	#section1 #section2/											1-1/#m1/descr-contents	2-41/#m1/main-text																																														
17079	17079	p.sarap;;62	http://papyri.info/ddbdp/p.sarap;;62	P.Sarap.			62					gt_ri	gt_list	gt_acct			Abrechnung,Einnahmen,Pachtzins,Darlehen		account				http://corsair.themorgan.org/vwebv/holdingsInfo?bibId=350383	Z. 74 - 101: Planche II B		fh	17.7	49.5	HR		1	0.8	0.5	8.2	5				2	1	#section1/	#section1/										1-101/#m1 #m2/main-text																																															
17509	17509	p.oxy;17;2129	http://papyri.info/ddbdp/p.oxy;17;2129	P.Oxy.	17		2129					gt_ri	gt_list	gt_acct			Bericht,Steuern,Land,Vermögen,Namen,Monate,Geld		account	https://widgets.figshare.com/articles/21162466/embed?show_title=1			https://doi.org/10.25446/oxford.21162466.v1			fv	26.2	38.3	HR		0.5	1	0	0	4				1	1	#section1/											1-97/#m1/main-text																																															
17646	17646	psi;7;733	http://papyri.info/ddbdp/psi;7;733	PSI	7		733					gt_ri	gt_list	gt_acct			Abrechnungen,πράκτορες,Namen		account				http://www.psi-online.it/documents/psi;7;733			fh	26	9.5	VR		1	3	1	0	2				1	11	#section1 #section2 #section3 #section4 #section5 #section6 #section7 #section8 #section9 #section10 #section11/											1-7/#m1/opening	8-13/#m1/descr-contents	14-14/#m1/trans-clause	15-30/#m1/main-text	31-33/#m1/date	34-42/#m1/opening	42-49/#m1/descr-contents	50-50/#m1/trans-clause	51-65/#m1/main-text	66-70/#m1/date	71-73/#m1/subscription																																					
17905	17905	p.oxy;58;3921dupl	http://papyri.info/ddbdp/p.oxy;58;3921dupl	P.Oxy.	58		3921					gt_ri	gt_list	gt_acct			Vormund,Abrechnung,Aufwendung,Geld,jährlich,Ausgaben,monatlich		account	https://widgets.figshare.com/articles/21176782/embed?show_title=1			https://doi.org/10.25446/oxford.21176782.v1			fh	25.5	27.5	HR		1.5	2.4	5.3	0.5	2				3	8	#section1 #section2 #section3 #section4 #section5 #section6 #section7/	#section8/	#section8/									1-9/#m1/opening	11-13/#m1/descr-contents	14-14/#m1/heading	15-26/#m1/main-text	27-27/#m1/heading	28-46/#m1/main-text	47-48/#m1/date	48-53/#m2 #m3/addition																																								
19629	19629	p.brem;;45	http://papyri.info/ddbdp/p.brem;;45	P.Brem.			45					gt_ri	gt_list	gt_acct			Abrechnung,Einnahmen (Pachtzinsen)		account		https://brema.suub.uni-bremen.de/i3f/v20/770801/manifest		http://brema.suub.uni-bremen.de/papyri/content/titleinfo/770801			fh	16	10.5	VR		0.7	1.6	1.1	0.5	1				1	1	#section1/											1-17/#m1/main-text																																															
20191	20191	bgu;1;14	http://papyri.info/ddbdp/bgu;1;14	BGU	1		14					gt_ri	gt_list	gt_acct			Abrechnung,Landgut,Ausgaben,Einnahmen		account				http://berlpap.smb.museum/01030/			fh	23.5	77	HR		1	1	0	0	6				3	11	#section1 #section2/	#section3 #section4 #section5 #section6 #section7 #section8 #section9 #section10/	#section3									1-1/#m1/heading	2-5/#m1/date	6-6/#m2/subscription	7-7/#m3/addition	8-8/#m2/opening	9-12/#m2/descr-contents	12-12/#m2/trans-clause	13-13/#m2/heading	13-23/#m2/main-text	24-24/#m2/heading	25-114/#m2/main-text																																					
22471	22471	p.oxy;47;3359	http://papyri.info/ddbdp/p.oxy;47;3359	P.Oxy.	47		3359					gt_ri	gt_list	gt_acct			Abrechnung,Getreide,Zuteilung an δεκάπρωτοι		account	https://widgets.figshare.com/articles/21168049/embed?show_title=1			https://doi.org/10.25446/oxford.21168049.v1			fh	13.6	8.2	VR		1.5	3.5	1.5	0	1				1	1	#section1/											1-9/#m1/main-text																																															
25212	25212	p.phil;;19	http://papyri.info/ddbdp/p.phil;;19	P.Phil.			19					gt_ri	gt_list	gt_acct			Abrechnung,Kleinvieh,Domänen,Steuern,Freigelassener		account				http://ipap.csad.ox.ac.uk/4DLink4/4DACTION/IPAPwebquery?vPub=P.Phil.&vVol=&vNum=19	Pl. V		fh	21	20	Sq		0.5	2	1.5	4.1	1				1	13	#section1 #section2 #section3 #section4 #section5 #section6 #section7 #section8 #section9 #section10 #section11 #section12 #section13/											1-1/#m1/descr-contents	2-3/#m1/heading	3-4/#m1/main-text	5-5/#m1/heading	5-6/#m1/main-text	7-7/#m1/heading	7-8/#m1/main-text	9-9/#m1/heading	9-11/#m1/main-text	12-13/#m1/heading	13-14/#m1/main-text	15-15/#m1/heading	15-19/#m1/main-text																																			
25667	25667	p.oxy;6;971	http://papyri.info/ddbdp/p.oxy;6;971	P.Oxy.	6		971					gt_ri	gt_list	gt_acct			Abrechnung,Bewässerung,Geld		account				http://www.spurlock.uiuc.edu/search/details.php?a=1914.21.0014			fh	14.7	7	VR		1.4	6.8	0.9	0	1				1	2	#section1 #section2/											1-1/#m1/descr-contents	2-10/#m1/main-text																																														
25696	25696	p.tebt;2;509	http://papyri.info/ddbdp/p.tebt;2;509	P.Tebt.	2		509					gt_ri	gt_list	gt_acct			Abrechnung,Getreide		account		https://digicoll.lib.berkeley.edu/nanna/iiif/232092/manifest		https://digicoll.lib.berkeley.edu/record/232092			fh	6.4	7.6	Sq		1.5	0.3	0.5	0.2	1				1	4	#section1 #section2 #section3 #section4/											1-1/#m1/heading	2-5/#m1/main-text	6-6/#m1/heading	6-7/#m1/main-text																																												
25911	25911	p.oslo;3;143	http://papyri.info/ddbdp/p.oslo;3;143	P.Oslo	3		143					gt_ri	gt_list	gt_acct			Liste,Abrechnung,Aufwendungen,Priester,Verein		account				https://ub-baser.uio.no/opes/record/134			fh	9.5	8.3	Sq		0.3	1.5	1.5	0	1				1	2	#section1 #section2/											1-1/#m1/descr-contents	2-11/#m1/main-text																																														
26608	26608	p.oxy;49;3495	http://papyri.info/ddbdp/p.oxy;49;3495	P.Oxy.	49		3495					gt_ri	gt_list	gt_acct			Liste (Einnahmen,Ausgaben),Fischfang,Tagesdaten		account				https://doi.org/10.25446/oxford.21168583.v1			fv	22.4	92.5	HR		1	0	31	0	7				1	3	#section1 #section2 #section3/											1-1/#m1/opening	1-1/#m1/heading	2-207/#m1/main-text																																													
27216	27216	p.phil;;17	http://papyri.info/ddbdp/p.phil;;17	P.Phil.			17					gt_ri	gt_list	gt_acct			Abrechnung,Getreide,Verwaltung,Speicher		account				http://ipap.csad.ox.ac.uk/4DLink4/4DACTION/IPAPwebquery?vPub=P.Phil.&vVol=&vNum=17	Pl. IV		fv	22.5	13	VR		2	0.2	3	2.5	1				1	2	#section1 #section2/											1-1/#m1/descr-contents	1-26/#m1/main-text																																														
27804	27804	sb;3;7199	http://papyri.info/ddbdp/sb;3;7199	SB	3		7199					gt_ri	gt_list	gt_acct			Abrechnung,Wein		account		https://adore.ugent.be/IIIF/manifests/archive.ugent.be%3A2C572E4E-6FF8-11E1-B938-579D3B7C8C91		https://lib.ugent.be/catalog/rug01:001484442			fh	23.1	29.5	HR		0.9	2.4	0.7	0.5	3				1	2	#section1 #section2/											1-1/#m1/opening	2-64/#m1/main-text																																														
28144	28144	bgu;2;466	http://papyri.info/ddbdp/bgu;2;466	BGU	2		466					gt_ri	gt_list	gt_acct			Abrechnung,Ausgaben,Logisterion		account				http://berlpap.smb.museum/01835/			fh	11	6	VR		0.5	3.3	0.6	0	1				1	2	#section1 #section2/											1-1/#m1/descr-contents	2-12/#m1/main-text																																														
28197	28197	bgu;2;642	http://papyri.info/ddbdp/bgu;2;642	BGU	2		642					gt_ri	gt_list	gt_acct			Abrechnung		account				http://berlpap.smb.museum/01806/			fh	9.8	14.3	HR		0.8	5.6	1.5	0.6	1				1	1	#section1/											1-3/#m1/main-text																																															
28362	28362	p.oxy;3;522	http://papyri.info/ddbdp/p.oxy;3;522	P.Oxy.	3		522					gt_ri	gt_list	gt_acct			Abrechnung,Fracht (Schiff),Getreide,Transport,Geld		account				https://findit.library.yale.edu/catalog/digcoll:2756829			fh	31.2	18.4	VR		1	0	1	5.5	1				1	2	#section1 #section2/											1-1/#m1/descr-contents	1-31/#m1/main-text																																														
29233	29233	bgu;13;2354	http://papyri.info/ddbdp/bgu;13;2354	BGU	13		2354					gt_ri	gt_list	gt_acct			Abrechnung,Arbeiter,Löhne		account				http://berlpap.smb.museum/04541/			fh	18.5	8.3	VR		1	9.3	1.3	0.5	1				1	1	#section1/											1-14/#m1/main-text																																															
30298	30298	sb;16;12790	http://papyri.info/ddbdp/sb;16;12790	SB	16		12790					gt_ri	gt_list	gt_acct			Abrechnung,Einnahmen,Ausgaben,Oliven,Öl,Müller,Qualität,Namen		account				http://berlpap.smb.museum/01997/	keine		fh	22.8	12.5	VR		2	2	1.5	0.5	1				1	2	#section1 #section2/											1-2/#m1/descr-contents	2-24/#m1/main-text																																														
30432	30432	p.oxy;31;2580	http://papyri.info/ddbdp/p.oxy;31;2580	P.Oxy.	31		2580					gt_ri	gt_list	gt_acct			Rechnung,Preis für Pech,Arbeitskraft,Transport		account	https://widgets.figshare.com/articles/21165271/embed?show_title=1			https://doi.org/10.25446/oxford.21165271.v1			fv	33.5	9	VR		1.5	18	1	0	1				1	1	#section1/											1-16/#m1/main-text																																															
31358	31358	p.tebt;2;404	http://papyri.info/ddbdp/p.tebt;2;404	P.Tebt.	2		404					gt_ri	gt_list	gt_acct			Abrechnung,Geld,Kleinvieh		account		https://digicoll.lib.berkeley.edu/nanna/iiif/231534/manifest		https://digicoll.lib.berkeley.edu/record/231534			fm	21	32.2	HR		0.8	2	4.2	15	1				1	2	#section1 #section2/											1-1/#m1/descr-contents	2-14/#m1/main-text																																														
31384	31384	p.corn;;32	http://papyri.info/ddbdp/p.corn;;32	P.Corn.			32					gt_ri	gt_list	gt_acct			Rechnung (privat),Geldsummen		account		https://quod.lib.umich.edu/cgi/i/image/api/manifest/apis:1232:C1_87V.TIF		http://quod.lib.umich.edu/a/apis/x-1232			fv	21.8	14.2	VR		2.3	4.1	1.2	5.4	1				1	1	#section1/											1-18/#m1/main-text																																															
31772	31772	p.oxy;14;1651	http://papyri.info/ddbdp/p.oxy;14;1651	P.Oxy.	14		1651					gt_ri	gt_list	gt_acct			Abrechnung,Transport,Geld,Wein		account				http://ipap.csad.ox.ac.uk/4DLink4/4DACTION/IPAPwebquery?vPub=P.Oxy.&vVol=14&vNum=1651			fv	15.1	11	VR		0.6	0.2	1.5	1.1	1				1	1	#section1/											1-19/#m1/main-text																																															
32220	32220	p.louvre;1;56	http://papyri.info/ddbdp/p.louvre;1;56	P.Louvre	1		56					gt_ri	gt_list	gt_acct			Abrechnung,Arbeiter		account				https://collections.louvre.fr/en/ark:/53355/cl010041700	Tafel 55		fh	21.5	5.5	VR		0.6	1.2	0.4	0	1				1	3	#section1 #section2 #section3/											1-1/#m1/descr-contents	2-2/#m1/heading	3-19/#m1/main-text																																													
114324	114324	psi;15;1545	http://papyri.info/ddbdp/psi;15;1545	PSI	15		1545					gt_ri	gt_list	gt_acct			Aufstellung,Abrechnung,Ausgaben und Einnahmen,Geld,Klee,Gerste,Gemüsesamen,Weizen		account				http://www.psi-online.it/documents/psi;15;1545	Tav. LXVI		fh	20	7.5	VR		0.9	1	0	0.1	1				1	2	#section1 #section2/											1-1/#m1/col-no	2-25/#m1/main-text																																														
121985	121985	p.nyu;2;53	http://papyri.info/ddbdp/p.nyu;2;53	P.NYU	2		53					gt_ri	gt_list	gt_acct			Abrechnung,Einnahmen und Ausgaben,Wein,Transportkosten,Geld		account		https://sites.dlib.nyu.edu/viewer/api/image/photos/fales_mss559_cuid30399/1/info.json		https://papyri.info/ddbdp/p.nyu;2;53/images	Plate XXXIII ZPE 149, 2004, S. 123		fv	23	10	VR		0.8	4.8	1	1	1				1	3	#section1 #section2 #section3/											1-1/#m1/date	1-1/#m1/descr-contents	2-9/#m1/main-text																																													
130560	130560	p.prag;3;236r	http://papyri.info/ddbdp/p.prag;3;236r	P.Prag.	3		236					gt_ri	gt_list	gt_acct			Abrechnung (monatlich),Entwurf,Einnahmen und Ausgaben,Geld,verschiedene landwirtschaftliche Produkte		account				http://data.onb.ac.at/rec/RZ00010378	Tav. XXI - XXII		fh	21	63	HR		0.3	0.6	0.8	0	7				1	5	#section1 #section2 #section3 #section4/											1-6/#m1/opening	7-8/#m1/descr-contents	8-8/#m1/trans-clause	9-9/#m1/heading	9-165/#m1/main-text																																											