TM	HGV	DDB	papyri-info	series	volume	fascicle	numbers	side	generic	page	number	format-type	format-subtype	format-variation	text-type	text-subtype	hgv-subjects	hgv-de	hgv-en	iframe	IIIF	canvasID	image	printed-image	image-rights	fibres	height	width	shape	writing-parallel	margin-top	margin-bottom	margin-left	margin-right	columns	blank-after	blank-height	seal	hand-nb	section-nb	m1	m2	m3	m4	m5	m6	m7	m8	m9	m10	m11	section1	section2	section3	section4	section5	section6	section7	section8	section9	section10	section11	section12	section13	section14	section15	section16	section17	section18	section19	section20	section21	section22	section23	section24	section25	section26	section27	section28	section29	section30	section31	section32	section33	section34	section35	section36	section37	section38	section39	section40	section41	section42	section43	section44	section45	section43	section44	section45
708	708	p.cair.zen;1;59048	https://papyri.info/ddbdp/p.cair.zen;1;59048	P.Cair.Zen.	1		59048					gt_ti	gt_businessNote				Bericht (geschäftlich),Aristeus an Aratos,Anweisung,Kauf		Business Note,Purchase				http://ipap.csad.ox.ac.uk/4DLink4/4DACTION/IPAPwebquery?vPub=P.Cair.Zen.&vVol=1&vNum=59048			fh	5.5	19	HR		2	0.4	1.8	0.5	1				1	2	#section1 #section2/											1-1/#m1/introduction	1-5/#m1/main-text																																														
818	818	p.cair.zen;2;59172	https://papyri.info/ddbdp/p.cair.zen;2;59172	P.Cair.Zen.	2		59172					gt_ti	gt_businessNote				Bericht,Komoapis an Zenon,Bau,Kanal,Straße,Aufwand,Kosten,Bürgen		Business Note,Canal				http://ipap.csad.ox.ac.uk/4DLink4/4DACTION/IPAPwebquery?vPub=P.Cair.Zen.&vVol=2&vNum=59172			fh	39.5	16.5	VR		0.5	1.5	0.5	0	1				1	2	#section1 #section2/											1-1/#m1/introduction	2-36/#m1/main-text																																														
834	834	p.cair.zen;2;59188	https://papyri.info/ddbdp/p.cair.zen;2;59188	P.Cair.Zen.	2		59188					gt_ti	gt_businessNote				Bericht,Otearmotes,Anweisung,Land,Vermessung,Schiff		Business Note,Ship,Survey				http://ipap.csad.ox.ac.uk/4DLink4/4DACTION/IPAPwebquery?vPub=P.Cair.Zen.&vVol=2&vNum=59188			fh	20	22	Sq		2	8.1	5	2.3	1				1	2	#section1 #section2/											1-1/#m1/introduction	2-8/#m1/main-text																																														
905	905	p.cair.zen;2;59261	https://papyri.info/ddbdp/p.cair.zen;2;59261	P.Cair.Zen.	2		59261					gt_ti	gt_businessNote				Bericht,Fischhändler an Zenon,Abrechnung,Lieferung,Fische		Business Note,Fishmonger,Delivery				http://ipap.csad.ox.ac.uk/PCZ-colour/300dpi/P.Cair.Zen.II.59261.jpg			fh	25.5	9.5	VR		3.8	5.2	0	0	1				1	2	#section1 #section2/											1-3/#m1/introduction	4-19/#m1/main-text																																														
945	945	p.cair.zen;3;59301	https://papyri.info/ddbdp/p.cair.zen;3;59301	P.Cair.Zen.	3		59301					gt_ti	gt_businessNote				Brief,Bericht,Kassandros an Zenon,Ernte,Arbeiter,Entlassung,Gesuch		Business Note,Dismissal of Worker				http://ipap.csad.ox.ac.uk/4DLink4/4DACTION/IPAPwebquery?vPub=P.Cair.Zen.&vVol=3&vNum=59301			fv	15	32.5	HR		2.9	2.8	3.7	0	1				1	4	#section1 #section2 #section3 #section4/											1-2/#m1/introduction	2-5/#m1/main-text	6-6/#m1/subscription	6-6/#m1/date																																												
951	951	p.cair.zen;3;59307	https://papyri.info/ddbdp/p.cair.zen;3;59307	P.Cair.Zen.	3		59307					gt_ti	gt_businessNote				Brief,Bericht,Dionysios an Zenon,Bürgschaft,Geld,Zahlung,Bewässerung		Business Note,Money,Irrigation				http://ipap.csad.ox.ac.uk/4DLink4/4DACTION/IPAPwebquery?vPub=P.Cair.Zen.&vVol=3&vNum=59307			fh	22	7.5	VR		0.6	1.3	0.5	0	2				1	3	#section1 #section2 #section3/											1-3/#m1/introduction	3-23/#m1/main-text	24-25/#m1/date																																													
1020	1020	p.cair.zen;3;59377	https://papyri.info/ddbdp/p.cair.zen;3;59377	P.Cair.Zen.	3		59377					gt_ti	gt_businessNote				Hypomnema,Beschwerde an Zenon,Land,Bewässerung,Saatgut,Getreide		Business Note,Land,Irrigation,Cereal				http://ipap.csad.ox.ac.uk/4DLink4/4DACTION/IPAPwebquery?vPub=P.Cair.Zen.&vVol=3&vNum=59377			fv	14	17	HR		1.4	2.5	1	0	1				1	2	#section1 #section2/											1-2/#m1/introduction	2-11/#m1/main-text																																														
1027	1027	p.cair.zen;3;59384	https://papyri.info/ddbdp/p.cair.zen;3;59384	P.Cair.Zen.	3		59384					gt_ti	gt_businessNote				Mitteilung,Antipatros an Zenon,Geld,Verlust		Business Note,Money				http://ipap.csad.ox.ac.uk/4DLink4/4DACTION/IPAPwebquery?vPub=P.Cair.Zen.&vVol=3&vNum=59384			fh	29.5	8.5	VR		1.5	9	1.8	0.3	1				1	2	#section1 #section2/											1-2/#m1/introduction	3-18/#m1/main-text																																														
1048	1048	p.cair.zen;3;59406	https://papyri.info/ddbdp/p.cair.zen;3;59406	P.Cair.Zen.	3		59406					gt_ti	gt_businessNote				Mitteilung von Asklepiades,Sklaven,Schafe,Liste		Business Note,Slaves,Sheep				http://ipap.csad.ox.ac.uk/4DLink4/4DACTION/IPAPwebquery?vPub=P.Cair.Zen.&vVol=3&vNum=59406			fv	38	10	VR		1.8	14.2	0.1	0	1				1	2	#section1 #section2/											1-2/#m1/introduction	2-17/#m1/main-text																																														
1062	1062	p.cair.zen;3;59422	https://papyri.info/ddbdp/p.cair.zen;3;59422	P.Cair.Zen.	3		59422					gt_ti	gt_businessNote				Mitteilung,Dionysios an Zenon,Ziegen,Pacht,Vieh		Business Note,Lease of cattle				http://ipap.csad.ox.ac.uk/4DLink4/4DACTION/IPAPwebquery?vPub=P.Cair.Zen.&vVol=3&vNum=59422			fh	19.5	7.5	VR		1.2	3	0.2	0	1				1	2	#section1 #section2/											1-2/#m1/introduction	2-16/#m1/main-text																																														
1079	1079	p.cair.zen;3;59439	https://papyri.info/ddbdp/p.cair.zen;3;59439	P.Cair.Zen.	3		59439					gt_ti	gt_businessNote				Mitteilung,Herakleides an Zenon,Anzeige,Schweinehirten,Schweine		Business Note,Pig farmer				http://ipap.csad.ox.ac.uk/4DLink4/4DACTION/IPAPwebquery?vPub=P.Cair.Zen.&vVol=3&vNum=59439			fh	7	19	HR		1	0.5	1.3	0.2	1				1	3	#section1 #section2 #section3/											1-1/#m1/introduction	1-6/#m1/main-text	6-6/#m1/subscription																																													
1096	1096	p.cair.zen;3;59457	https://papyri.info/ddbdp/p.cair.zen;3;59457	P.Cair.Zen.	3		59457					gt_ti	gt_businessNote				Abrechnung,Lohn,Verpflegung,Ausbildung,Gymnasium		Business Note,Wage,Food,Gymnasium				http://ipap.csad.ox.ac.uk/4DLink4/4DACTION/IPAPwebquery?vPub=P.Cair.Zen.&vVol=3&vNum=59457			fh	10.5	11	Sq		1.1	0.2	0.8	0.1	1				1	2	#section1 #section2/											1-3/#m1/introduction	3-10/#m1/main-text																																														
1122	1122	p.cair.zen;3;59484	https://papyri.info/ddbdp/p.cair.zen;3;59484	P.Cair.Zen.	3		59484					gt_ti	gt_businessNote				Mitteilung,Eingabe,Pais an Zenon,Teppich,Weber,Konkurenz,Gefängnis		Business Note,Weaver,Prison				http://ipap.csad.ox.ac.uk/4DLink4/4DACTION/IPAPwebquery?vPub=P.Cair.Zen.&vVol=3&vNum=59484			fh	40	16.5	VR		1	0.6	1	0	1				1	3	#section1 #section2 #section3/											1-2/#m1/introduction	2-24/#m1/main-text	25-25/#m1/subscription																																													
1132	1132	p.cair.zen;3;59494	https://papyri.info/ddbdp/p.cair.zen;3;59494	P.Cair.Zen.	3		59494					gt_ti	gt_businessNote				Mitteilung,Petearmotis an Zenon,Getreide,Sieben,Lohn,Reinigung		Business Note,Wages,Grain				http://ipap.csad.ox.ac.uk/4DLink4/4DACTION/IPAPwebquery?vPub=P.Cair.Zen.&vVol=3&vNum=59494			fv	29	13.5	VR		1.5	1	1	0	1				1	3	#section1 #section2 #section3/											1-2/#m1/introduction	2-19/#m1/main-text	20-20/#m1/subscription																																													
1145	1145	p.cair.zen;3;59507	https://papyri.info/ddbdp/p.cair.zen;3;59507	PSI.	4		443					gt_ti	gt_businessNote				Mitteilung,Pyrrhos an Zenon,Reise,Bezahlung,Verpflegung,Lohn,Kleidung		Business Note,Travel,Wages				http://ipap.csad.ox.ac.uk/4DLink4/4DACTION/IPAPwebquery?vPub=P.Cair.Zen.&vVol=3&vNum=59507			fh	33	13.5	VR		3	0	3	0	1				1	3	#section1 #section2 #section3/											1-2/#m1/introduction	2-31/#m1/main-text	32-32/#m1/subscription																																													
1280	1280	p.cair.zen;4;59649	https://papyri.info/ddbdp/p.cair.zen;4;59649	P.Cair.Zen.	4		59649					gt_ti	gt_businessNote				Bericht an Zenon,Kosten,Schiff,Mannschaft,Lohn,Steuern,Holz,Segel,Schiffsbauer		Business Note,Ship,Wood,Sales				http://ipap.csad.ox.ac.uk/4DLink4/4DACTION/IPAPwebquery?vPub=P.Cair.Zen.&vVol=4&vNum=59649			fh	32.5	13	VR		2.3	0.7	0.8	0	1				1	2	#section1 #section2/											1-2/#m1/introduction	2-34/#m1/main-text																																														
1761	1761	p.col;3;44	https://papyri.info/ddbdp/p.col;3;44	P.Col.	3		44					gt_ti	gt_businessNote				Notiz,Phamunis an Zenon,Boot,Geld,Knappheit		Business Note,Money,Boat				https://papyri.info/ddbdp/p.col;3;44/images			fh	19.8	11.3	VR		1.5	0	1	0	1				1	3	#section1 #section2 #section3/											1-2/#m1/introduction	2-20/#m1/main-text	20-20/#m1/subscription																																													
1945	1945	p.mich;1;45	https://papyri.info/ddbdp/p.mich;1;45	P.Mich.	1		45					gt_ti	gt_businessNote				Notiz,Arbeit (landwirtschaftlich),Zahlung		Business Note,Work,Wages		https://quod.lib.umich.edu/cgi/i/image/api/manifest/apis:1798:3109R.TIF		https://quod.lib.umich.edu/a/apis/x-1798/		free	fh	33.5	11	VR		1.9	2.8	0.3	0	1				1	2	#section1 #section2/											1-1/#m1/introduction	2-27/#m1/main-text																																														
2089	2089	psi;4;406	https://papyri.info/ddbdp/psi;4;406	PSI	4		406					gt_ti	gt_businessNote				Brief (privat),Herakleides an Zenon,Bericht über Drimylos und Dionysios,Mißbrauch (Sklave),Diebstahl (mehrere Sklavinnen),Verkauf (Esel)		Business Note,Slave,Donkey				http://www.psi-online.it/documents/psi;4;406			fh	31	20.8	VR		2	4	1.3	0	2				1	2	#section1 #section2/											1-3/#m1/introduction	4-49/#m1/main-text																																														
2090	2090	psi;4;407	https://papyri.info/ddbdp/psi;4;407	PSI	4		407					gt_ti	gt_businessNote				Brief (privat),Theuphilos an Zenon,Vollendung (Malerarbeit),Bitte um neue Aufträge oder Geld (für Reise zu den Brüdern)		Business Note,Painting,Payment				http://www.psi-online.it/documents/psi;4;407			fv	17.5	13	VR		1.8	1.5	0.4	0	1				1	3	#section1 #section2 #section3/											1-2/#m1/introduction	2-14/#m1/main-text	14-14/#m1/subscription																																													
2091	2091	psi;4;408	https://papyri.info/ddbdp/psi;4;408	PSI	4		408					gt_ti	gt_businessNote				Brief (privat),Thrakidas an Zenon,Beschwerde wegen ausbleibender Bezahlung		Business Note,Non-payment				http://www.psi-online.it/documents/psi;4;408			fh	15.3	9	VR		1	2.3	0.8	0	1				1	3	#section1 #section2 #section3/											1-2/#m1/introduction	2-12/#m1/main-text	13-13/#m1/subscription																																													
2092	2092	psi;4;409	https://papyri.info/ddbdp/psi;4;409	PSI	4		409		a			gt_ti	gt_businessNote				Brief (privat),Hinaroys an Artemidoros,Zucht (Kälber),verschiedene Bestimmung (Fest, Opfer...)		Business Note,Calves				http://www.psi-online.it/documents/psi;4;409			fh	32	12.3	VR		2.5	2	0	0	1				1	3	#section1 #section2 #section3/											1-2/#m1/introduction	2-24/#m1/main-text	25-25/#m1/subscription																																													
2095	2095	psi;4;412	https://papyri.info/ddbdp/psi;4;412	PSI	4		412					gt_ti	gt_businessNote				Brief (privat),N.N. an Zenon,Bitte um Empfehlung des Theron bei Eunomos		Business Note,Recommendation				http://www.psi-online.it/documents/psi;4;412			fv	13.5	15.8	HR		1	3	0.6	0.6	1				1	2	#section1 #section2/											1-1/#m1/introduction	1-10/#m1/main-text																																														
2149	2149	psi;5;527	https://papyri.info/ddbdp/psi;5;527	PSI	5		527					gt_ti	gt_businessNote				Brief (privat),Glaukias an Zenon,Bericht betr. Packsattel,Gürtel		Business Note,Saddle,Belt				http://www.psi-online.it/documents/psi;5;527			fh	19.6	17.9	VR		1.8	1.6	3.5	2	1				1	2	#section1 #section2/											1-2/#m1/introduction	2-17/#m1/main-text																																														
2150	2150	psi;5;528	https://papyri.info/ddbdp/psi;5;528	PSI	5		528					gt_ti	gt_businessNote				Brief (privat),Kleon an Zenon (seinen Vater?),Bitte um Zusendung (ὀψώνιον, Öl, Wein),Erwähnung eines Briefes (privat),Demetrios und Hippokrates an Kleon		Business Note,Salary,Oil,Wine				http://www.psi-online.it/documents/psi;5;528			fv	15.9	13	VR		1	0.3	0.8	0.4	1				1	3	#section1 #section2 #section3/											1-2/#m1/introduction	2-19/#m1/main-text	20-20/#m1/subscription																																													
2155	2155	psi;5;533	https://papyri.info/ddbdp/psi;5;533	PSI	5		533					gt_ti	gt_businessNote				Brief (privat),A[m]y[n]tos an Zenon,Auftrag,Zusendung (Zelt, Stoff...),Bote Hermon		Business Note,Order for tent				http://www.psi-online.it/documents/psi;5;533			fh	20.7	15	VR		1.6	5	0.5	3	1				1	2	#section1 #section2/											1-1/#m1/introduction	2-18/#m1/main-text																																														
2205	2205	psi;6;595	https://papyri.info/ddbdp/psi;6;595	PSI	6		595					gt_ti	gt_businessNote				Brief (privat),Hypomnema,Nikon an Zenon,betr. Arbeiten an Wassergräben		Business Note,Work,Dykes				http://www.psi-online.it/documents/psi;6;595			fh	10	8	VR		0.7	1.5	0.5	0.2	1				1	3	#section1 #section2 #section3/											1-2/#m1/introduction	2-11/#m1/main-text	12-12/#m1/subscription																																													
3215	3215	p.lille;1;8	https://papyri.info/ddbdp/p.lille;1;8	P.Lille.	1		8					gt_ti	gt_businessNote				Eingabe,Phibios an Nikanor,Diebstahl (Vieh)		Business Note,Theft of cattle				http://ipap.csad.ox.ac.uk/4DLink4/4DACTION/IPAPwebquery?vPub=P.Lille&vVol=&vNum=8			fh	33	16	VR		3	2	0.8	10	1				1	3	#section1 #section2 #section3/											1-3/#m1/introduction	3-15/#m1/main-text	16-16/#m1/subscription																																													
5842	5842	p.eleph;;8	https://papyri.info/ddbdp/p.eleph;;8	P.Eleph.			8					gt_ti	gt_businessNote				Schreiben (amtlich),N.N. an Euphronios,Steuern,Tempel		Business Note,Temple taxes				https://berlpap.smb.museum/03747/			fh	33	9	VR		3.1	3.1	0.8	0	1				1	2	#section1 #section2/											1-3/#m1/introduction	3-23/#m1/main-text																																														
5856	5856	p.eleph;;24	https://papyri.info/ddbdp/p.eleph;;24	P.Eleph.			24					gt_ti	gt_businessNote				Kauf,Versteigerung,Angebot,Häuser,Einkünfte (Priester)		Business Note,House,Purchase				http://ipap.csad.ox.ac.uk/4DLink4/4DACTION/IPAPwebquery?vPub=P.Eleph.&vVol=&vNum=24			fh	17.5	12	VR		3	0	1	0.2	1				2	3	#section1 #section2/	#section3/										1-2/#m1/introduction	3-13/#m1/main-text	13-13/#m2/subscription																																													
7423	7423	p.petr;2;10_2	https://papyri.info/ddbdp/p.petr;2;10_2	P.Petr.	2		10		2			gt_ti	gt_businessNote				Brief (privat),Eingabe,Ammonios an Phaies,Oikonomen,Gefangennahme,Aufenthalt im Gefängnis		Business Note,Prison				http://www.bl.uk/manuscripts/Viewer.aspx?ref=papyrus_528_f001r			fv	18.5	16.6	VR		1.5	1	2	0.7	1				1	3	#section1 #section2 #section3/											1-3/#m1/introduction	3-14/#m1/main-text	14-14/#m1/subscription																																													
12879	12879	p.rein;2;113	https://papyri.info/ddbdp/p.rein;2;113	P.Rein.	2		113					gt_ti	gt_businessNote				Brief (privat),Aurelius Epimachos an Antonius Philoxenos,Bitte um Schutz		Business Note,Request for protection				http://www.papyrologie.paris-sorbonne.fr/photos/1012087.jpg			fh	20	9	VR		1.5	1	1.5	0	1				1	3	#section1 #section2 #section3/											1-5/#m1/introduction	5-28/#m1/main-text	29-29/#m1/subscription																																													
12880	12880	p.rein;2;114	https://papyri.info/ddbdp/p.rein;2;114	P.Rein.	2		114					gt_ti	gt_businessNote				Schreiben (privat),Ischyrion an Heroninos,Auftrag (Fütterung der Ochsen)		Business Note,Cattle				http://www.papyrologie.paris-sorbonne.fr/photos/1022087.jpg			fv	20	9	VR		1.5	2.2	1.9	0.8	1				2	5	#section1 #section2/	#section3 #section4 #section5/										1-1/#m1/introduction	2-5/#m1/main-text	6-7/#m2/subscription	8-8/#m2/introduction	9-9/#m2/date																																											
12881	12881	p.rein;2;115	https://papyri.info/ddbdp/p.rein;2;115	P.Rein.	2		115					gt_ti	gt_businessNote				Brief (privat),Alypios an Heroninos,Kanalarbeiten		Business Note,Canal,Work				http://www.papyrologie.paris-sorbonne.fr/photos/1022077.jpg			fv	25	17	VR		1.3	0	1	0	1				1	5	#section1 #section2 #section3 #section4 #section5/											1-1/#m1/introduction	2-17/#m1/main-text	17-19/#m1/subscription	20-20/#m1/date	20-20/#m1/introduction																																											
12981	12981	p.ryl;2;238	https://papyri.info/ddbdp/p.ryl;2;238	P.Ryl.	2		238					gt_ti	gt_businessNote				Brief (privat),Alypios an Heroninos		Business Note		https://luna.manchester.ac.uk/luna/servlet/iiif/m/ManchesterDev~93~3~55110~167677/manifest		https://luna.manchester.ac.uk/luna/servlet/s/n130ho			fv	22.7	16.6	VR		1.5	1	2	1	1				2	5	#section1 #section2 #section4 #section5/	#section3/										1-1/#m1/introduction	2-13/#m1/main-text	14-15/#m2/subscription	16-16/#m1/introduction	17-17/#m1/date																																											
14139	14139	p.bacch;;9	https://papyri.info/ddbdp/p.bacch;;9	SB	6		9322					gt_ti	gt_businessNote				Kopie von Begleitschreiben zu Liste (Priester, Inventar)		Business Note,Priest,Inventory				https://findit.library.yale.edu/catalog/digcoll:2757204			fh	21.8	5.9	VR		1.4	10.7	0.8	0	1				1	4	#section1 #section2 #section3 #section4/											1-5/#m1/introduction	5-10/#m1/main-text	10-11/#m1/addition	12-15/#m1/date																																												
14141	14141	p.bacch;;13	https://papyri.info/ddbdp/p.bacch;;13	SB	6		9324					gt_ti	gt_businessNote				Begleitschreiben,Einreichung einer Liste (Priester, Inventar)		Business Note,Priest,Inventory				https://findit.library.yale.edu/catalog/digcoll:2757992			fh	16	7.8	VR		1.2	1.3	1	0	1				2	4	#section1 #section2/	#section3 #section4/										1-10/#m1/introduction	11-14/#m1/main-text	15-16/#m2/subscription	17-17/#m2/date																																												
22671	22671	bgu;13;2348	https://papyri.info/ddbdp/bgu;13;2348	BGU	13		2348					gt_ti	gt_businessNote				Auftrag,Lieferung,Holz		Business Note,Order,Delivery,Wood				https://berlpap.smb.museum/04931/			fh	12	10.1	VR		2.5	2.2	1	1.5	1				2	4	#section1 #section2 #section4/	#section3/										1-2/#m1/introduction	3-5/#m1/main-text	5-5/#m2/addition	6-6/#m2/date																																												
26876	26876	p.vind.worp;;18	https://papyri.info/ddbdp/p.vind.worp;;18	P.Vindob. Worp			18					gt_ti	gt_businessNote				Anweisung,Korn		Business Note,Instruction,Grain				http://data.onb.ac.at/rec/RZ00004404			fh	11	10.6	VR		0.8	3.2	0.8	0	1				1	2	#section1 #section2/											1-2/#m1/introduction	2-7/#m1/main-text																																														
30431	30431	p.oxy;31;2577	https://papyri.info/ddbdp/p.oxy;31;2577	P.Oxy.	31		2577					gt_ti	gt_businessNote				Befehl,Stratege an Komarchen und Archephodos von Theresis,Esel,Geleit,Schutz		Business Note,Order,Donkey	https://widgets.figshare.com/articles/21165262/embed?show_title=1			https://doi.org/10.25446/oxford.21165262.v1			fh	10.2	8.2	VR		1	2	0.7	0	1				2	3	#section1 #section2/	#section3/										1-2/#m1/introduction	3-7/#m1/main-text	8-8/#m2/addition																																													
30768	30768	p.oxy;58;3923	https://papyri.info/ddbdp/p.oxy;58;3923	P.Oxy.	58		3923					gt_ti	gt_businessNote				Anweisung,Vormund,Früchte,Ausgabe		Business Note,Instruction	https://widgets.figshare.com/articles/21176788/embed?show_title=1			https://doi.org/10.25446/oxford.21176788.v1			fv	6	8.5	HR		0.8	1	0.4	0	1				1	3	#section1 #section2 #section3/											1-3/#m1/introduction	4-5/#m1/main-text	6-6/#m1/date																																													
31224	31224	psi;3;213	https://papyri.info/ddbdp/psi;3;213	PSI	3		213					gt_ti	gt_businessNote				Anordnung,Stratege an Wächter (Flur),Aufsicht,Spreu		Business Note,Supervision				http://www.psi-online.it/documents/psi;3;213			fh	11.8	11.2	Sq		0.5	3.2	2	0	1				2	3	#section1 #section2/	#section3/										1-2/#m1/introduction	3-7/#m1/main-text	7-7/#m2/addition																																													
31312	31312	p.oxy;7;1065	https://papyri.info/ddbdp/p.oxy;7;1065	P.Oxy.	7		1065					gt_ti	gt_businessNote				Brief (privat),Hephaistion an Stephanos,dringende Bitte zu kommen,Drohung an die Götter		Business Note,Request				https://papyri.info/ddbdp/p.oxy;7;1065/images			fv	9	9.5	Sq		0.9	1.6	1.4	0	1				1	3	#section1 #section2 #section3/											1-1/#m1/introduction	2-8/#m1/main-text	9-9/#m1/subscription																																													
31655	31655	p.oxy;56;3856	https://papyri.info/ddbdp/p.oxy;56;3856	P.Oxy.	56		3856					gt_ti	gt_businessNote				Brief (geschäftlich),N.N. an Ammonios und Myrismos,Auftrag,Arbeiten im Bad,Transport von Senf		Business Note,Work,Transport of mustard	https://widgets.figshare.com/articles/21176557/embed?show_title=1			https://doi.org/10.25446/oxford.21176557.v1			fh	26	7	VR		0.5	0	0.5	0	1				1	2	#section1 #section2/											1-2/#m1/introduction	3-29/#m1/main-text																																														
31761	31761	p.oxy;12;1569	https://papyri.info/ddbdp/p.oxy;12;1569	P.Oxy.	12		1569					gt_ti	gt_businessNote				Auftrag,Zahlung an einen Meister (Bau),Wein		Business Note,Payment,Wine		https://adore.ugent.be/IIIF/manifests/archive.ugent.be:9B10B4F8-6FF9-11E1-8DDA-DFAC3B7C8C91		https://lib.ugent.be/catalog/rug01%3A001484533/items/800000096255		public domain	fh	8.6	7.9	VR		0.6	1	0.3	0	1				2	4	#section1 #section2 #section3/	#section4/										1-1/#m1/introduction	2-5/#m1/main-text	6-6/#m1/date	7-9/#m2/addition																																												
47159	47159	cpr;23;10	https://papyri.info/ddbdp/cpr;23;10	CPR	23		10					gt_ti	gt_businessNote				Auftrag (Zahlung),Stratege und Basilikos Grammateus an Speicherbeamte (Episphragistes, Sitologen),Entlohnung für Transport		Business Note,Payment,Transport				http://data.onb.ac.at/rec/RZ00000434			fh	17.8	17.3	Sq		1.5	2	3	0	1				1	3	#section1 #section2 #section3/											1-2/#m1/introduction	3-12/#m1/main-text	13-15/#m1/date																																													
78846	78846	psi.com;6;15v	https://papyri.info/ddbdp/psi.com;6;15v	PSI Com.	6		15	v				gt_ti	gt_businessNote				Auftrag (Zahlung),Leinenhändler an Bankier,für ein Leinentuch		Business Note,Payment,Linen				http://www.psi-online.it/images/orig/PSI_inv.1113_v.jpg			fh	5.3	5.7	Sq		0.3	1.7	0.5	0.5	1				1	3	#section1 #section2 #section3/											1-1/#m1/introduction	2-4/#m1/main-text	5-5/#m1/date																																													
128900	128900	p.oxy;75;5059	https://papyri.info/ddbdp/p.oxy;75;5059	P.Oxy.	75		5059					gt_ti	gt_businessNote				Auftrag,Sarapion alias Dionysios an Heraklas (Pächter),Ablieferung von Weizen an den Dekaproten Ammonaros		Business Note,Delivery of grain				https://doi.org/10.25446/oxford.21180850.v1			fh	5.2	13.8	HR		0.5	1.2	1.5	0	1				1	3	#section1 #section2 #section3/											1-2/#m1/introduction	2-4/#m1/main-text	4-4/#m1/date																																													