TM	HGV	DDB	papyri-info	series	volume	fascicle	numbers	side	generic	page	number	format-type	format-subtype	format-variation	text-type	text-subtype	hgv-subjects	hgv-de	hgv-en	iframe	IIIF	canvasID	image	printed-image	image-rights	fibres	height	width	shape	writing-parallel	margin-top	margin-bottom	margin-left	margin-right	columns	blank-after	blank-height	seal	hand-nb	section-nb	m1	m2	m3	m4	m5	m6	m7	m8	m9	m10	m11	section1	section2	section3	section4	section5	section6	section7	section8	section9	section10	section11	section12	section13	section14	section15	section16	section17	section18	section19	section20	section21	section22	section23	section24	section25	section26	section27	section28	section29	section30	section31	section32	section33	section34	section35	section36	section37	section38	section39	section40	section41	section42	section43	section44	section45	section43	section44	section45
9034	9034	bgu;1;288	https://papyri.info/ddbdp/bgu;1;288	BGU	1		288					gt_os	gt_announcement	gt_edict			Edikt des Präfekten Lucius Valerius Proculus		Edict				https://berlpap.smb.museum/01971/			fh	22.5	14.5	VR		3	3.2	2.7	0	1			no	2	4	#section1 #section2 #section3 #section4/	#section2										1-1/#m1/introduction	2-11/#m1 #m2/main-text	12-13/#m1/date	14-23/#m1/main-text																																												
10234	10234	p.berl.leihg;2;46	https://papyri.info/ddbdp/p.berl.leihg;2;46	P.Berl. Leihg.	2		46					gt_os	gt_announcement	gt_edict			Schreiben (amtlich),Edikt hinsichtlich abwesender Liturgen,Festlegung einer Frist,was das Erscheinen dieser Liturgen angeht		Edict				http://berlpap.smb.museum/03105/			fh	20.3	32.8	HR		1.5	8.8	1	1.5	1			no	1	5	#section1 #section2 #section3 #section4 #section5/											41-41/#m1/introduction	42-47/#m1/main-text	48-48/#m1/trans-clause	48-51/#m1/main-text	51-51/#m1/date																																											
10801	10801	p.fay;;21	https://papyri.info/ddbdp/p.fay;;21	P.Fay.			21					gt_os	gt_announcement	gt_edict			Edikt des Präfekten Marcus Petronius Mamertinus,Ausstellung von Quittungen für jede Art von Leistung oder Zahlung		Edict				http://ipap.csad.ox.ac.uk/4DLink4/4DACTION/IPAPwebquery?vPub=P.Fay.&vVol=&vNum=21			fh	29.4	23	VR		1.5	10	4	3.3	1			no	1	3	#section1 #section2 #section3/											1-2/#m1/introduction	3-25/#m1/main-text	26-27/#m1/date																																													
14897	14897	sb;20;14662	https://papyri.info/ddbdp/sb;20;14662	SB	20		14662					gt_os	gt_announcement	gt_edict			Edikt,M. Sempronius Liberalis,Anachoresis		Edict				http://berlpap.smb.museum/01951/	Strassi Zaccaria, L'editto, nach S. 24		fh	26	27.5	Sq		1	2	1.5	0	2			no	1	3	#section1 #section2 #section3/											1-2/#m1/introduction	3-58/#m1/main-text	59-60/#m1/date																																													
16420	16420	p.oxy;42;3017	https://papyri.info/ddbdp/p.oxy;42;3017	P.Oxy.	42		3017					gt_os	gt_announcement	gt_edict			Edikt des Präfekten Titus Pactumeius Magnus,Festsetzung einer Zehn - Tages - Frist zum Vorsprechen nach Erhalt einer Subskription auf einer Eingabe		Edict	https://widgets.figshare.com/articles/21166873/embed?show_title=1			https://doi.org/10.25446/oxford.21166873.v1	Plate IX		fv	21.5	9.5	VR		1	4.8	0.4	0	1			no	1	2	#section1 #section2/											1-2/#m1/introduction	2-32/#m1/main-text																																														
16577	16577	p.oxy;34;2704	https://papyri.info/ddbdp/p.oxy;34;2704	P.Oxy.	34		2704					gt_os	gt_announcement	gt_edict			Edikt,Präfekt		Edict	https://widgets.figshare.com/articles/21165682/embed?show_title=1			https://doi.org/10.25446/oxford.21165682.v1	Plate VI		fv	13	23	HR		1	0	1	13	1			no	1	3	#section1 #section2 #section3/											1-1/#m1/introduction	2-14/#m1/main-text	15-18/#m1/date																																													
17375	17375	p.cair.isid;;1	https://papyri.info/ddbdp/p.cair.isid;;1	P.Cair. Isid.			1					gt_os	gt_announcement	gt_edict			Edikt,Steuern,Kopfsteuer,Bodensteuer		Edict				http://ipap.csad.ox.ac.uk/4DLink4/4DACTION/IPAPwebquery?vPub=P.Cair.Isid.&vVol=&vNum=1	Plate I Pavlovskaja, Egipetskaja Khora, S. 17		fh	25	29	HR		1.2	5.8	2.5	0	1			no	1	3	#section1 #section2 #section3/											1-1/#m1/introduction	2-20/#m1/main-text	20-21/#m1/date																																													
19292	19292	psi;5;446	https://papyri.info/ddbdp/psi;5;446	PSI	5		446					gt_os	gt_announcement	gt_edict			Edikt, gegen Mißbrauch von Seiten der Soldaten		Edict				http://www.psi-online.it/documents/psi;5;446			fh	18	17.6	Sq		2.7	0	1.5	0	1			no	1	3	#section1 #section2 #section3/											1-2/#m1/introduction	3-16/#m1/main-text	17-17/#m1/date																																													
23084	23084	sb;1;3924	https://papyri.info/ddbdp/sb;1;3924	SB	1		3924					gt_os	gt_announcement	gt_edict			Edikt des Germanicus,Verbot eigenmächtiger Erhebungen und Regelung der Beschaffung von Material für seine Reise,Verbot von Titulaturen,die nur dem Kaiser zukommen		Edict				http://berlpap.smb.museum/13109/	Sitzungsberichte der Berliner Akademie der Wissenschaften 38, 2, 1911, Tafel V Schubart, Paläographie, S. 51, Abb. 27 (Z. 14 - 26) Altertum 13, 1967, S. 148		fh	27	10.5	VR		0	1.3	1	0	1			no	1	4	#section1 #section2 #section3 #section4/											1-3/#m1/introduction	3-30/#m1/main-text	31-33/#m1/introduction	33-45/#m1/main-text																																												