TM	HGV	DDB	papyri-info	series	volume	fascicle	numbers	side	generic	page	number	format-type	format-subtype	format-variation	text-type	text-subtype	hgv-subjects	hgv-de	hgv-en	iframe	IIIF	canvasID	image	printed-image	image-rights	fibres	height	width	shape	writing-parallel	margin-top	margin-bottom	margin-left	margin-right	columns	blank-after	blank-height	seal	hand-nb	section-nb	m1	m2	m3	m4	m5	m6	m7	m8	m9	m10	m11	section1	section2	section3	section4	section5	section6	section7	section8	section9	section10	section11	section12	section13	section14	section15	section16	section17	section18	section19	section20	section21	section22	section23	section24	section25	section26	section27	section28	section29	section30	section31	section32	section33	section34	section35	section36	section37	section38	section39	section40	section41	section42	section43	section44	section45	section43	section44	section45
78603	78603	p.oxy;66;4531	https://papyri.info/ddbdp/p.oxy;66;4531	P.Oxy.	66		4531					gt_ti	gt_statement	gt_ti_homologia			Bericht,Stratege,Liste,Steuern		Report,Strategos	https://widgets.figshare.com/articles/21179095/embed?show_title=1			https://doi.org/10.25446/oxford.21179095.v1			fh	18.5	6.8	VR		1.8	0.9	1.5	0	1			no	3	5	#section1 #section2 #section3/	#section4/	#section5/									1-7/#m1/introduction	7-33/#m1/main-text	33-39/#m1/date	40-41/#m2/subscription	42-42/#m3/addition																																											
3747	3747	p.tebt;1;111	https://papyri.info/ddbdp/p.tebt;1;111	P.Tebt.	1		111					gt_ee	gt_cheiro	gt_ee_homologia			Bestätigung,Erhalt,Darlehen,Getreide		Loan,Wheat		https://digicoll.lib.berkeley.edu/nanna/iiif/231799/manifest		https://digicoll.lib.berkeley.edu/record/231799 and https://papyri.info/ddbdp/p.tebt;1;111/images			fh	23.2	11.5	VR		2.5	4.4	1.2	0	1			no	1	3	#section1 #section2 #section3/											1-3/#m1/introduction	4-10/#m1/main-text	11-11/#m1/date																																													
20176	20176	bgu;2;584	https://papyri.info/ddbdp/bgu;2;584	BGU	2		584					gt_ee	gt_cheiro	gt_ee_homologia			Vertrag,Kauf,Esel		Sale,Donkey				https://berlpap.smb.museum/02341/			fh	22	11.1	VR		1.2	11	1	0	1			no	1	3	#section1 #section2 #section3/											1-2/#m1/introduction	2-7/#m1/main-text	8-10/#m1/date																																													
10875	10875	p.fay;;34	https://papyri.info/ddbdp/p.fay;;34	P.Fay.			34					gt_ee	gt_cheiro	gt_ee_homologia			Vertrag,Stellvertretung,Eintreibung von Steuern		Agreement to collect tax				http://ipap.csad.ox.ac.uk/4DLink4/4DACTION/IPAPwebquery?vPub=P.Fay.&vVol=&vNum=34			fh	22.5	10.5	VR		1	5.9	1	0	1			no	1	3	#section1 #section2 #section3/											1-3/#m1/introduction	3-22/#m1/main-text	22-26/#m1/date																																													
10556	10556	p.col;10;255	https://papyri.info/ddbdp/p.col;10;255	P.Col.	10		255					gt_ee	gt_cheiro	gt_ee_homologia			Vertrag (Arbeit),Transport,Dung,Sand,Garten (Wein)		Contract,Vineyard,Work		https://sites.dlib.nyu.edu/viewer/api/presentation/books/isaw_asp000034/manifest.json	https://sites.dlib.nyu.edu/viewer/api/presentation/books/isaw_asp000034/canvas/262	https://papyri.info/ddbdp/p.col;10;255/images			fh	28	8	VR		1	4.1	1.1	0.1	1			no	1	3	#section1 #section2 #section3/											1-4/#m1/introduction	5-21/#m1/main-text	22-23/#m1/date																																													
16892	16892	p.oxy;31;2568	https://papyri.info/ddbdp/p.oxy;31;2568	P.Oxy.	31		2568					gt_ee	gt_cheiro	gt_ee_homologia			Bestätigung,Rückerstattung,Schiff,Transport,Weizen		Return of boat	https://widgets.figshare.com/articles/21165235/embed?show_title=1			https://doi.org/10.25446/oxford.21165235.v1			fh	23.6	6.2	VR		1.8	3.1	1.1	0	1			no	3	4	#section1 #section2 #section4/	#section3/	#section4/									1-12/#m1/introduction	12-24/#m1/main-text	25-30/#m2/date	30-38/#m3/subscription																																												