TM	HGV	DDB	papyri-info	series	volume	fascicle	numbers	side	generic	page	number	format-type	format-subtype	format-variation	text-type	text-subtype	hgv-subjects	hgv-de	hgv-en	iframe	IIIF	canvasID	image	printed-image	image-rights	fibres	height	width	shape	writing-parallel	margin-top	margin-bottom	margin-left	margin-right	columns	blank-after	blank-height	seal	hand-nb	section-nb	m1	m2	m3	m4	m5	m6	m7	m8	m9	m10	m11	section1	section2	section3	section4	section5	section6	section7	section8	section9	section10	section11	section12	section13	section14	section15	section16	section17	section18	section19	section20	section21	section22	section23	section24	section25	section26	section27	section28	section29	section30	section31	section32	section33	section34	section35	section36	section37	section38	section39	section40	section41	section42	section43	section44	section45	section43	section44	section45
20201	20201	bgu;1;267	https://papyri.info/ddbdp/bgu;1;267	BGU	1		267					gt_ri	gt_report	gt_imperialDecision			kaiserliches Reskript		Imperial Decision				https://berlpap.smb.museum/02070/			fv	21	13	VR		1	8	2	0	1				1	3	#section1 #section2 #section3/											1-7/#m1/introduction	7-13/#m1/main-text	13-14/#m1/subscription																																													
22552	22552	p.oxy;60;4068	https://papyri.info/ddbdp/p.oxy;60;4068	P.Oxy.	60		4068					gt_ri	gt_report	gt_imperialDecision			Aufhebung von Dienstpflichten		Imperial Decision	https://widgets.figshare.com/articles/21177379/embed?show_title=1			https://doi.org/10.25446/oxford.21177379.v1			fv	16	15.2	Sq		1	1.8	0.8	0	1				1	3	#section1 #section2 #section3/											1-5/#m1/introduction	5-20/#m1/main-text	21-21/#m1/subscription																																													
23660	23660	p.oxy;64;4437	https://papyri.info/ddbdp/p.oxy;64;4437	P.Oxy.	64		4437					gt_ri	gt_report	gt_imperialDecision			kaiserliches Reskript		Imperial Decision	https://widgets.figshare.com/articles/21178801/embed?show_title=1			https://doi.org/10.25446/oxford.21178801.v1			fh	12	10.5	VR		1.2	0	1	0	1				1	3	#section1 #section2 #section3/											1-1/#m1/introduction	2-10/#m1/main-text	10-10/#m1/subscription																																													