TM	HGV	DDB	papyri-info	series	volume	fascicle	numbers	side	generic	page	number	format-type	format-subtype	format-variation	text-type	text-subtype	hgv-subjects	hgv-de	hgv-en	iframe	IIIF	canvasID	image	printed-image	image-rights	fibres	height	width	shape	writing-parallel	margin-top	margin-bottom	margin-left	margin-right	columns	blank-after	blank-height	seal	hand-nb	section-nb	m1	m2	m3	m4	m5	m6	m7	m8	m9	m10	m11	section1	section2	section3	section4	section5	section6	section7	section8	section9	section10	section11	section12	section13	section14	section15	section16	section17	section18	section19	section20	section21	section22	section23	section24	section25	section26	section27	section28	section29	section30	section31	section32	section33	section34	section35	section36	section37	section38	section39	section40	section41	section42	section43	section44	section45	section43	section44	section45
9252	9252	bgu;2;596	http://www.papyri.info/ddbdp/bgu;2;596	BGU	2		596					gt_ee	gt_letterPrivate		gtyp_letter	gtyp_letter_invitation	Brief (privat),Didymos an Apollonios,Kauf von Tauben für ein Fest	Brief,Privat,Kauf,Fest	Invitation,Dinner,Feast				https://berlpap.smb.museum/01863/			fh	19	8	VR		1.4	2.8	0.5	0	1				1	4	#section1 #section2 #section3 #section4/											1-3/#m1/introduction	4-14/#m1/main-text	15-15/#m1/subscription	16-18/#m1/date																																												
15332	15332	p.oxy;52;3694	http://papyri.info/ddbdp/p.oxy;52;3694	P.Oxy.	52		3694					gt_os	gt_invitation		gtyp_letter	gtyp_letter_invitation	Einladung,Fest	Einladung,Fest	Invitation,Festival,Ammon	https://widgets.figshare.com/articles/21174550/embed?show_title=1			https://doi.org/10.25446/oxford.21174550.v1			fh	11.1	12.4	Sq		1.2	3	1	0	1				1	2	#section1 #section2											1-3/#m1/introduction	3-7/#m1/main-text																																														
25119	25119	p.oxy;31;2592	http://papyri.info/ddbdp/p.oxy;31;2592	P.Oxy.	31		2592					gt_os	gt_invitation		gtyp_letter	gtyp_letter_invitation	Einladung,Kultmahl des Serapis,Serapeion	Einladung,Kultmahl,Serapis,Serapeion	Invitation,Dinner,Serapis,Sarapis	https://widgets.figshare.com/articles/21165307/embed?show_title=1			https://doi.org/10.25446/oxford.21165307.v1			fh	4.2	5.6	HR		0.7	2.4	0.8	0	1				1	1	#section1											1-3/#m1/main-text																																															
26515	26515	p.oxy;52;3693	http://papyri.info/ddbdp/p.oxy;52;3693	P.Oxy.	52		3693					gt_os	gt_invitation		gtyp_letter	gtyp_letter_invitation	Einladung,Essen	Einladung,Essen	Invitation,Dinner,Serapis,Sarapis	https://widgets.figshare.com/articles/21174547/embed?show_title=1			https://doi.org/10.25446/oxford.21174547.v1			fv	5.2	5.7	Sq		0.6	1.1	0.8	0.1	1				1	1	#section1											1-7/#m1/main-text																																															
26672	26672	p.coll.youtie;1;51	http://papyri.info/ddbdp/p.coll.youtie;1;51	P.Coll. Youtie	1		51					gt_os	gt_invitation		gtyp_letter	gtyp_letter_invitation	Schreiben,Einladung zur Kline,Sarapis	Schreiben,Einladung,Kline,Sarapis	Invitation,Dinner,Serapis,Sarapis				http://papyri.info/ddbdp/p.coll.youtie;1;51/images			fh	3	6.4	HR		0.2	0.5	1	0	1				1	1	#section1											1-4/#m1/main-text																																															
26739	26739	sb;16;12596	http://papyri.info/ddbdp/sb;16;12596	SB	16		12596					gt_os	gt_invitation		gtyp_letter	gtyp_letter_invitation	Name,Beamter,Essen,Einladung	Name,Beamter,Essen,Einladung	Invitation,Dinner				https://berlpap.smb.museum/03259/			fh	4.2	5	Sq		0.3	0.3	0.4	0	1				1	1	#section1											1-6/#m1/main-text																																															
26925	26925	p.yale;1;85	http://papyri.info/ddbdp/p.yale;1;85	P.Yale	1		85					gt_os	gt_invitation		gtyp_letter	gtyp_letter_invitation	Einladung zum Essen,privat	Einladung,Essen,Privat	Invitation,Dinner,Serapis,Sarapis				http://hdl.handle.net/10079/digcoll/2792454			fh	7	5.9	VR		0.5	2	0.9	0	1				1	1	#section1											1-6/#m1/main-text																																															
27501	27501	sb;14;11652	http://papyri.info/ddbdp/sb;14;11652	SB	14		11652					gt_os	gt_invitation		gtyp_letter	gtyp_letter_invitation	Einladung,Hochzeit	Einladung,Hochzeit	Invitation,Wedding				https://berlpap.smb.museum/03676/			fh	5.5	5	Sq		0.8	1	0.5	0	1				1	1	#section1											1-4/#m1/main-text																																															
28601	28601	p.fouad;;76	http://papyri.info/ddbdp/p.fouad;;76	P.Fouad	1		76					gt_os	gt_invitation		gtyp_letter	gtyp_letter_invitation	Einladung,Essen,Festmahl,Kult,Isis	Einladung,Essen,Festmahl,Kult,Isis	Invitation,Dinner,Isis				http://ipap.csad.ox.ac.uk/4DLink4/4DACTION/IPAPwebquery?vPub=P.Fouad&vVol=&vNum=76			fh	5	6.5	Sq		0.2	1.5	1.2	0	1				1	1	#section1											1-6/#m1/main-text																																															
28950	28950	p.oxy;62;4339	http://www.papyri.info/ddbdp/p.oxy;62;4339	P.Oxy.	62		4339					gt_os	gt_invitation		gtyp_letter	gtyp_letter_invitation	Einladung,Fest,Serapis,Ammonios an N.N	Einladung,Fest,Serapis	Invitation,Dinner,Serapis,Sarapis	https://widgets.figshare.com/articles/21178399/embed?show_title=1			https://doi.org/10.25446/oxford.21178399.v1			fh	2.5	7	HR		0	0	0	0.6	1				1	1	#section1											1-4/#m1/main-text																																															
30090	30090	p.koeln;1;57	http://papyri.info/ddbdp/p.koeln;1;57	P.Köln	1		57					gt_os	gt_invitation		gtyp_letter	gtyp_letter_invitation	Dokument,Einladung zum Sarapismahl	Einladung,Sarapis,Essen	Invitation,Dinner,Isis				https://papyri.uni-koeln.de/stueck/tm30090		CC-BY-NC 4.0	fv	4	4.5	Sq		0.5	0.1	0.9	0.2	1				1	1	#section1											1-4/#m1/main-text																																															
30389	30389	p.oxy;36;2792	http://papyri.info/ddbdp/p.oxy;36;2792	P.Oxy.	36		2792					gt_os	gt_invitation		gtyp_letter	gtyp_letter_invitation	Einladung,Essen	Einladung,Essen	Invitation,Dinner,Epikrisis	https://widgets.figshare.com/articles/21166000/embed?show_title=1			https://doi.org/10.25446/oxford.21166000.v1			fv	4	6.5	HR		0.4	0.5	0.1	0.2	1				1	1	#section1											1-5/#m1/main-text																																															
30428	30428	p.oxy;33;2678	http://papyri.info/ddbdp/p.oxy;33;2678	P.Oxy.	33		2678					gt_os	gt_invitation		gtyp_letter	gtyp_letter_invitation	Einladung,Hochzeit	Einladung,Hochzeit	Invitation,Wedding	https://widgets.figshare.com/articles/21165592/embed?show_title=1			https://doi.org/10.25446/oxford.21165592.v1			fv	5.5	9.5	HR		0.3	1.7	1	0	1				1	2	#section1 #section2											1-4/#m1/main-text	4-4/#m1/subscription																																														
31321	31321	p.oxy;6;927	http://papyri.info/ddbdp/p.oxy;6;927	P.Oxy.	6		927					gt_os	gt_invitation		gtyp_letter	gtyp_letter_invitation	Brief (privat),Eros an N.N.,Einladung zu einer Hochzeit	Brief,Privat,Einladung,Hochzeit	Invitation,Wedding				https://www.spurlock.illinois.edu/collections/search-collection/details.php?a=1914.21.0008			fh	3.2	6.2	HR		0.3	0.5	0.9	0.5	1				1	1	#section1											1-4/#m1/main-text																																															
78608	78608	p.oxy;66;4539	http://papyri.info/ddbdp/p.oxy;66;4539	P.Oxy.	66		4539					gt_os	gt_invitation		gtyp_letter	gtyp_letter_invitation	Einladung,Fest,Isis	Einladung,Fest,Isis	Invitation,Dinner,Isis	https://widgets.figshare.com/articles/21179119/embed?show_title=1			https://doi.org/10.25446/oxford.21179119.v1			fh	3.5	8.6	HR		0.3	0.1	1.7	0.6	1				1	1	#section1											1-4/#m1/main-text																																															
78611	78611	p.oxy;66;4542	http://papyri.info/ddbdp/p.oxy;66;4542	P.Oxy.	66		4542					gt_os	gt_invitation		gtyp_letter	gtyp_letter_invitation	Einladung,Therapeuteria,Mädchen	Einladung,Therapeuteria,Mädchen	Invitation,Festival,Girls	https://widgets.figshare.com/articles/21179128/embed?show_title=1			https://doi.org/10.25446/oxford.21179128.v1			fv	3.7	5.3	HR		0.2	0	1.4	0.5	1				1	1	#section1											1-6/#m1/main-text																																															
78612	78612	p.oxy;66;4543	http://papyri.info/ddbdp/p.oxy;66;4543	P.Oxy.	66		4543					gt_os	gt_invitation		gtyp_letter	gtyp_letter_invitation	Einladung,Therapeuteria,Mädchen	Einladung,Therapeuteria,Mädchen	Invitation,Festival,Girls	https://widgets.figshare.com/articles/21179131/embed?show_title=1			https://doi.org/10.25446/oxford.21179131.v1			fv	6	11	HR		0.9	3	1.2	0.5	1				1	1	#section1											1-3/#m1/main-text																																															
128897	128897	p.oxy;75;5056	http://papyri.info/ddbdp/p.oxy;75;5056	P.Oxy.	75		5056					gt_os	gt_invitation		gtyp_letter	gtyp_letter_invitation	Einladung,Essen,Fest (ἱέρωμα),Isis	Einladung,Essen,Fest,Isis	Invitation,Dinner,Isis	https://widgets.figshare.com/articles/21180841/embed?show_title=1			https://doi.org/10.25446/oxford.21180841.v1			fh	2.7	6.4	HR		0.2	0.2	0.7	0	1				1	1	#section1											1-3/#m1/main-text																																															