TM	HGV	DDB	papyri-info	series	volume	fascicle	numbers	side	generic	page	number	format-type	format-subtype	format-variation	text-type	text-subtype	hgv-subjects	hgv-de	hgv-en	iframe	IIIF	canvasID	image	printed-image	image-rights	fibres	height	width	shape	writing-parallel	margin-top	margin-bottom	margin-left	margin-right	columns	blank-after	blank-height	seal	hand-nb	section-nb	m1	m2	m3	m4	m5	m6	m7	m8	m9	m10	m11	section1	section2	section3	section4	section5	section6	section7	section8	section9	section10	section11	section12	section13	section14	section15	section16	section17	section18	section19	section20	section21	section22	section23	section24	section21	section22	section23	section24	section25	section26	section27	section28	section29	section30	section31	section32	section33	section34	section35	section36	section37	section38	section39	section40	section41	section42	section43	section44	section45
725	725	p.cair.zen;1;59069	http://papyri.info/ddbdp/p.cair.zen;1;59069	P.Cair. Zen.	1		59069					gt_ri	gt_list		gtyp_list	gtyp_list_list	Liste,Waren	Liste,Ware	List,Goods				http://ipap.csad.ox.ac.uk/4DLink4/4DACTION/IPAPwebquery?vPub=P.Cair.Zen.&vVol=1&vNum=59069			fh	31	31	Sq		2.5	3	1	2.2	2				1	3	#section1 #section2 #section3/											1-1/#m1/date	2-4/#m1/descr-contents	5-21/#m1/main-text																																														
746	746	p.cair.zen;1;59092	http://papyri.info/ddbdp/p.cair.zen;1;59092	P.Cair. Zen.	1		59092					gt_ri	gt_list		gtyp_list	gtyp_list_list	Liste,Kleider,Reise	Liste,Kleider,Reise	List,Clothes,Travel				http://ipap.csad.ox.ac.uk/4DLink4/4DACTION/IPAPwebquery?vPub=P.Cair.Zen.&vVol=1&vNum=59092			fh	35.5	18.5	VR		1.5	8	2	2.8	1				1	2	#section1 #section2/											1-1/#m1/descr-contents	2-25/#m1/main-text																																															
939	939	p.cair.zen;2;59295	http://papyri.info/ddbdp/p.cair.zen;2;59295	P.Cair. Zen.	2		59295					gt_ri	gt_list		gtyp_list	gtyp_list_list	Liste,Frauen,Arbeit,Wolle,Dörfer	Liste,Frau,Arbeit,Wolle,Dorf	List,Women,Work,Wool,Village				http://ipap.csad.ox.ac.uk/4DLink4/4DACTION/IPAPwebquery?vPub=P.Cair.Zen.&vVol=2&vNum=59295			fh	25	8.5	VR		3.5	11	1.5	0	1				1	2	#section1 #section2/											1-4/#m1/descr-contents	5-8/#m1/main-text																																															
1304	1304	p.cair.zen;4;59676	http://papyri.info/ddbdp/p.cair.zen;4;59676	P.Cair. Zen.	4		59676					gt_ri	gt_list		gtyp_list	gtyp_list_list	Liste,Abrechnung,Getreide,Zuteilung,Namen	Liste,Abrechnung,Getreide,Zuteilung,Name	List,Cereal,Names				http://ipap.csad.ox.ac.uk/4DLink4/4DACTION/IPAPwebquery?vPub=P.Cair.Zen.&vVol=4&vNum=59676			fh	20.5	14	VR		1.2	2.2	2.7	1.2	1				1	2	#section1 #section2/											1-3/#m1/descr-contents	4-17/#m1/main-text																																															
1309	1309	p.cair.zen;4;59681	http://papyri.info/ddbdp/p.cair.zen;4;59681	P.Cair. Zen.	4		59681					gt_ri	gt_list		gtyp_list	gtyp_list_list	Liste,Lebensmittel,Waren	Liste,Lebensmittel,Ware	List,Goods				http://ipap.csad.ox.ac.uk/4DLink4/4DACTION/IPAPwebquery?vPub=P.Cair.Zen.&vVol=4&vNum=59681			fh	21	9.5	VR		2.1	1.7	1	1.2	1				1	2	#section1 #section2/											1-2/#m1/descr-contents	2-14/#m1/main-text																																															
1320	1320	p.cair.zen;4;59693	http://papyri.info/ddbdp/p.cair.zen;4;59693	P.Cair. Zen.	4		59693					gt_ri	gt_list		gtyp_list	gtyp_list_list	Liste,Opfer,Gaben	Liste,Opfer,Gabe	List,Sacrifice,Offering				http://ipap.csad.ox.ac.uk/4DLink4/4DACTION/IPAPwebquery?vPub=P.Cair.Zen.&vVol=4&vNum=59693			fh	19.5	9	VR		3.5	5	0.8	0.3	1				1	2	#section1 #section2/											1-2/#m1/descr-contents	3-9/#m1/main-text																																															
1321	1321	p.cair.zen;4;59694	http://papyri.info/ddbdp/p.cair.zen;4;59694	P.Cair. Zen.	4		59694					gt_ri	gt_list		gtyp_list	gtyp_list_list	Liste,Geschenke	Liste,Geschenk	List,Gift				http://ipap.csad.ox.ac.uk/4DLink4/4DACTION/IPAPwebquery?vPub=P.Cair.Zen.&vVol=4&vNum=59694			fh	11	9.5	Sq		1	2.4	1.3	1.8	1				1	2	#section1 #section2/											1-4/#m1/descr-contents	5-7/#m1/main-text																																															
1322	1322	p.cair.zen;4;59695	http://papyri.info/ddbdp/p.cair.zen;4;59695	P.Cair. Zen.	4		59695					gt_ri	gt_list		gtyp_list	gtyp_list_list	Liste,Geschenke	Liste,Geschenk	List,Gift				http://ipap.csad.ox.ac.uk/4DLink4/4DACTION/IPAPwebquery?vPub=P.Cair.Zen.&vVol=4&vNum=59695			fh	10	8	VR		1.6	2.9	1.5	0.3	1				1	2	#section1 #section2/											1-1/#m1/descr-contents	2-4/#m1/main-text																																															
1401	1401	p.cair.zen;4;59776	http://papyri.info/ddbdp/p.cair.zen;4;59776	P.Cair. Zen.	4		59776					gt_ri	gt_list		gtyp_list	gtyp_list_list	Abrechnung,Liste,Kleider,Wolle,Geräte,Waren	Abrechnung,Liste,Kleider,Wolle,Gerät,Ware	List,Clothes,Wool,Tools,Goods				http://ipap.csad.ox.ac.uk/4DLink4/4DACTION/IPAPwebquery?vPub=P.Cair.Zen.&vVol=4&vNum=59776			fh	20	10	VR		0.8	0.5	1	0	1				1	1	#section1/											1-14/#m1/main-text																																																
1402	1402	p.cair.zen;4;59777	http://papyri.info/ddbdp/p.cair.zen;4;59777	P.Cair. Zen.	4		59777					gt_ri	gt_list		gtyp_list	gtyp_list_list	Liste,Gewebe	Liste,Gewebe	List,Fabric				http://ipap.csad.ox.ac.uk/4DLink4/4DACTION/IPAPwebquery?vPub=P.Cair.Zen.&vVol=4&vNum=59777			fh	16	12.5	VR		1.8	8.2	1.5	2.5	1				1	1	#section1/											1-3/#m1/main-text																																																
1813	1813	p.col;4;100	http://papyri.info/ddbdp/p.col;4;100	P.Col.	4		100					gt_ri	gt_list		gtyp_list	gtyp_list_list	Liste,Reparatur,Boot,Teile (Ersatz)	Liste,Reparatur,Boot	List,Repair,Boat				http://papyri.info/ddbdp/p.col;4;100/images			fh	20.6	11.4	VR		2.2	8	1	0	1				1	2	#section1 #section2/											1-1/#m1/descr-contents	2-10/#m1/main-text																																															
2007	2007	p.mich;1;108	http://papyri.info/ddbdp/p.mich;1;108	P.Mich.	1		108					gt_ri	gt_list		gtyp_list	gtyp_list_list	Liste,Geschenke	Liste,Geschenk	List,Gift		https://quod.lib.umich.edu/cgi/i/image/api/manifest/apis:1792:3103R_A.TIF		http://quod.lib.umich.edu/a/apis/x-1792		free	fh	12	6	VR		2	5.5	0.1	0.8	1				1	2	#section1 #section2/											1-3/#m1/descr-contents	4-6/#m1/main-text																																															
2165	2165	psi;5;543	http://papyri.info/ddbdp/psi;5;543	PSI	5		543					gt_ri	gt_list		gtyp_list	gtyp_list_list	Liste,Ausgaben,Reise,Ortsnamen	Liste,Ausgabe,Reise,Ortsname	List,Expenses,Village				http://www.psi-online.it/documents/psi;5;543			fh	29	23.8	VR		0.8	1.1	1.5	3.6	2				1	1	#section1/											1-60/#m1/main-text																																																
2166	2166	psi;5;544	http://papyri.info/ddbdp/psi;5;544	PSI	5		544					gt_ri	gt_list		gtyp_list	gtyp_list_list	Liste,Most,Namen	Liste,Most,Name	List,Must,Names				http://www.psi-online.it/documents/psi;5;544			fh	33.5	11	VR		1.5	5.2	2	1.5	1				1	4	#section1 #section2 #section3 #section4/											1-3/#m1/descr-contents	4-14/#m1/main-text	15-18/#m1/descr-contents	19-27/#m1/main-text																																													
2170	2170	psi;5;548	http://papyri.info/ddbdp/psi;5;548	PSI	5		548					gt_ri	gt_list		gtyp_list	gtyp_list_list	Liste,Namen	Liste,Name	List,Names				http://www.psi-online.it/documents/psi;5;548			fh	16.7	9.5	VR		1.2	3.5	2	0	1				1	1	#section1/											1-16/#m1/main-text																																																
2236	2236	psi;6;629	http://papyri.info/ddbdp/psi;6;629	PSI	6		629					gt_ri	gt_list		gtyp_list	gtyp_list_list	Liste,Äxte,Spaten,Beile,Namen	Liste,Axt,Spaten,Beil,Name	List,Tools,Names				http://www.psi-online.it/documents/psi;6;629			fh	33.5	13.4	VR		3.8	0	1	0	1				2	2	#section1 #section2/	#section2/										1-2/#m1/descr-contents	3-24/#m1 #m2/main-text																																															
2272	2272	psi;6;672	http://papyri.info/ddbdp/psi;6;672	PSI	6		672					gt_ri	gt_list		gtyp_list	gtyp_list_list	Liste,Ausgaben,Löhne für Arbeiter,Namen	Liste,Ausgabe,Lohn,Name	List,Expenses,Wages,Names				http://www.psi-online.it/documents/psi;6;672			fv	10.9	13	HR		0.8	4.3	0.5	0	1				1	1	#section1/											1-7/#m1/main-text																																																
2274	2274	psi;6;675	http://papyri.info/ddbdp/psi;6;675	PSI	6		675					gt_ri	gt_list		gtyp_list	gtyp_list_list	Liste,Namen,δεκάταρχοι,Anzahl von Gespannen	Liste,Name,Anzahl	List,Names				http://www.psi-online.it/documents/psi;6;675			fv	19	13.5	VR		0.5	1.8	1.5	0	1				1	1	#section1/											1-12/#m1/main-text																																																
3117	3117	p.dion;;36	http://papyri.info/ddbdp/p.dion;;36	P.Dion.			36					gt_ri	gt_list		gtyp_list	gtyp_list_list	Liste,Gegenstände,Geld,Metall	Liste,Gegenstand,Geld,Metall	List,Money,Metal				http://www.papyrologie.paris-sorbonne.fr/photos/2022016.jpg			fv	31	30	Sq		3.5	4.9	15.5	6.4	1				1	1	#section1/											1-16/#m1/main-text																																																
4021	4021	bgu;14;2425	http://papyri.info/ddbdp/bgu;14;2425	BGU	14		2425					gt_ri	gt_list		gtyp_list	gtyp_list_list	Liste,Namen,Arbeiter (Kanal)	Liste,Name,Arbeiter,Kanal	List,Names,Canal				http://berlpap.smb.museum/04089/			fm	29	10.5	VR		5.1	0	1.5	1	1				1	1	#section1/											1-34/#m1/main-text																																																
5829	5829	sb;18;13876	http://papyri.info/ddbdp/sb;18;13876	SB	18		13876					gt_ri	gt_list		gtyp_list	gtyp_list_list	Liste (Zahlungen),nach Monaten geordnet	Liste,Zahlung	List,Payment		https://quod.lib.umich.edu/cgi/i/image/api/manifest/apis:2829:64V.TIF		http://quod.lib.umich.edu/a/apis/x-2829		free	fv	14.2	10.75	VR		1	4.2	2	0.5	1				1	2	#section1 #section2/											1-1/#m1/descr-contents	2-10/#m1/main-text																																															
8760	8760	p.petaus;;59	http://papyri.info/ddbdp/p.petaus;;59	P.Petaus			59					gt_ri	gt_list		gtyp_list	gtyp_list_list	Brief (amtlich),Dorfschreiber Petaus an den Strategen Apollonios,Vorschlag für Sitologen,Liste (Namen),Kopie	Brief,Amtlich,Vorschlag,Sitologos,Liste,Kopie	List,Sitologos,Liturgy				https://papyri.uni-koeln.de/stueck/tm8760		CC-BY 4.0	fv	21	48.5	HR		1.1	1.4	3.5	8.2	4				1	5	#section1 #section2 #section3 #section4 #section5											1-2/#m1/introduction	3-11/#m1/descr-contents	11-11/#m1/trans-clause	12-91/#m1/main-text	92-93/#m1/date																																												
8762	8762	p.petaus;;60	http://papyri.info/ddbdp/p.petaus;;60	P.Petaus			60					gt_ri	gt_list		gtyp_list	gtyp_list_list	Schreiben (amtlich),Dorfschreiber Petaus an den Strategen Apollonios,Vorschlag,Ablösung von Praktoren (Getreide) für Katöken- und Staatsland,Liste,Namen	Brief,Amtlich,Vorschlag,Ablösung,Praktor,Land,Liste,Name	List,Praktor,Liturgy				https://papyri.uni-koeln.de/stueck/tm8762		CC-BY 4.0	fh	21.5	19	Sq		0.9	1.6	1.5	0	2				2	6	#section1 #section2 #section3 #section5/ #section6	#section4/										1-4/#m1/introduction	5-21/#m1/descr-contents	22-22/#m1/trans-clause	22-41/#m1/main-text	42-42/#m2/subscription	43-45/#m1/date																																											
8789	8789	p.petaus;;88	http://papyri.info/ddbdp/p.petaus;;88	P.Petaus			88					gt_ri	gt_list		gtyp_list	gtyp_list_list	Liste,Namen,Liturgien (πρεσβύτερος,ἐπιτηρητής,χωματοεκβολεύς)	Liste,Name,Liturgie	List,Names,Liturgy				https://papyri.uni-koeln.de/stueck/tm8789		CC-BY 4.0	fh	25	9	VR		1.6	9.9	0.9	0	1				3	1	#section1/	#section1/	#section1/									1-18/#m1 #m2 #m3/main-text																																																
8826	8826	p.petaus;;40	http://papyri.info/ddbdp/p.petaus;;40	P.Petaus			40					gt_ri	gt_list		gtyp_list	gtyp_list_list	Liste,Abgaben von Dörfern für das Sarapisfest,Kälber,Schweine,Ortsnamen	Liste,Abgabe,Kalb,Schwein,Ortsname	List,Sale,Names,Animals		https://quod.lib.umich.edu/cgi/i/image/api/manifest/apis:2982:6877R.TIF		https://quod.lib.umich.edu/a/apis/x-2982		free	fh	25.5	9.5	VR		1.2	3.2	0.9	0	1				1	3	#section1 #section2 #section3/											1-3/#m1/descr-contents	3-3/#m1/trans-clause	4-23/#m1/main-text																																														
8857	8857	p.petaus;;44	http://papyri.info/ddbdp/p.petaus;;44	P.Petaus			44					gt_ri	gt_list		gtyp_list	gtyp_list_list	Akte,Berechnung,Steuern,Getreide,Land (privat)	Akte,Berechnung,Steuer,Getreide,Land	List,Expenses,Grain,Land				https://papyri.uni-koeln.de/stueck/tm8760		CC-BY 4.0	fh	21	48.5	HR		1.5	2	2.9	0	4				1	1	#section1											1-64/#m1/main-text																																																
8874	8874	bgu;1;10	http://papyri.info/ddbdp/bgu;1;10	BGU	1		10					gt_ri	gt_list		gtyp_list	gtyp_list_list	Liste,Namen,Pächter (Steuern)	Liste,Name,Pacht	List,Names,Tenants				http://berlpap.smb.museum/01735/			fh	21.2	12.4	VR		1.5	5.4	1.1	0	1				1	2	#section1 #section2/											1-3/#m1/descr-contents	4-19/#m1/main-text																																															
8917	8917	bgu;1;145	http://papyri.info/ddbdp/bgu;1;145	BGU	1		145					gt_ri	gt_list		gtyp_list	gtyp_list_list	Liste,Bericht,Rückstände,Steuern,Getreide	Liste,Bericht,Rückstand,Steuer,Getreide	List,Arrears,Payment,Tax,Grain				http://berlpap.smb.museum/01929/			fh	29.5	8.5	VR		2	1	0.8	0	1				1	6	#section1 #section2 #section3 #section4 #section5 #section6/											1-3/#m1/introduction	4-8/#m1/descr-contents	8-8/#m1/trans-clause	9-18/#m1/main-text	19-22/#m1/date	23-23/#m1/subscription																																											
9274	9274	bgu;2;630	http://papyri.info/ddbdp/bgu;2;630	BGU	2		630					gt_ri	gt_list		gtyp_list	gtyp_list_list	Liste,Namen	Liste,Name	List,Names				http://berlpap.smb.museum/01985/			fh	22	22	Sq		0	0.2	0.5	0.1	5				1	1	#section1/											1-147/#m1/main-text																																																
9521	9521	bgu;7;1616	http://papyri.info/ddbdp/bgu;7;1616	BGU	7		1616					gt_ri	gt_list		gtyp_list	gtyp_list_list	Liste,Zahlungen,Steuern,Weber	Liste,Zahlung,Steuer,Weber	List,Payment,Tax,Weaver				http://www.papyrology.uw.edu.pl/papyri/pberlin11714.htm			fv	20.8	10	VR		1	2.5	1	0	1				1	2	#section1 #section2/											1-1/#m1/descr-contents	1-22/#m1/main-text																																															
9523	9523	bgu;7;1617	http://papyri.info/ddbdp/bgu;7;1617	BGU	7		1617					gt_ri	gt_list		gtyp_list	gtyp_list_list	Liste,Zahlungen (Geld),Steuern,Namen (Römer)	Liste,Zahlung,Steuer,Name	List,Payment,Tax,Names				http://berlpap.smb.museum/03006/			fv	20	12.5	VR		0	0	0.5	0	2				1	3	#section1 #section2 #section3/											1-1/#m1/descr-contents	2-3/#m1/date	4-58/#m1/main-text																																														
10216	10216	p.berl.leihg;1;7	http://papyri.info/ddbdp/p.berl.leihg;1;7	P.Berl. Leihg.	1		7					gt_ri	gt_list		gtyp_list	gtyp_list_list	Bericht an den Strategen Harpokration,Liste von Namen (Bauern),die als Ersatz für andere (Anachoresis oder Astheneia) Land bestellen	Bericht,Liste,Name,Land	List,Names				http://berlpap.smb.museum/03073/			fh	23	31	HR		2	1.8	2	0	3				1	6	#section1 #section2 #section3 #section4 #section5 #section6/											1-4/#m1/introduction	5-8/#m1/descr-contents	8-8/#m1/trans-clause	9-59/#m1/main-text	60-60/#m1/subscription	61-62/#m1/date																																											
10600	10600	p.corn;;24	http://papyri.info/ddbdp/p.corn;;24	P.Corn.			24					gt_ri	gt_list		gtyp_list	gtyp_list_list	Liste,Steuernschuldner (Kopf- und DeichSteuern)	Liste,Steuer	List,Tax		https://quod.lib.umich.edu/cgi/i/image/api/manifest/apis:1201:C1_10R.TIF		http://quod.lib.umich.edu/a/apis/x-1201		free	fh	29.9	27.8	Sq		2.6	2.4	4.6	0.7	2				1	2	#section1 #section2/											1-5/#m1/descr-contents	6-49/#m1/main-text																																															
12301	12301	p.mich;12;640	http://papyri.info/ddbdp/p.mich;12;640	P.Mich.	12		640					gt_ri	gt_list		gtyp_list	gtyp_list_list	Liste,Namen,Steuern	Liste,Name,Steuer	List,Tax,Names		https://quod.lib.umich.edu/cgi/i/image/api/manifest/apis:3149:883R_1.TIF and https://quod.lib.umich.edu/cgi/i/image/api/manifest/apis:3149:883R_2.TIF		http://quod.lib.umich.edu/a/apis/x-3149		free	fh	29.5	45	HR		1.8	2.5	2.5	1	4				2	8	#section1 #section3 #section4 #section5 #section6 #section7 #section8/	#section2 #section4/										1-1/#m1/descr-contents	2-15/#m2/main-text	16-16/#m1/descr-contents	17-56/#m1 #m2/main-text	57-58/#m1/descr-contents	59-70/#m1/main-text	71-72/#m1/descr-contents	73-85/#m1/main-text																																									
12304	12304	p.mich;12;641	http://papyri.info/ddbdp/p.mich;12;641	P.Mich.	12		641					gt_ri	gt_list		gtyp_list	gtyp_list_list	Liste,Notiz,Namen,Steuern	Liste,Notiz,Name,Steuer	List,Tax,Names		https://quod.lib.umich.edu/cgi/i/image/api/manifest/apis:3129:800R_A.TIF		http://quod.lib.umich.edu/a/apis/x-3129		free	fh	17.1	11	VR		2.5	5	2	2	1				2	2	#section1 #section2/	#section2/										1-2/#m1/descr-contents	3-9/#m1 #m2/main-text																																															
12626	12626	p.petaus;;116	http://papyri.info/ddbdp/p.petaus;;116	P.Petaus			116					gt_ri	gt_list		gtyp_list	gtyp_list_list	Liste,Namen	Liste,Name	List,Names				https://papyri.uni-koeln.de/stueck/tm12626		CC-BY 4.0	fh	21.7	11	VR		0.8	8.3	0.6	0	1				2	1	#section1/	#section1/										1-18/#m1 #m2/main-text																																																
12627	12627	p.petaus;;117	http://papyri.info/ddbdp/p.petaus;;117	P.Petaus			117					gt_ri	gt_list		gtyp_list	gtyp_list_list	Liste,Namen	Liste,Name	List,Names				https://papyri.uni-koeln.de/stueck/tm12627		CC-BY 4.0	fh	22	14.1	VR		0.3	2.1	0.4	1	2				1	2	#section1 #section2/											1-2/#m1/descr-contents	3-87/#m1/main-text																																															
12683	12683	p.petaus;;73	http://papyri.info/ddbdp/p.petaus;;73	P.Petaus			73					gt_ri	gt_list		gtyp_list	gtyp_list_list	Liste,Namen,δημόσιοι	Liste,Name	List,Names				https://papyri.uni-koeln.de/stueck/tm12683		CC-BY 4.0	fh	13	15	Sq		1.6	4.4	1.4	1.3	1				1	2	#section1 #section2/											1-2/#m1/descr-contents	2-7/#m1/main-text																																															
12684	12684	p.petaus;;74	http://papyri.info/ddbdp/p.petaus;;74	P.Petaus			74					gt_ri	gt_list		gtyp_list	gtyp_list_list	Liste,Namen,δημόσιοι	Liste,Name	List,Names				https://papyri.uni-koeln.de/stueck/tm12684		CC-BY 4.0	fh	22	11.5	VR		1.4	11	2.8	1.1	1				1	3	#section1 #section2 #section3/											1-3/#m1/descr-contents	3-3/#m1/trans-clause	4-11/#m1/main-text																																														
12690	12690	p.petaus;;79	http://papyri.info/ddbdp/p.petaus;;79	P.Petaus			79					gt_ri	gt_list		gtyp_list	gtyp_list_list	Liste,Namen,Gymnasium	Liste,Name,Gymnasium	List,Names				https://papyri.uni-koeln.de/stueck/tm12690		CC-BY 4.0	fv	22.5	16	VR		2.8	11.1	0.9	7	1				1	1	#section1/											1-11/#m1/main-text																																																
12693	12693	p.petaus;;82	http://papyri.info/ddbdp/p.petaus;;82	P.Petaus			82					gt_ri	gt_list		gtyp_list	gtyp_list_list	Liste,Namen,Gymnasium	Liste,Name,Gymnasium	List,Names				https://papyri.uni-koeln.de/stueck/tm12693		CC-BY 4.0	fh	14	8.5	VR		1	7.6	0.8	0	1				1	1	#section1/											1-7/#m1/main-text																																																
15084	15084	stud.pal;22;169	http://papyri.info/ddbdp/stud.pal;22;169	SPP	22		169					gt_ri	gt_list		gtyp_list	gtyp_list_list	Liste,Namen,Zahlungen,Steuern,Getreide	Liste,Name,Zahlung,Steuer,Getreide	List,Names,Tax,Grain				http://data.onb.ac.at/rec/RZ00008015			fh	21.5	25.7	HR		1.5	1.2	0	1	3				1	8	#section1 #section2 #section3 #section4 #section5 #section6 #section7 #section8/											1-1/#m1/descr-contents	2-23/#m1/main-text	24-24/#m1/descr-contents	25-29/#m1/main-text	30-30/#m1/descr-contents	31-34/#m1/main-text	35-35/#m1/descr-contents	36-55/#m1/main-text																																									
16394	16394	sb;12;11164	http://papyri.info/ddbdp/sb;12;11164	SB	12		11164					gt_ri	gt_list		gtyp_list	gtyp_list_list	Liste,Namen,Sitologen	Liste,Name,Sitologos	List,Names,Sitologos				http://hdl.handle.net/10079/digcoll/2758977			fv	14	9	VR		1	2.5	1.2	0	1				1	2	#section1 #section2/											1-2/#m1/descr-contents	3-14/#m1/main-text																																															
18646	18646	bgu;4;1196	http://papyri.info/ddbdp/bgu;4;1196	BGU	4		1196					gt_ri	gt_list		gtyp_list	gtyp_list_list	Liste,Namen,Priester (Phylen)	Liste,Name,Priester	List,Names,Priest				http://berlpap.smb.museum/03633/			fh	18	56	HR		0.8	1	4	5.2	7				1	10	#section1 #section2 #section3 #section4 #section5 #section6 #section7 #section8 #section9 #section10/											1-1/#m1/descr-contents	2-30/#m1/main-text	31-31/#m1/descr-contents	32-70/#m1/main-text	71-71/#m1/descr-contents	72-106/#m1/main-text	107-107/#m1/descr-contents	108-138/#m1/main-text	139-139/#m1/descr-contents	140-141/#m1/main-text																																							
21632	21632	p.oxy;62;4334	http://papyri.info/ddbdp/p.oxy;62;4334	P.Oxy.	62		4334					gt_ri	gt_list		gtyp_list	gtyp_list_list	Liste,Steuern,Land	Liste,Steuer,Land	List,Tax,Land	https://widgets.figshare.com/articles/21178384/embed?show_title=1			https://doi.org/10.25446/oxford.21178384.v1			fh	22	12.5	VR		2	0	1.8	1	1				1	4	#section1 #section2 #section3 #section4/											1-4/#m1/descr-contents	5-5/#m1/trans-clause	6-6/#m1/descr-contents	7-31/#m1/main-text																																													
25173	25173	p.mich;5;247	http://papyri.info/ddbdp/p.mich;5;247	P.Mich.	5		247					gt_ri	gt_list		gtyp_list	gtyp_list_list	Liste,Mitglieder,Verein	Liste,Mitglieder,Verein	List,Names		https://quod.lib.umich.edu/cgi/i/image/api/manifest/apis:3039:695R.TIF		http://quod.lib.umich.edu/a/apis/x-3039		free	fh	28.5	16.5	VR		16	1.5	3.4	0	1				3	2	#section1/	#section2/	#section2/									1-16/#m1/main-text	17-18/#m2 #m3/addition																																															
25174	25174	p.mich;5;248	http://papyri.info/ddbdp/p.mich;5;248	P.Mich.	5		248					gt_ri	gt_list		gtyp_list	gtyp_list_list	Liste,Mitglieder,Verein	Liste,Mitglieder,Verein	List,Names		https://quod.lib.umich.edu/cgi/i/image/api/manifest/apis:3065:699R.TIF		http://quod.lib.umich.edu/a/apis/x-3065		free	fh	28.5	20	VR		19	4	2.5	0	1				5	2	#section1/	#section2/	#section2/	#section2/	#section2/							1-7/#m1/main-text	8-10/#m2 #m3 #m4 #m5/addition																																															
25205	25205	p.mich;5;356	http://papyri.info/ddbdp/p.mich;5;356	P.Mich.	5		356					gt_ri	gt_list		gtyp_list	gtyp_list_list	Liste,Personen,Beschreibung	Liste,Person,Beschreibung	List,Names		https://quod.lib.umich.edu/cgi/i/image/api/manifest/apis:3112:754R.TIF		http://quod.lib.umich.edu/a/apis/x-3112		free	fh	15.9	15	Sq		1	6	8	0	1				1	1	#section1/											1-11/#m1/main-text																																																
25889	25889	p.mich;12;637	http://papyri.info/ddbdp/p.mich;12;637	P.Mich.	12		637					gt_ri	gt_list		gtyp_list	gtyp_list_list	Liste,Namen,Legionäre	Liste,Name,Legionär	List,Names		https://quod.lib.umich.edu/cgi/i/image/api/manifest/apis:1555:1953R.TIF		http://quod.lib.umich.edu/a/apis/x-1555		free	fh	25.7	7.9	VR		2	2	1	0	1				1	1	#section1/											1-16/#m1/main-text																																																
25890	25890	p.mich;12;638	http://papyri.info/ddbdp/p.mich;12;638	P.Mich.	12		638					gt_ri	gt_list		gtyp_list	gtyp_list_list	Liste,Namen,Steuern (?)	Liste,Name,Steuer	List,Names		https://quod.lib.umich.edu/cgi/i/image/api/manifest/apis:3135:828R.TIF		http://quod.lib.umich.edu/a/apis/x-3135		free	fh	8.6	4.3	VR		2	2.5	2.5	4	1				1	2	#section1 #section2/											1-1/#m1/descr-contents	2-20/#m1/main-text																																															
26516	26516	p.hamb;3;224	http://papyri.info/ddbdp/p.hamb;3;224	P.Hamb.	3		224					gt_ri	gt_list		gtyp_list	gtyp_list_list	Liste,Namen	Liste,Name	List,Names		https://iiif.sub.uni-hamburg.de/object/HANSh715/manifest		https://resolver.sub.uni-hamburg.de/kitodo/HANSh715			fh	22	8	VR		1.5	1.5	0	0	1				1	1	#section1/											1-29/#m1/main-text																																																
27052	27052	psi;14;1410	http://papyri.info/ddbdp/psi;14;1410	PSI	14		1410					gt_ri	gt_list		gtyp_list	gtyp_list_list	Liste,Einnahmen,Ausgaben (Geld)	Liste,Einnahme,Ausgabe	List,Expenses				http://www.psi-online.it/documents/psi;14;1410			fh	21.5	10.7	VR		2.5	5.9	0.5	3.8	1				1	2	#section1 #section2/											1-1/#m1/descr-contents	2-19/#m1/main-text																																															
27144	27144	p.vind.sal;;18	http://papyri.info/ddbdp/p.vind.sal;;18	P.Vindob. Sal.			18					gt_ri	gt_list		gtyp_list	gtyp_list_list	Liste,Namen,Steuern	Liste,Name,Steuer	List,Names,Tax				http://data.onb.ac.at/rec/RZ00004275			fh	10.9	8.2	VR		0	1.2	1.5	0	1				1	1	#section1/											1-16/#m1/main-text																																																
27635	27635	stud.pal;22;57	http://papyri.info/ddbdp/stud.pal;22;57	SPP	22		57					gt_ri	gt_list		gtyp_list	gtyp_list_list	Liste,Namen,Beruf	Liste,Name,Beruf	List,Names				http://data.onb.ac.at/rec/RZ00007898			fv	9.2	7.5	VR		0.5	2.6	0.4	0	1				1	1	#section1/											1-7/#m1/main-text																																																
27657	27657b	stud.pal;22;178v	http://papyri.info/ddbdp/stud.pal;22;178v	SPP	22		178	v				gt_ri	gt_list		gtyp_list	gtyp_list_list	Liste,Namen,Liturgen,Bewässerungsdienst	Liste,Name,Liturgie,Bewässerungsdienst	List,Names,Liturgy				http://data.onb.ac.at/rec/RZ00008024			fh	22.2	13.6	VR		2.3	0.6	0	0	1				1	1	#section1/											1-25/#m1/main-text																																																
28175	28175	bgu;2;532	http://papyri.info/ddbdp/bgu;2;532	BGU	2		532					gt_ri	gt_list		gtyp_list	gtyp_list_list	Liste,Namen	Liste,Name	List,Names				http://berlpap.smb.museum/01785/			fv	35.5	11	VR		1.8	19	1.5	0.5	1				3	2	#section1 #section2/	#section2/	#section2/									1-1/#m1/col-no	2-18/#m1 #m2 #m3/main-text																																															
28255	28255	bgu;1;338	http://papyri.info/ddbdp/bgu;1;338	BGU	1		338					gt_ri	gt_list		gtyp_list	gtyp_list_list	Liste,Geräte,Leuchter u.a.	Liste,Geräte,Leuchter	List,Goods				http://berlpap.smb.museum/01697/			fh	10	15	HR		0.6	3.5	1	4	1				1	1	#section1/											1-9/#m1/main-text																																																
28256	28256	bgu;1;344	http://papyri.info/ddbdp/bgu;1;344	BGU	1		344					gt_ri	gt_list		gtyp_list	gtyp_list_list	Liste,Namen,Berufe	Liste,Name,Beruf	List,Names				http://berlpap.smb.museum/01721/			fh	31.5	13.4	VR		1	1	1	0	2				1	2	#section1 #section2/											1-1/#m1/descr-contents	2-50/#m1/main-text																																															
28931	28931	p.oxy;9;1211	http://papyri.info/ddbdp/p.oxy;9;1211	P.Oxy.	9		1211					gt_ri	gt_list		gtyp_list	gtyp_list_list	Liste v. Gaben (Opfer) addressiert an d. Strategen	Liste,Gabe,Opfer	List,Sacrifice,Offering		https://figgy.princeton.edu/concern/scanned_resources/5e2c3d01-f8fd-4436-ad63-5b0656039626/manifest		https://dpul.princeton.edu/papyri/catalog/cj82kb80x			fh	8.9	6.7	VR		0.5	1.75	2	0	1				1	2	#section1 #section2/											1-3/#m1/descr-contents	4-11/#m1/main-text																																															
28932	28932b	p.oxy;9;1212	http://papyri.info/ddbdp/p.oxy;9;1212	P.Oxy.	9		1212	v				gt_ri	gt_list		gtyp_list	gtyp_list_list	Liste von Gemüsen für den Archephodos	Liste,Gemüse	List,Food				https://library.artstor.org/public/SS7730556_7730556_9313370		free, with credit	fv	17	8	VR		1.9	8.5	1.3	0.8	1				1	2	#section1 #section2/											1-3/#m1/descr-contents	4-8/#m1/main-text																																															
28979	28979	p.amh;2;124	http://papyri.info/ddbdp/p.amh;2;124	P.Amh.	2		124					gt_ri	gt_list		gtyp_list	gtyp_list_list	Liste,Wächter der Palaistra	Liste,Wächter	List,Names,Guards				http://corsair.themorgan.org/vwebv/holdingsInfo?bibId=350378			fh	35.5	11.4	VR		2.5	13	0	0	1				1	2	#section1 #section2/											1-4/#m1/descr-contents	5-31/#m1/main-text																																															
30209	30209	p.wisc;2;60	http://papyri.info/ddbdp/p.wisc;2;60	P.Wisc.	2		60					gt_ri	gt_list		gtyp_list	gtyp_list_list	Liste,Lebensmittel,Namen	Liste,Lebensmittel,Name	List,Names,Food		https://quod.lib.umich.edu/cgi/i/image/api/manifest/apis:5419:W62R.TIF		https://quod.lib.umich.edu/a/apis/x-5419		free	fh	17	8	VR		1	2	1	0	1				1	2	#section1 #section2/											1-2/#m1/descr-contents	3-20/#m1/main-text																																															
30265	30265	sb;16;12291	http://papyri.info/ddbdp/sb;16;12291	SB	16		12291					gt_ri	gt_list		gtyp_list	gtyp_list_list	Liste,Lieferung,Textilien,Mantel,Kleid,Tuch,Anzug,Namen,Drachmen	Liste,Lieferung,Textilien,Mantel,Kleid,Tuch,Anzug,Name,Drachmen	List,Names,Goods				http://berlpap.smb.museum/01950/			fh	21.5	7.2	VR		1	11.5	0	0	1				1	2	#section1 #section2/											1-2/#m1/descr-contents	3-14/#m1/main-text																																															
30266	30266	sb;16;12292	http://papyri.info/ddbdp/sb;16;12292	SB	16		12292					gt_ri	gt_list		gtyp_list	gtyp_list_list	Liste,Rückstand,Steuern,Namen,Drachmen,Summe	Liste,Rückstand,Steuer,Name,Drachmen,Summe	List,Names,Tax				http://berlpap.smb.museum/02100/			fh	19.5	10	VR		1	13	1	0	1				1	2	#section1 #section2/											1-2/#m1/descr-contents	3-7/#m1/main-text																																															
30390	30390	p.oxy;36;2794	http://papyri.info/ddbdp/p.oxy;36;2794	P.Oxy.	36		2794					gt_ri	gt_list		gtyp_list	gtyp_list_list	Liste,Versorgung,Soldaten	Liste,Versorgung,Soldate	List,Goods	https://widgets.figshare.com/articles/21166006/embed?show_title=1			https://doi.org/10.25446/oxford.21166006.v1			fv	6	5.3	Sq		0.6	1.4	0.4	0.1	1				1	1	#section1/											1-6/#m1/main-text																																																
30391	30391	p.oxy;36;2796	http://papyri.info/ddbdp/p.oxy;36;2796	P.Oxy.	36		2796					gt_ri	gt_list		gtyp_list	gtyp_list_list	Liste,Ausgaben,Heizung	Liste,Ausgabe,Heizung	List,Expenses	https://widgets.figshare.com/articles/21166012/embed?show_title=1			https://doi.org/10.25446/oxford.21166012.v1			fh	11.3	12.9	Sq		0.3	2.6	1	1.5	1				1	2	#section1 #section2/											1-1/#m1/descr-contents	2-8/#m1/main-text																																															
30962	30962	stud.pal;22;52	http://papyri.info/ddbdp/stud.pal;22;52	SPP	22		52					gt_ri	gt_list		gtyp_list	gtyp_list_list	Liste,Namen,Presbyteroi	Liste,Name,Presbyteroi	List,Names,Presbyteroi				http://data.onb.ac.at/rec/RZ00007895			fh	20.2	10.5	VR		1.6	6.5	1.9	0	1				1	2	#section1 #section2/											1-1/#m1/descr-contents	2-17/#m1/main-text																																															
31099	31099	psi;6;713	http://papyri.info/ddbdp/psi;6;713	PSI	6		713					gt_ri	gt_list		gtyp_list	gtyp_list_list	Liste,Erben,Namen,Steuern in Gold (?)	Liste,Erben,Name,Steuer	List,Names,Tax				http://www.psi-online.it/documents/psi;6;713			fh	20.5	11.6	VR		1	0.5	1	0	1				1	1	#section1/											1-22/#m1/main-text																																																
43216	43216	sb;22;15709	http://papyri.info/ddbdp/sb;22;15709	SB	22		15709					gt_ri	gt_list		gtyp_list	gtyp_list_list	Liste,Namen	Liste,Name	List,Names		https://quod.lib.umich.edu/cgi/i/image/api/manifest/apis:1875:3211R.TIF		http://quod.lib.umich.edu/a/apis/x-1875		free	fh	25.5	18.5	VR		1.2	10.4	2.2	8.2	1				1	1	#section1/											1-16/#m1/main-text																																																
45240	45240	p.oxy;40;2928	http://papyri.info/ddbdp/p.oxy;40;2928	P.Oxy.	40		2928					gt_ri	gt_list		gtyp_list	gtyp_list_list	Liste,Personen,Stadtviertel (Zuteilung,Getreide?)	Liste,Person,Stadtviertel	List,Village	https://widgets.figshare.com/articles/21166510/embed?show_title=1			https://doi.org/10.25446/oxford.21166510.v1			fv	32.5	25.5	VR		1	7	1.5	8	2				1	4	#section1 #section2 #section3 #section4/											1-1/#m1/descr-contents	2-16/#m1/main-text	17-17/#m1/descr-contents	18-30/#m1/main-text																																													
65756	65756	sb;14;12074	http://papyri.info/ddbdp/sb;14;12074	SB	14		12074					gt_ri	gt_list		gtyp_list	gtyp_list_list	Liste,Gewürze,Honig	Liste,Gewürze,Honig	List,Food		https://quod.lib.umich.edu/cgi/i/image/api/manifest/apis:1906:3243R.TIF		http://quod.lib.umich.edu/a/apis/x-1906		free	fh	22	8.5	VR		4	10	1.5	1.5	1				1	1	#section1/											1-9/#m1/main-text																																																