TM	HGV	DDB	papyri-info	series	volume	fascicle	numbers	side	generic	page	number	format-type	format-subtype	format-variation	text-type	text-subtype	hgv-subjects	hgv-de	hgv-en	iframe	IIIF	canvasID	image	printed-image	image-rights	fibres	height	width	shape	writing-parallel	margin-top	margin-bottom	margin-left	margin-right	columns	blank-after	blank-height	seal	hand-nb	section-nb	m1	m2	m3	m4	m5	m6	m7	m8	m9	m10	m11	section1	section2	section3	section4	section5	section6	section7	section8	section9	section10	section11	section12	section13	section14	section15	section16	section17	section18	section19	section20	section21	section22	section23	section24	section25	section26	section27	section28	section29	section30	section31	section32	section33	section34	section35	section36	section37	section38	section39	section40	section41	section42	section43	section44	section45	section43	section44	section45
1937	1937	p.mich;1;37	https://papyri.info/ddbdp/p.mich;1;37	P.Mich.	1		37					gt_ee	gt_letterBusiness	gt_order			Brief (geschäftlich),Petosiris an Theopompos,Anweisung,Zahlung,Geld,Lohn,Bau (Haus)	Geschäftsbrief	Business Letter		https://quod.lib.umich.edu/cgi/i/image/api/manifest/apis:1885:3221V.TIF		https://quod.lib.umich.edu/a/apis/x-1885		free	fv	26.5	10	VR		1	1	0.6	0	1			NO	1	6	#section1 #section2 #section3 #section4 #section5 #section6											1-1/#m1/introduction	2-13/#m1/main-text	14-14/#m1/introduction	15-25/#m1/main-text	26-26/#m1/subscription	27-27/#m1/date																																										
4211	4211	sb;14;11309	https://papyri.info/ddbdp/sb;14;11309	SB	14		11309					gt_ee	gt_letterBusiness	gt_order			Anweisung,Zahlung,Geld	Geschäftsbrief,Zahlungsanweisung	Business Letter,Bank,Money Order				http://purl.flvc.org/fsu/fd/FSU_MSS_2015_008_11		Use of this item is provided for non-commercial, personal, educational, and research use only	fv	5	5.5	Sq		0.7	1.2	0.5	0.8	1			NO	1	3	#section1 #section2 #section3/	0	0	0								1-2/#m1/introduction	2-3/#m1/main-text	4-4/#m1/date																																													
4212	4212	sb;14;11310	https://papyri.info/ddbdp/sb;14;11310	SB	14		11310					gt_ee	gt_letterBusiness	gt_order			Anweisung,Zahlung,Geld	Geschäftsbrief,Zahlungsanweisung	Business Letter,Bank,Money Order				http://purl.flvc.org/fsu/fd/FSU_MSS_2015_008_12		Use of this item is provided for non-commercial, personal, educational, and research use only	fh	11.5	6.5	HR		1	3	1.6	1	1			NO	1	3	#section1 #section2 #section3/	0	0	0								1-1/#m1/introduction	1-2/#m1/main-text	2-2/#m1/date																																													
4213	4213	sb;14;11311	https://papyri.info/ddbdp/sb;14;11311	SB	14		11311					gt_ee	gt_letterBusiness	gt_order			Anweisung,Zahlung,Geld	Geschäftsbrief,Zahlungsanweisung	Business Letter,Bank,Money Order				http://purl.flvc.org/fsu/fd/FSU_MSS_2015_008_02		Use of this item is provided for non-commercial, personal, educational, and research use only	fv	7.5	10	HR		2	0.8	2.4	1	1			NO	1	3	#section1 #section2 #section3/	0	0	0								1-3/#m1/introduction	3-5/#m1/main-text	5-5/#m1/date																																													
4214	4214	sb;14;11312	https://papyri.info/ddbdp/sb;14;11312	SB	14		11312					gt_ee	gt_letterBusiness	gt_order			Anweisung,Zahlung,Geld	Geschäftsbrief,Zahlungsanweisung	Business Letter,Bank,Money Order				http://purl.flvc.org/fsu/fd/FSU_MSS_2015_008_04		Use of this item is provided for non-commercial, personal, educational, and research use only	fh	6	7.5	Sq		1	1.6	1.5	0.8	1			NO	1	3	#section1 #section2 #section3/	0	0	0								1-1/#m1/introduction	2-3/#m1/main-text	3-3/#m1/date																																													
4215	4215	sb;14;11313	https://papyri.info/ddbdp/sb;14;11313	SB	14		11313					gt_ee	gt_letterBusiness	gt_order			Anweisung,Zahlung,Geld	Geschäftsbrief,Zahlungsanweisung	Business Letter,Bank,Money Order				http://purl.flvc.org/fsu/fd/FSU_MSS_2015_008_14		Use of this item is provided for non-commercial, personal, educational, and research use only	fv	6.5	6.5	Sq		1	1.9	1.2	0	1			NO	1	3	#section1 #section2 #section3/	0	0	0								1-2/#m1/introduction	2-4/#m1/main-text	5-5/#m1/date																																													
4218	4218	sb;14;11316	https://papyri.info/ddbdp/sb;14;11316	SB	14		11316					gt_ee	gt_letterBusiness	gt_order			Anweisung,Zahlung,Geld	Geschäftsbrief,Zahlungsanweisung	Business Letter,Bank,Money Order				http://purl.flvc.org/fsu/fd/FSU_MSS_2015_008_10		Use of this item is provided for non-commercial, personal, educational, and research use only	fh	7.5	6	VR		1.5	0.8	1	0	1			NO	1	3	#section1 #section2 #section3/	0	0	0								1-2/#m1/introduction	2-4/#m1/main-text	5-5/#m1/date																																													
4220	4220	sb;14;11318	https://papyri.info/ddbdp/sb;14;11318	SB	14		11318					gt_ee	gt_letterBusiness	gt_order			Anweisung,Zahlung,Geld	Geschäftsbrief,Zahlungsanweisung	Business Letter,Bank,Money Order				http://purl.flvc.org/fsu/fd/FSU_MSS_2015_008_01		Use of this item is provided for non-commercial, personal, educational, and research use only	fv	5.5	12	HR		1	1	2.7	0.8	1			NO	1	3	#section1 #section2 #section3/	0	0	0								1-1/#m1/introduction	1-2/#m1/main-text	3-3/#m1/date																																													
4222	4222	sb;14;11320	https://papyri.info/ddbdp/sb;14;11320	SB	14		11320					gt_ee	gt_letterBusiness	gt_order			Anweisung,Zahlung,Geld	Geschäftsbrief,Zahlungsanweisung	Business Letter,Bank,Money Order				http://purl.flvc.org/fsu/fd/FSU_MSS_2015_008_05		Use of this item is provided for non-commercial, personal, educational, and research use only	fh	8.5	6.5	VR		2	3.5	1.5	0.2	1			NO	1	3	#section1 #section2 #section3/	0	0	0								1-2/#m1/introduction	2-3/#m1/main-text	3-3/#m1/date																																													
4224	4224	sb;14;11322	https://papyri.info/ddbdp/sb;14;11322	SB	14		11322					gt_ee	gt_letterBusiness	gt_order			Anweisung,Zahlung,Geld	Geschäftsbrief,Zahlungsanweisung	Business Letter,Bank,Money Order				http://purl.flvc.org/fsu/fd/FSU_MSS_2015_008_09		Use of this item is provided for non-commercial, personal, educational, and research use only	fv	10	7.5	VR		1.4	5.2	0.9	0.2	1			NO	1	3	#section1 #section2 #section3/	0	0	0								1-1/#m1/introduction	2-4/#m1/main-text	4-4/#m1/date																																													
8924	8924	chr.wilck;;175	https://papyri.info/ddbdp/c	Chr.Wilck			175					gt_ee	gt_letterBusiness	gt_order			Überweisung,Bank,Geld,Land,Pacht,Soldat	Geschäftsbrief,Zahlungsanweisung	Business Letter,Bank,Money Order				https://berlpap.smb.museum/01803/			fh	12.6	18.2	HR		2.2	0	2	0	1			NO	1	3	#section1 #section2 #section3/	0	0	0								1-3/#m1/introduction	3-9/#m1/main-text	10-12/#m1/date																																													
10767	10767	p.fay;;100	https://papyri.info/ddbdp/p.fay;;100	P.Fay.			100					gt_ee	gt_letterBusiness	gt_order			Überweisung,Bank,Geld	Geschäftsbrief,Zahlungsanweisung	Business Letter,Bank,Money Order				http://ipap.csad.ox.ac.uk/4DLink4/4DACTION/IPAPwebquery?vPub=P.Fay.&vVol=&vNum=100			fh	25.5	11.3	VR		1.4	7.5	1	0	1			NO	3	4	#section1 #section2 #section3/	#section4	#section4	0								1-3/#m1/introduction	3-16/#m1/main-text	16-18/#m1/date	18-29/#m2 #m3/subscription																																												
15674	15674	p.oxy;49;3520	https://papyri.info/ddbdp/p.oxy;49;3520	P.Oxy.	49		3520					gt_ee	gt_letterBusiness	gt_order			Zahlungsanweisung (Wein),Preis (schon bezahlt)	Geschäftsbrief	Business Letter	https://widgets.figshare.com/articles/21168661/embed?show_title=1			https://doi.org/10.25446/oxford.21168661.v1			fh	9	28.7	HR		0.2	0.3	1.5	0.4	1			NO	2	6	#section1 #section2 #section3	#section4 #section5 #section6	0	0								1-1/#m1/official-mark	1-1/#m1/introduction	2-9/#m1/main-text	9-9/#m2/subscription	9-11/#m2/addition	11-11/#m2/date																																										
16336	16336	sb;16;12993	https://papyri.info/ddbdp/sb;16;12993	SB	16		12993					gt_ee	gt_letterBusiness	gt_order			Anweisung,Lieferung,Hülsenfrüchte,Namen	Geschäftsbrief	Business Letter				https://berlpap.smb.museum/00399/			fh	13.2	7.55	VR		1.4	2.8	1.2	0.2	1			NO	1	3	#section1 #section2 #section3/	0	0	0								1-3/#m1/introduction	4-8/#m1/main-text	9-9/#m1/date																																													
16397	16397	sb;12;11167	https://papyri.info/ddbdp/sb;12;11167	SB	12		11167					gt_ee	gt_letterBusiness	gt_order			Anweisung,Zahlung,Getreide	Geschäftsbrief,Zahlungsanweisung	Business Letter,Sitologos,Diastolikon Order,Grain,Wheat				https://hdl.handle.net/10079/digcoll/2756836			fh	10.2	8.4	VR		2	1.5	0.8	0	1			NO	1	3	#section1 #section2 #section3/	0	0	0								1-3/#m1/introduction	3-7/#m1/main-text	7-9/#m1/date																																													
16902	16902	p.oxy;31;2588	https://papyri.info/ddbdp/p.oxy;31;2588	P.Oxy.	31		2588					gt_ee	gt_letterBusiness	gt_order			Befehl,Diogenes an Sitologen,Auszahlung,Weizen,Artaben	Geschäftsbrief,Zahlungsanweisung	Business Letter,Sitologos,Diastolikon Order,Grain,Wheat	https://widgets.figshare.com/articles/21165295/embed?show_title=1			https://doi.org/10.25446/oxford.21165295.v1			fh	17.4	7.3	VR		1	7	0.5	0	1			NO	1	3	#section1 #section2 #section3/	0	0	0								1-6/#m1/introduction	6-13/#m1/main-text	13-15/#m1/date																																													
16903	16903	p.oxy;31;2589	https://papyri.info/ddbdp/p.oxy;31;2589	P.Oxy.	31		2589					gt_ee	gt_letterBusiness	gt_order			Befehl,Horion an Sitologen,Auszahlung,Weizen,Artaben	Geschäftsbrief,Zahlungsanweisung	Business Letter,Sitologos,Diastolikon Order,Grain,Wheat	https://widgets.figshare.com/articles/21165298/embed?show_title=1			https://doi.org/10.25446/oxford.21165298.v1			fh	12	11.3	Sq		1.5	6	0.5	0	1			NO	2	4	#section1 #section2 #section3/	#section4	0	0								1-2/#m1/introduction	2-6/#m1/main-text	6-7/#m1/date	8-8/#m2/addition																																												
20035	20035	psi;3;214	https://papyri.info/ddbdp/psi;3;214	PSI	3		214					gt_ee	gt_letterBusiness	gt_order			Anweisung,Zahlung,Korn	Geschäftsbrief	Business Letter				http://www.psi-online.it/documents/psi;3;214			fv	7.1	10.2	HR		0.5	2.3	0	0.3	1			NO	1	3	#section1 #section2 #section3/	0	0	0								1-1/#m1/introduction	2-6/#m1/main-text	7-7/#m1/date																																													
20124	20124	psi;1;35	https://papyri.info/ddbdp/psi;1;35	PSI	1		35					gt_ee	gt_letterBusiness	gt_order			Anweisung (Zahlung),Weizen	Geschäftsbrief	Business Letter				http://www.psi-online.it/documents/psi;1;35			fh	6.2	7	Sq		0.6	1.2	1.2	0	1			NO	1	3	#section1 #section2 #section3/	0	0	0								1-2/#m1/introduction	3-4/#m1/main-text	5-5/#m1/date																																													
20647	20647	p.oxy;3;516	https://papyri.info/ddbdp/p.oxy;3;516	P.Oxy.	3		516					gt_ee	gt_letterBusiness	gt_order			Anweisung,Zahlung,Sitologen,Getreide,Guthaben	Geschäftsbrief,Zahlungsanweisung	Business Letter,Sitologos,Diastolikon Order,Grain,Wheat				http://sceti.library.upenn.edu/pages/index.cfm?so_id=4233			fh	18.2	9.2	VR		1	6	9.5	0	1			NO	2	4	#section1 #section2 #section3/	#section4	0	0								1-6/#m1/introduction	6-12/#m1/main-text	12-13/#m1/date	14-14/#m2/addition																																												
20674	20674	zpe;160;188	https://papyri.info/ddbdp/zpe;160;188	P.Oxy.	3		619					gt_ee	gt_letterBusiness	gt_order			Anweisung,Zahlungen,Getreide,Sitologen	Geschäftsbrief,Zahlungsanweisung	Business Letter,Sitologos,Diastolikon Order,Grain,Wheat		https://figgy.princeton.edu/concern/scanned_resources/6be6437b-7383-4040-845a-941616776380/manifest		https://dpul.princeton.edu/papyri/catalog/f7623h08b			fh	20	17.3	VR		1.5	6.5	1.5	6	1			NO	1	2	#section1 #section2	0	0	0								1-2/#m1/introduction	3-15/#m1/main-text																																														
20675	20675	zpe;160;189	https://papyri.info/ddbdp/zpe;160;189	P.Oxy.	3		620					gt_ee	gt_letterBusiness	gt_order			Anweisung,Zahlung,Getreide,Sitologen	Geschäftsbrief,Zahlungsanweisung	Business Letter,Sitologos,Diastolikon Order,Grain,Wheat		https://figgy.princeton.edu/concern/scanned_resources/b5115b7d-7446-4ff3-8919-095af18e8f7e/manifest		https://dpul.princeton.edu/papyri/catalog/f1881q401			fh	9.8	7.9	VR		4	0	2	0	1			NO	2	4	#section1 #section2 #section3/	#section4	0	0								1-3/#m1/introduction	3-13/#m1/main-text	14-18/#m1/date	18-20/#m2/addition																																												
20678	20678	zpe;160;191	https://papyri.info/ddbdp/zpe;160;191	P.Oxy.	3		628					gt_ee	gt_letterBusiness	gt_order			Anweisung,Zahlung,Getreide	Geschäftsbrief,Zahlungsanweisung	Business Letter,Sitologos,Diastolikon Order,Grain,Wheat				http://sceti.library.upenn.edu/pages/index.cfm?so_id=4242			fh	9.5	10.9	HR		0.9	4	1.5	0	1			NO	1	3	#section1 #section2 #section3/	0	0	0								1-2/#m1/introduction	3-6/#m1/main-text	6-7/#m1/date																																													
20681	20681	zpe;160;194_2	https://papyri.info/ddbdp/zpe;160;194_2	P.Oxy.	3		631					gt_ee	gt_letterBusiness	gt_order			Anweisung,Zahlung,Getreide,Sitologen	Geschäftsbrief,Zahlungsanweisung	Business Letter,Sitologos,Diastolikon Order,Grain,Wheat				http://sceti.library.upenn.edu/pages/index.cfm?so_id=4245			fh	12	5.5	VR		0.8	6	0.6	0	1			NO	1	3	#section1 #section2 #section3/	0	0	0								1-4/#m1/introduction	4-10/#m1/main-text	10-12/#m1/date																																													
20682	20682	zpe;160;195	https://papyri.info/ddbdp/zpe;160;195	P.Oxy.	3		632					gt_ee	gt_letterBusiness	gt_order			Anweisung,Zahlung,Getreide,Sitologen	Geschäftsbrief,Zahlungsanweisung	Business Letter,Sitologos,Diastolikon Order,Grain,Wheat				http://sceti.library.upenn.edu/pages/index.cfm?so_id=4246			fh	8.5	11.1	HR		1.2	2	1.5	0	1			NO	1	3	#section1 #section2 #section3/	0	0	0								1-2/#m1/introduction	2-5/#m1/main-text	5-8/#m1/date																																													
20747	20747	p.oxy;1;88	https://papyri.info/ddbdp/p.oxy;1;88	P.Oxy.	1		88					gt_ee	gt_letterBusiness	gt_order			Anweisung,Sitologen,Zahlung,Weizen	Geschäftsbrief,Zahlungsanweisung	Business Letter,Sitologos,Diastolikon Order,Grain,Wheat				http://sceti.library.upenn.edu/pages/index.cfm?so_id=4068			fv	13.1	11	VR		1	2	1.1	0	1			NO	1	3	#section1 #section2 #section3/	0	0	0								1-5/#m1/introduction	5-12/#m1/main-text	12-14/#m1/date																																													
22248	22248	p.oxy;38;2864	https://papyri.info/ddbdp/p.oxy;38;2864	P.Oxy.	38		2864					gt_ee	gt_letterBusiness	gt_order			Anordnung,Zahlung,Getreide,Theon an Faustus (Sitologe)	Geschäftsbrief,Zahlungsanweisung	Business Letter,Sitologos,Diastolikon Order,Grain,Wheat	https://widgets.figshare.com/articles/21166258/embed?show_title=1			https://doi.org/10.25446/oxford.21166258.v1			fh	6.6	12.7	HR		0.3	1.4	1.7	0	1			NO	1	3	#section1 #section2 #section3/	0	0	0								1-2/#m1/introduction	3-5/#m1/main-text	5-6/#m1/date																																													
22252	22252	p.oxy;38;2868	https://papyri.info/ddbdp/p.oxy;38;2868	P.Oxy.	38		2868					gt_ee	gt_letterBusiness	gt_order			Anweisung,Zahlung,Getreide,Herakleides an Sitologen	Geschäftsbrief,Zahlungsanweisung	Business Letter,Sitologos,Diastolikon Order,Grain,Wheat	https://widgets.figshare.com/articles/21166270/embed?show_title=1			https://doi.org/10.25446/oxford.21166270.v1			fh	11	6.1	VR		0.8	1.6	0.5	0	1			NO	1	3	#section1 #section2 #section3/	0	0	0								1-3/#m1/introduction	4-11/#m1/main-text	11-14/#m1/date																																													
22254	22254	p.oxy;38;2870	https://papyri.info/ddbdp/p.oxy;38;2870	P.Oxy.	38		2870					gt_ee	gt_letterBusiness	gt_order			Anweisung,Zahlung,Getreide,Sarapus an Sitologen	Geschäftsbrief,Zahlungsanweisung	Business Letter,Sitologos,Diastolikon Order,Grain,Wheat	https://widgets.figshare.com/articles/21166276/embed?show_title=1			https://doi.org/10.25446/oxford.21166276.v1			fh	10.6	11.4	Sq		0.9	1.8	1	1	1			NO	1	3	#section1 #section2 #section3/	0	0	0								1-2/#m1/introduction	2-7/#m1/main-text	7-8/#m1/date																																													
22433	22433	p.lips;1;113	https://papyri.info/ddbdp/p.lips;1;113	P.Lips.	1		113					gt_ee	gt_letterBusiness	gt_order			Anweisung an Sitologen,Zahlung von Getreide	Geschäftsbrief,Zahlungsanweisung	Business Letter,Sitologos,Diastolikon Order,Grain,Wheat				https://papyri.uni-leipzig.de/receive/UBLPapyri_schrift_00001130			fh	10.6	8.8	VR		0.8	5.1	1.2	0.1	1			NO	1	4	#section1 #section2 #section3 #section4/	0	0	0								1-3/#m1/introduction	3-7/#m1/main-text	8-9/#m1/date	9-9/#m1/addition																																												
22435	22435	p.lips;1;114	https://papyri.info/ddbdp/p.lips;1;114	P.Lips.	1		114					gt_ee	gt_letterBusiness	gt_order			Anweisung an Sitologen,Zahlung von Getreide	Geschäftsbrief,Zahlungsanweisung	Business Letter,Sitologos,Diastolikon Order,Grain,Wheat				https://papyri.uni-leipzig.de/receive/UBLPapyri_schrift_00001140			fh	8.5	12.2	HR		1	4.2	1.2	0.5	1			NO	1	3	#section1 #section2 #section3/	0	0	0								1-1/#m1/introduction	2-5/#m1/main-text	5-6/#m1/date																																													
22436	22436	p.lips;1;115	https://papyri.info/ddbdp/p.lips;1;115	P.Lips.	1		115					gt_ee	gt_letterBusiness	gt_order			Anweisungen an einen Sitologen,Zahlung von Getreide	Geschäftsbrief,Zahlungsanweisung	Business Letter,Sitologos,Diastolikon Order,Grain,Wheat				https://papyri.uni-leipzig.de/receive/UBLPapyri_schrift_00001150			fh	11	7.5	VR		0.7	4.2	0.8	0.3	1			NO	1	4	#section1 #section2 #section3 #section4/	0	0	0								1-2/#m1/introduction	2-6/#m1/main-text	7-8/#m1/date	8-10/#m1/main-text																																												
22439	22439	p.lips;1;117	https://papyri.info/ddbdp/p.lips;1;117	P.Lips.	1		117					gt_ee	gt_letterBusiness	gt_order			Anweisung an Sitologen,Zahlung von Getreide	Geschäftsbrief,Zahlungsanweisung	Business Letter,Sitologos,Diastolikon Order,Grain,Wheat				https://papyri.uni-leipzig.de/receive/UBLPapyri_schrift_00001170			fh	13	9.8	VR		1	7.3	1	0	1			NO	1	2	#section1 #section2	0	0	0								1-2/#m1/introduction	2-8/#m1/main-text																																														
22841	22841	p.lond;3;1215	https://papyri.info/ddbdp/p.lond;3;1215	P.Lond.	3		1215					gt_ee	gt_letterBusiness	gt_order			Anweisung,Zahlung,Getreide (Saat) mit der Quittung des Empfängers	Geschäftsbrief,Zahlungsanweisung	Business Letter,Sitologos,Grain,Wheat				http://www.bl.uk/manuscripts/FullDisplay.aspx?ref=Papyrus_820			fv	21.1	11.8	VR		3	5.7	0	1	1			NO	2	3	#section1 #section2 #section3/	#section4 #section5 #section6	0	0								1-2/#m1/introduction	2-8/#m1/main-text	9-10/#m1/date	11-12/#m2/introduction	12-15/#m2/main-text	15-17/#m2/date																																										
23376	23376	bgu;16;2652	https://papyri.info/ddbdp/bgu;16;2652	BGU	16		2652					gt_ee	gt_letterBusiness	gt_order			Brief (amtlich),Athenodoros an Eurylochos,Steuern	Geschäftsbrief	Business Letter				https://berlpap.smb.museum/04964/			fh	9.5	16.2	HR		3.8	1	3.4	0	1			NO	1	2	#section1 #section2	0	0	0								1-2/#m1/introduction	2-5/#m1/main-text																																														
32141	32141	p.gen.2;1;2	https://papyri.info/ddbdp/p.gen.2;1;2	P.Gen.	1	2	2					gt_ee	gt_letterBusiness	gt_order			Brief (privat),Syros an Alexandros,Anweisung,Ausstellung einer Quittung	Geschäftsbrief	Business Letter				https://archives.bge-geneve.ch/ark:/17786/vta2f6a697fa6a205c4			fh	6.3	12.8	HR		1	2	1.1	0.2	1			NO	1	2	#section1 #section2	0	0	0								1-1/#m1/introduction	2-5/#m1/main-text																																														
41673	41673	p.fay;;16	https://papyri.info/ddbdp/p.fay;;16	P.Fay.			16					gt_ee	gt_letterBusiness	gt_order			Anweisung,Zahlung,Getreide	Geschäftsbrief,Zahlungsanweisung	Business Letter,Sitologos,Grain,Wheat				http://www.bl.uk/manuscripts/FullDisplay.aspx?ref=Papyrus_819			fh	17	10	VR		3.4	2.6	1.5	0.5	1			NO	1	3	#section1 #section2 #section3/	0	0	0								1-2/#m1/introduction	3-8/#m1/main-text	9-9/#m1/date																																													
45253	45253	p.oxy;49;3513	https://papyri.info/ddbdp/p.oxy;49;3513	P.Oxy.	49		3513					gt_ee	gt_letterBusiness	gt_order			Zahlungsanweisung (Wein,Weizen)	Geschäftsbrief	Business Letter	https://widgets.figshare.com/articles/21168640/embed?show_title=1			https://doi.org/10.25446/oxford.21168640.v1			fv	9.4	11.2	HR		1.5	1	0.4	0	1			NO	2	4	#section1 #section2	#section3 #section4	0	0								1-1/#m1/introduction	2-7/#m1/main-text	8-9/#m2/addition	10-10/#m2/date																																												
45254	45254	p.oxy;49;3514	https://papyri.info/ddbdp/p.oxy;49;3514	P.Oxy.	49		3514					gt_ee	gt_letterBusiness	gt_order			Zahlungsanweisung (Wein,Weizen),Namen	Geschäftsbrief	Business Letter	https://widgets.figshare.com/articles/21168643/embed?show_title=1			https://doi.org/10.25446/oxford.21168643.v1			fh	12.4	10.8	VR		0	1.8	0.5	0	1			NO	2	6	#section1 #section2 #section3	#section4 #section5 #section6	0	0								1-1/#m1/official-mark	2-2/#m1/introduction	3-18/#m1/main-text	19-19/#m2/subscription	19-22/#m2/addition	22-22/#m2/date																																										
45255	45255	p.oxy;49;3515	https://papyri.info/ddbdp/p.oxy;49;3515	P.Oxy.	49		3515					gt_ee	gt_letterBusiness	gt_order			Zahlungsanweisung (Weizen,Wein),Namen	Geschäftsbrief	Business Letter	https://widgets.figshare.com/articles/21168646/embed?show_title=1			https://doi.org/10.25446/oxford.21168646.v1			fh	8	17.2	HR		0.5	2.4	1	0	1			NO	2	6	#section1 #section2 #section3	#section4 #section5 #section6	0	0								1-1/#m1/official-mark	2-2/#m1/introduction	3-9/#m1/main-text	9-9/#m2/subscription	9-10/#m2/addition	11-11/#m2/date																																										
45256	45256	p.oxy;49;3516	https://papyri.info/ddbdp/p.oxy;49;3516	P.Oxy.	49		3516					gt_ee	gt_letterBusiness	gt_order			Zahlungsanweisung (Weizen,Wein)	Geschäftsbrief	Business Letter	https://widgets.figshare.com/articles/21168649/embed?show_title=1			https://doi.org/10.25446/oxford.21168649.v1			fh	8.8	14.5	HR		2	0.5	0.5	0	1			NO	2	6	#section1 #section2 #section3	#section4 #section5 #section6	0	0								1-1/#m1/official-mark	1-1/#m1/introduction	2-9/#m1/main-text	9-9/#m2/subscription	9-11/#m2/addition	11-11/#m2/date																																										
45258	45258	p.oxy;49;3518	https://papyri.info/ddbdp/p.oxy;49;3518	P.Oxy.	49		3518					gt_ee	gt_letterBusiness	gt_order			Zahlungsanweisung (Weizen,Wein),Namen,Berufe,Preise	Geschäftsbrief	Business Letter	https://widgets.figshare.com/articles/21168655/embed?show_title=1			https://doi.org/10.25446/oxford.21168655.v1			fv	33.4	9.4	VR		3	6	0.4	0	1			NO	2	4	#section1 #section2	#section3 #section4	0	0								1-1/#m1/introduction	2-19/#m1/main-text	19-22/#m2/addition	22-22/#m2/date																																												
45259	45259	p.oxy;49;3519	https://papyri.info/ddbdp/p.oxy;49;3519	P.Oxy.	49		3519					gt_ee	gt_letterBusiness	gt_order			Zahlungsanweisung (Wein,Weizen),Preise	Geschäftsbrief	Business Letter	https://widgets.figshare.com/articles/21168658/embed?show_title=1			https://doi.org/10.25446/oxford.21168658.v1			fv	33.4	9.4	VR		3	6	0.4	0	1			NO	2	6	#section1 #section2 #section3	#section4 #section5 #section6	0	0								1-1/#m1/official-mark	1-1/#m1/introduction	2-10/#m1/main-text	11-11/#m2/subscription	11-13/#m2/addition	14-14/#m2/date																																										
45261	45261	p.oxy;49;3521	https://papyri.info/ddbdp/p.oxy;49;3521	P.Oxy.	49		3521					gt_ee	gt_letterBusiness	gt_order			Zahlungsanweisung (Preis für Wein)	Geschäftsbrief	Business Letter	https://widgets.figshare.com/articles/21168664/embed?show_title=1			https://doi.org/10.25446/oxford.21168664.v1			fh	9	28.7	HR		0.2	0.3	1.5	0.4	1			NO	2	6	#section1 #section2 #section3	#section4 #section5 #section6	0	0								1-1/#m1/official-mark	1-1/#m1/introduction	2-7/#m1/main-text	7-7/#m2/subscription	7-8/#m2/addition	8-8/#m2/date																																										
114237	114237	p.oxy;72;4857	https://papyri.info/ddbdp/p.oxy;72;4857	P.Oxy.	72		4857					gt_ee	gt_letterBusiness	gt_order			Auftrag an den Sitologen von Sko (diastolikon),Giro - Überweisung von Weizen	Geschäftsbrief,Zahlungsanweisung	Business Letter,Sitologos,Diastolikon Order,Grain,Wheat	https://widgets.figshare.com/articles/21180205/embed?show_title=1			https://doi.org/10.25446/oxford.21180205.v1			fh	15.8	8.8	VR		1.5	2.3	1	0	1			NO	1	3	#section1 #section2 #section3/	0	0	0								1-3/#m1/introduction	3-11/#m1/main-text	11-13/#m1/date																																													
114240	114240	p.oxy;72;4860	https://papyri.info/ddbdp/p.oxy;72;4860	P.Oxy.	72		4860					gt_ee	gt_letterBusiness	gt_order			Auftrag an den Sitologen von Pakerke (diastolikon),Giro - Überweisung von Weizen	Geschäftsbrief,Zahlungsanweisung	Business Letter,Sitologos,Diastolikon Order,Grain,Wheat	https://widgets.figshare.com/articles/21180217/embed?show_title=1			https://doi.org/10.25446/oxford.21180217.v1			fh	17.2	10.1	VR		1.2	0.1	1.2	0	1			NO	1	3	#section1 #section2 #section3/	0	0	0								1-3/#m1/introduction	3-16/#m1/main-text	17-18/#m1/date																																													
114249	114249	p.oxy;72;4869	https://papyri.info/ddbdp/p.oxy;72;4869	P.Oxy.	72		4869					gt_ee	gt_letterBusiness	gt_order			Auftrag an den Sitologen von Ophis (diastolikon),Giro - Überweisung von Weizen	Geschäftsbrief,Zahlungsanweisung	Business Letter,Sitologos,Diastolikon Order,Grain,Wheat	https://widgets.figshare.com/articles/21180250/embed?show_title=1			https://doi.org/10.25446/oxford.21180250.v1			fh	11.5	9.3	VR		1.8	2	0.8	0	1			NO	1	3	#section1 #section2 #section3/	0	0	0								1-3/#m1/introduction	3-8/#m1/main-text	9-10/#m1/date																																													
114254	114254	p.oxy;72;4874	https://papyri.info/ddbdp/p.oxy;72;4874	P.Oxy.	72		4874					gt_ee	gt_letterBusiness	gt_order			Auftrag an die Sitologen von Pakerke (diastolikon),Giro - Überweisung von Weizen	Geschäftsbrief,Zahlungsanweisung	Business Letter,Sitologos,Diastolikon Order,Grain,Wheat	https://widgets.figshare.com/articles/21180265/embed?show_title=1			https://doi.org/10.25446/oxford.21180265.v1			fh	12.4	11	Sq		1.5	2.8	1	0	1			NO	1	3	#section1 #section2 #section3/	0	0	0								1-5/#m1/introduction	5-11/#m1/main-text	11-13/#m1/date																																													
114255	114255	p.oxy;72;4875	https://papyri.info/ddbdp/p.oxy;72;4875	P.Oxy.	72		4875					gt_ee	gt_letterBusiness	gt_order			Auftrag an die Sitologen von Kerkethyris (diastolikon),Giro - Überweisung von Weizen	Geschäftsbrief,Zahlungsanweisung	Business Letter,Sitologos,Diastolikon Order,Grain,Wheat	https://widgets.figshare.com/articles/21180268/embed?show_title=1			https://doi.org/10.25446/oxford.21180268.v1			fv	17.5	7.5	VR		1.2	2.3	0.8	0	1			NO	1	3	#section1 #section2 #section3/	0	0	0								1-4/#m1/introduction	4-17/#m1/main-text	17-20/#m1/date																																													
114256	114256	p.oxy;72;4876	https://papyri.info/ddbdp/p.oxy;72;4876	P.Oxy.	72		4876					gt_ee	gt_letterBusiness	gt_order			Auftrag an die Sitologen von Kerkethyris (diastolikon),Giro - Überweisung von Weizen	Geschäftsbrief,Zahlungsanweisung	Business Letter,Sitologos,Diastolikon Order,Grain,Wheat	https://widgets.figshare.com/articles/21180271/embed?show_title=1			https://doi.org/10.25446/oxford.21180271.v1			fh	20.1	9.2	VR		1.7	6	1.1	0	1			NO	1	3	#section1 #section2 #section3/	0	0	0								1-3/#m1/introduction	3-12/#m1/main-text	13-15/#m1/date																																													
114258	114258	p.oxy;72;4878	https://papyri.info/ddbdp/p.oxy;72;4878	P.Oxy.	72		4878					gt_ee	gt_letterBusiness	gt_order			Auftrag an die Sitologen von Monimu (diastolikon),Giro - Überweisung von Weizen	Geschäftsbrief,Zahlungsanweisung	Business Letter,Sitologos,Diastolikon Order,Grain,Wheat	https://widgets.figshare.com/articles/21180277/embed?show_title=1			https://doi.org/10.25446/oxford.21180277.v1			fh	8.7	12.3	HR		2.5	0	2	0.7	1			NO	1	2	#section1 #section2	0	0	0								1-3/#m1/introduction	3-9/#m1/main-text																																														
114263	114263	p.oxy;72;4883	https://papyri.info/ddbdp/p.oxy;72;4883	P.Oxy.	72		4883					gt_ee	gt_letterBusiness	gt_order			Auftrag an die Sitologen von Taampemu (diastolikon),Giro - Überweisung von Weizen	Geschäftsbrief,Zahlungsanweisung	Business Letter,Sitologos,Diastolikon Order,Grain,Wheat	https://widgets.figshare.com/articles/21180292/embed?show_title=1			https://doi.org/10.25446/oxford.21180292.v1			fh	11.8	8	VR		1.6	3.8	1	0	1			NO	2	4	#section1 #section2 #section3/	#section4	0	0								1-5/#m1/introduction	5-9/#m1/main-text	9-10/#m1/date	10-11/#m2/addition																																												
114264	114264	p.oxy;72;4884	https://papyri.info/ddbdp/p.oxy;72;4884	P.Oxy.	72		4884					gt_ee	gt_letterBusiness	gt_order			Auftrag an die Sitologen von Ophis (diastolikon),Giro - Überweisung von Weizen	Geschäftsbrief,Zahlungsanweisung	Business Letter,Sitologos,Diastolikon Order,Grain,Wheat	https://widgets.figshare.com/articles/21180295/embed?show_title=1			https://doi.org/10.25446/oxford.21180295.v1			fv	9.2	9.8	Sq		0.8	3.5	1.4	0	1			NO	1	3	#section1 #section2 #section3/	0	0	0								1-2/#m1/introduction	3-9/#m1/main-text	9-10/#m1/date																																													
114269	114269	p.oxy;72;4888	https://papyri.info/ddbdp/p.oxy;72;4888	P.Oxy.	72		4888					gt_ee	gt_letterBusiness	gt_order			Auftrag an die Sitologen von Seryphis (diastolikon),Giro - Überweisung von Weizen	Geschäftsbrief,Zahlungsanweisung	Business Letter,Sitologos,Diastolikon Order,Grain,Wheat	https://widgets.figshare.com/articles/21180307/embed?show_title=1			https://doi.org/10.25446/oxford.21180307.v1			fv	9.5	10	Sq		1.2	2	1	0	1			NO	1	3	#section1 #section2 #section3/	0	0	0								1-3/#m1/introduction	3-8/#m1/main-text	8-10/#m1/date																																													
114313	114313	psi;15;1511	https://papyri.info/ddbdp/psi;15;1511	PSI	15		1511					gt_ee	gt_letterBusiness	gt_order			Auftrag,Zahlung,Chomenis an Polemon (Bankier),Geld	Geschäftsbrief	Business Letter				http://www.psi-online.it/documents/psi;15;1511			fh	12.5	7	VR		2.5	2	1	0	1			NO	1	3	#section1 #section2 #section3/	0	0	0								1-2/#m1/introduction	2-5/#m1/main-text	6-6/#m1/date																																													
129935	129935	p.poethke;;14	https://papyri.info/ddbdp/p.poethke;;14	P.Poethke			14					gt_ee	gt_letterBusiness	gt_order			Brief (geschäftlich),Ptoleminos an Lukretios,Anweisung,dem Überbringer des Briefs vier Artaben Weizen auszugeben	Geschäftsbrief	Business Letter				https://berlpap.smb.museum/06590/			fv	6.6	4	VR		0.4	1	0.4	0	1			NO	2	3	#section1 #section2	#section3	0	0								1-3/#m1/introduction	4-8/#m1/main-text	9-9/#m2/addition																																													