TM	HGV	date-high	date-low	hgv-provenance	DDB	papyri-info	series	volume	fascicle	numbers	side	generic	page	number	hgv-title	format-type	format-subtype	format-variation	hgv-subjects	hgv-en	iframe	IIIF	canvasID	image	printed-image	image-rights	fibres	height	width	shape	columns	seal	hand-nb	section-nb	m1	m2	m3	m4	m5	m6	m7	m8	m9	m10	m11	section1	section2	section3	section4	section5	section6	section7	section8	section9	section10	section11	section12	section13	section14	section15	section16	section17	section18	section19	section20
15776	15776			Pesla (Hermopolites) oder Hermopolis	cpr;6;12	https://papyri.info/ddbdp/cpr;6;12	CPR	6		12					keiner	gt_ti	gt_businessNote		ahlungsauftrag (Hyperechios i.V. von Ailianos und Olympiodoros, seine Söhne, an Apollonios, παραλημπτής), Wein, Essig	Business Note,Order to pay,Wine,Vinegar				http://data.onb.ac.at/rec/RZ00002691	Tafel 9		fm	25	11.5	VR	1	No	2	4	#section1 #section2 #section4/	#section3/										1-5/#m1/introduction	6-11/#m1/main-text	12-14/#m2/addition	15-15/#m1/date																
15778	15778			Pesla (Hermopolites) oder Hermopolis	cpr;6;14	https://papyri.info/ddbdp/cpr;6;14	CPR	6		14					keiner	gt_ti	gt_businessNote		Zahlungsauftrag (Hyperechios i.V. seiner Söhne Ailianos und Olympiodoros an Apollonios, παραλημπτής); Wein	Business Note,Order to pay,Wine		https://iiif.onb.ac.at/presentation/REPO/7886031/manifest		http://data.onb.ac.at/rec/RZ00002693	Tafel 10		fv	17.5	8.5	VR	1	No	2	4	#section1 #section2 #section4/	#section3/										2-6/#m1/introduction	6-10/#m1/main-text	11-12/#m2/addition	13-13/#m1/date																
21813	21813			Oxyrhynchos	p.oxy;10;1335	https://papyri.info/ddbdp/p.oxy;10;1335	P.Oxy.	10		1335					Order for Payment of Meat	gt_ti	gt_businessNote		Anweisung,Zahlung,Fleisch	Business Note,Order to pay,Meat		https://api.bl.uk/metadata/iiif/ark:/81055/vdc_100143123794.0x000001/manifest.json	https://api.bl.uk/metadata/iiif/ark:/81055/vdc_100143123802.0x000002	https://access.bl.uk/item/viewer/ark:/81055/vdc_100143123794.0x000001 and http://www.bl.uk/manuscripts/FullDisplay.aspx?ref=Papyrus_2075			fv	4.9	15.4	HR	1	No	1	4	#section1 #section2 #section3 #section4/											1-1/#m1/introduction	2-2/#m1/main-text	3-3/#m1/date	3-4/#m1/addition																
22051	22051			Oxyrhynchos	p.oxy;16;1945	https://papyri.info/ddbdp/p.oxy;16;1945	P.Oxy.	16		1945					Order for Payment to Monks	gt_ti	gt_businessNote		Bestellung,Wein,Mönche,Gefängnis,Weihnachten	Business Note,Order to pay,Wine,Prison,Monks,Christmas	https://widgets.figshare.com/articles/21133360/embed?show_title=1			https://doi.org/10.25446/oxford.21133360			fv	13.5	30.6	HR	1	No	1	6	#section1 #section2 #section3 #section4 #section5 #section6/											1-1/#m1/introduction	2-2/#m1/main-text	3-3/#m1/date	4-4/#m1/introduction	5-5/#m1/main-text	6-6/#m1/date														
32513	32513			Pesla (Hermopolites) oder Hermopolis	cpr;6;43	https://papyri.info/ddbdp/cpr;6;43	CPR	6		43					keiner	gt_ti	gt_businessNote		Zahlungsauftrag	Business Note,Order to pay				http://data.onb.ac.at/rec/RZ00002718	Tafel 18		fv	6.5	24.6	HR	1	No	3	5	#section1 #section2 #section4/	#section3/	#section5/									1-2/#m1/introduction	2-3/#m1/main-text	3-3/#m2/addition	4-4/#m1/date	5-5/#m3/addition															
34783	34783			Herakleopolites	p.rain.cent;;133	https://papyri.info/ddbdp/p.rain.cent;;133	P.Rainer Cent.			133					Lieferungsauftrag	gt_ti	gt_businessNote		Auftrag,Lieferung,Holz	Business Note,Order to pay,Delivery,Wood				http://data.onb.ac.at/rec/RZ00002409	Tafel 99		fv	5.4	32.5	ΗR	1	Νο	1	2	#section1 #section2/											1-2/#m1/introduction	2-3/#m1/main-text																		
34784	34784			Hermopolis (?)	p.rain.cent;;134	https://papyri.info/ddbdp/p.rain.cent;;134	P.Rainer Cent.			134					Lieferungsauftrag	gt_ti	gt_businessNote		Auftrag,Lieferung,Weizen	Business Note,Order to pay,Wheat				http://data.onb.ac.at/rec/RZ00002410	Tafel 99		fv	7.5	29	HR	1	No	2	4	#section1/	#section1 #section2 #section3 #section4/										1-2/#m1 #m2/introduction	2-3/#m2/main-text	4-4/#m2/date	5-5/#m2/addition																
34785	34785			Hermopolis (?)	p.rain.cent;;135r	https://papyri.info/ddbdp/p.rain.cent;;135r	P.Rainer Cent.			135	r				Lieferungsauftrag	gt_ti	gt_businessNote		Auftrag; Lieferung; Weizen	Business Note,Order to pay,Wheat				http://data.onb.ac.at/rec/RZ00002411	Tafel 100		fv	10	30	HR	1	No	3	4	#section1 #section2/	#section2 #section3/	#section4/									1-1/#m1/introduction	1-3/#m1 #m2/main-text	3-4/#m2/date	4-4/#m3/addition																
35043	35043			Hermopolis (?)	p.vind.worp;;19	https://papyri.info/ddbdp/p.vind.worp;;19	P.Vindob. Worp			19					Auftrag an einen Steuereinnehmer	gt_ti	gt_businessNote		Auftrag,Lieferung,Korn gegen Barzahlung	Business Note,Order to pay,Delivery,Wheat against payment				http://data.onb.ac.at/rec/RZ00004405	Tafel 19		fv	9.5	31.8	HR	1	No	2	4	#section1/	#section1 #section2 #section3 #section4/										1-2/#m1 #m2/introduction	2-3/#m2/main-text	3-3/#m2/date	4-4/#m2/addition																
35669	35669			Hermopolis (?)	stud.pal;8;1025	https://papyri.info/ddbdp/stud.pal;8;1025	SPP	8		1025					keiner	gt_ti	gt_businessNote		Anweisung,Ausgabe,Weizen,Bäcker	Business Note,Order to pay,Wheat,Baker		https://iiif.onb.ac.at/presentation/REPO/7066872/manifest		http://data.onb.ac.at/rec/RZ00006907			fv	7	31	HR	1	No	1	4	#section1 #section2 #section3 #section4/											1-2/#m1/introduction	2-2/#m1/main-text	2-3/#m1/date	3-3/#m1/addition																
35672	35672			Hermopolis	stud.pal;8;1065	https://papyri.info/ddbdp/stud.pal;8;1065	SPP	8		1065					keiner	gt_ti	gt_businessNote		Anweisung; Ausgabe; Weizen	Business Note,Order to pay,Wheat		https://iiif.onb.ac.at/presentation/REPO/2882875/manifest		http://data.onb.ac.at/rec/RZ00006845			fv	9	30	HR	1	No	2	4	#section1 #section2 #section3/	#section4/										1-2/#m1/introduction	2-3/#m1/main-text	3-3/#m1/date	4-4/#m2/addition																
35855	35855			Herakleopolites	p.rain.cent;;137	https://papyri.info/ddbdp/p.rain.cent;;137	P.Rainer Cent.			137					Lieferungsauftrag	gt_ti	gt_businessNote		Auftrag,Lieferung,Getreide	Business Note,Order to pay,Wheat				http://data.onb.ac.at/rec/RZ00002414	Tafel 101		fv	6.5	35	HR	1	No	1	4	#section1 #section2 #section3 #section4/											1-1/#m1/introduction	1-1/#m1/addition	1-2/#m1/main-text	3-3/#m1/date																
35857	35857			Memphites	p.rain.cent;;139	https://papyri.info/ddbdp/p.rain.cent;;139	P.Rainer Cent.			139					Ordine di fornitura	gt_ti	gt_businessNote		Auftrag,Lieferung,Gemüse	Business Note,Order to pay,Vegetables		https://iiif.onb.ac.at/view/manifest/mirador/REPO/5647058		http://data.onb.ac.at/rec/RZ00002417	Tafel 102		fv	9.2	21.5	HR	1	No	1	3	#section1 #section2 #section3/											1-1/#m1/introduction	1-2/#m1/main-text	3-3/#m1/date																	
36262	36262			Arsinoites	sb;22;15753	https://papyri.info/ddbdp/sb;22;15753	SB	22		15753					Auszahlungsanweisung von Unterhalt in Öl	gt_ti	gt_businessNote		Anweisung,Auszahlung,Unterhalt,Ölmüller,Öl,Musiker	Business Note,Order to pay,Salary,Oil manufacturer,Musician				https://papyri.uni-leipzig.de/receive/BonnPapyri_schrift_00000170	ZPE 25, 1977, Tafel VI a ZPE 103, 1994,Tafel VII		fv	6	29.4	HR	1	No	3	5	#section1/	#section2 #section3 #section4/	#section5/									1-1/#m1/heading	2-2/#m2/introduction	2-3/#m2/main-text	3-3/#m2/date	3-3/#m3/addition															
36264	36264			Arsinoites	sb;22;15745	https://papyri.info/ddbdp/sb;22;15745	SB	22		15745					Auszahlungsanweisungen von Unterhalt in Öl	gt_ti	gt_businessNote		Anweisung,Auszahlung,Unterhalt,Öl,Müller (Öl),Anlage (Bewässerung),Maurer	Business Note,Order to pay,Oil manufacturer,Irrigation,Architect				https://papyri.uni-leipzig.de/receive/BonnPapyri_schrift_00000280	ZPE 25, 1977, Tafel VI b ZPE 103, 1994, Tafel V		fv	8.5	30.9	HR	1	No	3	6	#section1/	#section2 #section3 #section4 #section5/	#section6/									1-1/#m1/heading	2-2/#m2/introduction	2-4/#m2/main-text	4-4/#m2/date	4-4/#m2/addition	4-4/#m3/addition														
37083	37083			Arsinoites	sb;22;15749	https://papyri.info/ddbdp/sb;22;15749	SB	22		15749					Auszahlungsanweisungen von Unterhalt in Öl	gt_ti	gt_businessNote		Anweisung,Auszahlung,Öl,Unterhalt,Müller (Öl),Steinträger,Töpfer,Zimmermann,Bau	Business Note,Order to pay,Salary,Oil manufacturer,Stonework,Potter,Carpenter,Architecture				http://berlpap.smb.museum/02528/	ZPE 103, 1994, Tafel VI		fv	6.8	31	HR	1	No	3	5	#section1/	#section2 #section3 #section4/	#section5/									1-1/#m1/heading	2-2/#m2/introduction	2-4/#m2/main-text	4-4/#m2/date	4-4/#m3/addition															
37084	37084			Arsinoites	sb;22;15747	https://papyri.info/ddbdp/sb;22;15747	SB	22		15747					Auszahlungsanweisungen von Unterhalt in Öl	gt_ti	gt_businessNote		Anweisung,Auszahlung,Unterhalt,Öl,Müller (Öl),Eilbote	Business Note,Order to pay,Salary,Oil manufacturer,Messenger				http://berlpap.smb.museum/02529/	ZPE 103, 1994, Tafel V		fv	8	29	HR	1	No	3	6	#section1/	#section2 #section3 #section4/	#section5 #section6/									1-1/#m1/heading	2-2/#m2/introduction	2-4/#m2/main-text	4-4/#m2/date	4-4/#m3/addition	4-4/#m3/addition														
37086	37086			Arsinoites	sb;22;15746	https://papyri.info/ddbdp/sb;22;15746	SB	22		15746					Auszahlungsanweisungen von Unterhalt in Öl	gt_ti	gt_businessNote		Anweisung,Auszahlung,Unterhalt,Öl,Müller (Öl),Armee	Business Note,Order to pay,Salary,Oil manufacturer,Army				http://berlpap.smb.museum/02531/	ZPE 103, 1994, Tafel V		fv	9.5	29.5	HR	1	No	3	5	#section1/	#section2 #section3 #section4/	#section5/									1-1/#m1/heading	2-2/#m2/introduction	2-4/#m2/main-text	4-4/#m2/date	4-4/#m3/addition															
37087	37087			Arsinoites	sb;22;15742	https://papyri.info/ddbdp/sb;22;15742	SB	22		15742					Auszahlungsanweisungen von Unterhalt in Öl	gt_ti	gt_businessNote		Anweisung,Auszahlung,Unterhalt,Öl,Müller (Öl),Bau,Zimmermann	Business Note,Order to pay,Salary,Oil manufacturer,Architecture,Carpenter				http://berlpap.smb.museum/02539/	ZPE 103, 1994, Tafel IV		fv	8	30	HR	1	No	3	7	#section1/	#section2 #section3 #section4 #section6/	#section5 #section7/									1-1/#m1/heading	2-2/#m2/introduction	2-4/#m2/main-text	4-4/#m2/date	4-4/#m3/addition	4-4/#m2/addition	4-4/#m3/addition													
37089	37089			Arsinoites	sb;22;15754	https://papyri.info/ddbdp/sb;22;15754	SB	22		15754					Auszahlungsanweisungen von Unterhalt in Öl	gt_ti	gt_businessNote		Anweisung,Auszahlung,Unterhalt,Steinträger,Zimmermann,Bau,Öl,Müller (Öl)	Business Note,Order to pay,Salary,Stonework,Carpenter,Architecture,Oil manufacturer				http://berlpap.smb.museum/02527/	ZPE 103, 1994, Tafel VIII		fv	15	15	Sq	1	No	3	5	#section1/	#section2 #section3 #section4/	#section5/									1-1/#m1/heading	2-2/#m2/introduction	2-6/#m2/main-text	7-7/#m2/date	7-8/#m3/addition															
37090	37090			Arsinoites	sb;22;15755	https://papyri.info/ddbdp/sb;22;15755	SB	22		15755					Auszahlungsanweisungen von Unterhalt in Öl	gt_ti	gt_businessNote		Anweisung,Auszahlung,Unterhalt,Öl,Müller (Öl),Praesides	Business Note,Order to pay,Salary,Oil manufacturer				http://berlpap.smb.museum/02535/	ZPE 103, 1994, Tafel VIII		fv	13	11.5	VR	1	No	3	5	#section1/	#section2 #section3 #section4/	#section5/									1-1/#m1/heading	2-2/#m2/introduction	3-5/#m2/main-text	5-5/#m2/date	6-6/#m3/addition															
37480	37480			Arsinoites	p.prag;2;154	https://papyri.info/ddbdp/p.prag;2;154	P.Prag.	2		154					Anweisung zur Lieferung von Öl an Bukkellarier	gt_ti	gt_businessNote		Anweisung,Lieferung,Öl	Business Note,Order to pay,Delivery,Oil				http://www.psi-online.it/documents/pprag;2;154	Tav. XXIII		fv	7.5	14	HR	1	No	3	5	#section1/	#section2 #section3 #section4/	#section5/									1-1/#m1/heading	2-2/#m2/introduction	2-5/#m2/main-text	5-5/#m2/date	5-6/#m3/addition															
37894	37894			Oxyrhynchos	p.oxy;16;1952	https://papyri.info/ddbdp/p.oxy;16;1952	P.Oxy.	16		1952					Order for Payment issued to an Archimandrite	gt_ti	gt_businessNote		Anforderung,Brote	Business Note,Order to pay,Bread	https://widgets.figshare.com/articles/21133369/embed?show_title=1			https://doi.org/10.25446/oxford.21133369			fv	6.2	10.8	HR	1	No	1	4	#section1 #section2 #section3 #section4/											1-2/#m1/introduction	2-5/#m1/main-text	5-5/#m1/date	5-5/#m1/addition																
38034	38034			Hermopolites (?)	stud.pal;8;1066	https://papyri.info/ddbdp/stud.pal;8;1066	SPP	8		1066					keiner	gt_ti	gt_businessNote		Anweisung,Ausgabe,Weizen,Bäcker	Business Note,Order to pay,Wheat,Baker		https://iiif.onb.ac.at/presentation/REPO/7067198/manifest		http://data.onb.ac.at/rec/RZ00006944			fv	9	31.5	HR	1	No	2	3	#section1/	#section1 #section2 #section3/										1-2/#m1 #m2/introduction	2-3/#m2/main-text	3-3/#m2/addition																	
38035	38035			Hermopolites (?)	stud.pal;8;1067	https://papyri.info/ddbdp/stud.pal;8;1067	SPP	8		1067					keiner	gt_ti	gt_businessNote		Anweisung,Ausgabe,Weizen	Business Note,Order to pay,Wheat		https://iiif.onb.ac.at/presentation/REPO/7067119/manifest		http://data.onb.ac.at/rec/RZ00006945			fv	5.7	16	HR	1	No	1	5	#section1 #section2 #section3 #section4 #section5/											1-1/#m1/introduction	1-2/#m1/main-text	3-3/#m1/date	3-3/#m1/addition	3-4/#m1/addition															
38036	38036			Hermopolites (?)	stud.pal;8;1068	https://papyri.info/ddbdp/stud.pal;8;1068	SPP	8		1068					keiner	gt_ti	gt_businessNote		Anweisung,Ausgabe,Weizen	Business Note,Order to pay,Wheat		https://iiif.onb.ac.at/presentation/REPO/7066888/manifest		http://data.onb.ac.at/rec/RZ00006946			fh	8	29	HR	1	No	1	8	#section1 #section2 #section3 #section4 #section5 #section6 #section7 #section8/											1-1/#m1/introduction	1-2/#m1/main-text	2-2/#m1/date	2-2/#m1/addition	2-3/#m1/addition	3-3/#m1/main-text	3-3/#m1/addition	3-3/#m1/addition												
43230	43230			Arsinoites	sb;22;15752	https://papyri.info/ddbdp/sb;22;15752	SB	22		15752					Auszahlungsanweisungen von Unterhalt in Öl	gt_ti	gt_businessNote		Anweisung,Auszahlung,Unterhalt,Soldat,Schiff,Öl,Müller (Öl)	Business Note,Order to pay,Salary,Soldiers,Ship,Oil manufacturer				http://berlpap.smb.museum/02533/	ZPE 103, 1994, Tafel VII		fv	11	15	HR	1	No	3	5	#section1/	#section2 #section3 #section4/	#section5/									1-1/#m1/heading	2-2/#m2/introduction	2-5/#m2/main-text	5-6/#m2/date	6-6/#m3/addition															
45278	45278			Pesla (Hermopolites) oder Hermopolis	cpr;6;36	https://papyri.info/ddbdp/cpr;6;36	CPR	6		36					keiner	gt_ti	gt_businessNote		Schreiben (Hyperechios an Apollonios); Auftrag; Lieferung (Wein)	Business Note,Order to pay,Delivery,Wine		https://iiif.onb.ac.at/presentation/REPO/7854037/manifest		http://data.onb.ac.at/rec/RZ00002711	Tafel 16		fv	7.5	10	HR	1	No	2	4	#section1 #section2 #section3/	#section4/										1-2/#m1/introduction	3-4/#m1/main-text	5-5/#m1/date	6-6/#m2/addition																
45279	45279			Pesla (Hermopolites) oder Hermopolis	cpr;6;37	https://papyri.info/ddbdp/cpr;6;37	CPR	6		37					keiner	gt_ti	gt_businessNote		Schreiben (Hyperechios an Apollonios); Auftrag; Lieferung (Wein)	Business Note,Order to pay,Delivery,Wine		https://iiif.onb.ac.at/presentation/REPO/7130832/manifest		http://data.onb.ac.at/rec/RZ00002712	Tafel 16		fv	7.5	10.5	HR	1	No	2	4	#section1 #section2 #section3/	#section4/										1-2/#m1/introduction	3-4/#m1/main-text	4-5/#m1/date	6-6/#m2/addition																
45280	45280			Pesla (Hermopolites) oder Hermopolis	cpr;6;38	https://papyri.info/ddbdp/cpr;6;38	CPR	6		38					keiner	gt_ti	gt_businessNote		Zahlungsauftrag (Wein); Weber	Business Note,Order to pay,Wine,Weaver		https://iiif.onb.ac.at/presentation/REPO/7854065/manifest		http://data.onb.ac.at/rec/RZ00002713	Tafel 16		fv	9.6	27.5	HR	1	No	2	4	#section1 #section2 #section4/	#section3/										1-2/#m1/introduction	2-4/#m1/main-text	4-4/#m2/addition	5-5/#m1/date																
45284	45284			Pesla (Hermopolites) oder Hermopolis	cpr;6;45	https://papyri.info/ddbdp/cpr;6;45	CPR	6		45					keiner	gt_ti	gt_businessNote		Zahlungsauftrag (Wein); κατασπορεύς	Business Note,Order to pay,Wine,Sower,Seeds		https://iiif.onb.ac.at/presentation/REPO/7081333/manifest		http://data.onb.ac.at/rec/RZ00002720	Tafel 18		fv	7	16	HR	1	No	1	3	#section1 #section2 #section3/											1-1/#m1/introduction	2-3/#m1/main-text	3-3/#m1/date																	
50663	50663			Oxyrhynchites	sb;28;16882	https://papyri.info/ddbdp/sb;28;16882	SB	28		16882					Auszahlungsanordnung über Arbeitsvergütung	gt_ti	gt_businessNote		Zahlungsanweisung für Weizen und Geld für Arbeiten an einer Zisterne	Business Note,Order to pay,Wheat,Money,Cistern		https://iiif.sub.uni-hamburg.de/object/HANSh3767/manifest		http://resolver.sub.uni-hamburg.de/goobi/HANSh3767	APF 50, 2004, Tafel X und XI		fv	14	30.5	HR	1	No	2	5	#section1 #section2 #section4/	#section3 #section5/										1-1/#m1/introduction	2-6/#m1/main-text	6-6/#m2/addition	7-7/#m1/date	7-8/#m2/addition															
50664	50664			Oxyrhynchites	sb;28;16883	https://papyri.info/ddbdp/sb;28;16883	SB	28		16883					Zahlungsanweisung für Ziegel	gt_ti	gt_businessNote		Zahlungsanweisung für gebrannte und ungebrannte Ziegel	Business Note,Order to pay,Money,Bricks		https://iiif.sub.uni-hamburg.de/object/HANSh3762/manifest		http://resolver.sub.uni-hamburg.de/goobi/HANSh3762	APF 50, 2004, Tafel XII		fv	6.8	30	HR	1	No	2	4	#section1 #section2 #section4/	#section3/										1-1/#m1/introduction	2-5/#m1/main-text	5-5/#m2/addition	6-6/#m1/date																
50665	50665			Oxyrhynchites	sb;28;16884	https://papyri.info/ddbdp/sb;28;16884	SB	28		16884					Auszahlungsanweisungen für Bauarbeiten	gt_ti	gt_businessNote		Auszahlungsanweisungen für Baumaßnahmen an einer Befestigungsmauer	Business Note,Order to pay,Money,Foundation Wall,Building		https://iiif.sub.uni-hamburg.de/object/HANSh3675/manifest		http://resolver.sub.uni-hamburg.de/goobi/HANSh3675	APF 50, 2004, Tafel XIII		fv	8	29.5	HR	1	No	2	4	#section1 #section2 #section4/	#section3/										1-1/#m1/introduction	2-4/#m1/main-text	4-4/#m2/addition	5-5/#m1/date																
50666	50666			Oxyrhynchites	sb;28;16885	https://papyri.info/ddbdp/sb;28;16885	SB	28		16885					Auszahlungsanweisung für Begräbniskosten	gt_ti	gt_businessNote		Auszahlungsanweisungen von Geld für ein Begräbnis	Business Note,Order to pay,Money,Burial		https://iiif.sub.uni-hamburg.de/object/HANSh3674/manifest		http://resolver.sub.uni-hamburg.de/goobi/HANSh3674	APF 50, 2004, Tafel XII		fv	7.5	30	HR	1	No	2	4	#section1 #section2 #section3/	#section4/										1-1/#m1/introduction	2-2/#m1/main-text	3-3/#m1/date	3-4/#m2/addition																
114307	114307			Oxyrhynchites	p.oxy;72;4926	https://papyri.info/ddbdp/p.oxy;72;4926	P.Oxy.	72		4926					Order for the Supply of Bread	gt_ti	gt_businessNote		Auftrag der Domäne an den Vorsteher eines Klosters,Lieferung von Brot	Business Note,Order to pay,Monastery,Delivery,Bread	https://widgets.figshare.com/articles/21180424/embed?show_title=1			https://doi.org/10.25446/oxford.21180424			fv	6.9	14.2	HR	1	No	1	4	#section1 #section2 #section3 #section4/											1-2/#m1/introduction	2-4/#m1/main-text	4-5/#m1/date	5-5/#m1/addition																
114309	114309			Oxyrhynchites	p.oxy;72;4928	https://papyri.info/ddbdp/p.oxy;72;4928	P.Oxy.	72		4928					Order for the Supply of Bread	gt_ti	gt_businessNote		Auftrag an den Vorsteher eines Klosters,Lieferung von Brot	Business Note,Order to pay,Monastery,Delivery,Bread	https://widgets.figshare.com/articles/21180433/embed?show_title=1			https://doi.org/10.25446/oxford.21180433			fv	4.8	15.1	HR	1	No	1	4	#section1 #section2 #section3 #section4/											1-1/#m1/introduction	2-3/#m1/main-text	3-3/#m1/date	3-3/#m1/addition																
114310	114310			Oxyrhynchites	p.oxy;72;4929	https://papyri.info/ddbdp/p.oxy;72;4929	P.Oxy.	72		4929					Order for the Supply of Bread	gt_ti	gt_businessNote		Auftrag der Domäne an den Vorsteher eines Klosters,Lieferung von Brot	Business Note,Order to pay,Monastery,Delivery,Bread	https://widgets.figshare.com/articles/21180436/embed?show_title=1			https://doi.org/10.25446/oxford.21180436			fv	7	15	HR	1	No	1	4	#section1 #section2 #section3 #section4/											1-2/#m1/introduction	2-4/#m1/main-text	4-4/#m1/date	4-4/#m1/addition																
128705	128705			Hermopolites	p.jena;2;24	https://papyri.info/ddbdp/p.jena;2;24	P.Jena	2		24					Money an Barley for Martes and Phoebammon	gt_ti	gt_businessNote		Anweisung,Phoibammon λαμπρότατος an Phoibammon (προνοητής),Zahlung von Geld an einen Geflügelzüchter und von Geld und Gerste an einen Phoibammon	Business Note,Order to pay,Money,Barley				http://papyri.uni-leipzig.de/receive/IAwJPapyri_schrift_00000580	Plate 23		fv	9.4	26.8	HR	1	No	2	4	#section1 #section2 #section3/	#section4/										1-2/#m1/introduction	2-5/#m1/main-text	5-5/#m1/date	5-6/#m2/addition																
128706	128706			Hermopolites	p.jena;2;25	https://papyri.info/ddbdp/p.jena;2;25	P.Jena	2		25					Payment in Money to Thomas and Josephius	gt_ti	gt_businessNote		Anweisung,Phoibammon λαμπρότατος an Phoibammon (προνοητής),Zahlung von Geld an Thomas und den Barbier Iosephios	Business Note,Order to pay,Money,Barber				http://papyri.uni-leipzig.de/receive/IAwJPapyri_schrift_00000610	Plate 21		fv	5.6	31	HR	1	No	2	4	#section1 #section2 #section3/	#section4/										1-2/#m1/introduction	2-4/#m1/main-text	4-4/#m1/date	4-5/#m2/addition																
128707	128707			Hermopolites	p.jena;2;26	https://papyri.info/ddbdp/p.jena;2;26	P.Jena	2		26					Payment to the Church of Pmuchis for the Holy prosphora	gt_ti	gt_businessNote		Anweisung,Phoibammon λαμπρότατος an Phoibammon (προνοητής),Zahlung von Weizen an die Kirche von Pmuchis	Business Note,Order to pay,Wheat,Church				http://papyri.uni-leipzig.de/receive/IAwJPapyri_schrift_00000590	Plate 24		fv	6.6	31.3	HR	1	No	2	4	#section1 #section2 #section3/	#section4/										1-2/#m1/introduction	2-4/#m1/main-text	4-4/#m1/date	4-4/#m1/addition																
130549	130549			Arsinoites	p.prag;3;225	https://papyri.info/ddbdp/p.prag;3;225	P.Prag.	3		225					Anweisung zur Lieferung von Öl an einen Anagnostes bzw. Arzt und weitere Personen	gt_ti	gt_businessNote		Anweisung (Theon an den Ölmüller Sambas),Lieferung von Öl an Johannes (Lektor bzw. Arzt) und andere,Unterhalt (Verpflegung)	Business Note,Order to pay,Delivery,Oil,Salary				http://www.psi-online.it/documents/pprag;3;225	Tav. XIV		fv	9	32.3	HR	1	No	3	4	#section1/	#section2 #section3 #section4/	#section4/									1-1/#m1/heading	2-2/#m2/introduction	2-4/#m2/main-text	4-4/#m2/date	4-4/#m3/addition															
130552	130552			Arsinoites	p.prag;3;228	https://papyri.info/ddbdp/p.prag;3;228	P.Prag.	3		228					Anweisung zur Lieferung von Öl an einen Maurer	gt_ti	gt_businessNote		Anweisung (Theon an den Ölmüller Sambas),Lieferung von Öl an Neilos (Maurer),Entlohnung für verschiedene Bauarbeiten	Business Note,Order to pay,Delivery,Oil,Salary,Building workers				http://www.psi-online.it/documents/pprag;3;228	Tav. XV		fv	9	31	HR	1	No	3	4	#section1/	#section2 #section3 #section4/	#section4/									1-1/#m1/heading	2-2/#m2/introduction	2-6/#m2/main-text	6-6/#m2/date	6-6/#m3 #m2/addition															
130554	130554			Arsinoites	p.prag;3;230	https://papyri.info/ddbdp/p.prag;3;230	P.Prag.	3		230					Anweisung zur Lieferung von Öl an einen Zimmermann	gt_ti	gt_businessNote		Anweisung (Theon an den Ölmüller Sambas),Lieferung von Öl an Kolluthos (Zimmermann),Entlohnung für Bauarbeiten	Business Note,Order to pay,Delivery,Oil,Salary,Carpenter				http://www.psi-online.it/documents/pprag;3;230	Tav. XVI		fv	10	27	HR	1	No	3	4	#section1/	#section2 #section3 #section4/	#section4/									1-1/#m1/heading	2-2/#m2/introduction	2-3/#m2/main-text	4-4/#m2/date	4-4/#m2 #m3/addition															
130559	130559			Arsinoites	p.prag;3;235	https://papyri.info/ddbdp/p.prag;3;235	P.Prag.	3		235					Anweisung zur Lieferung von Öl an einen Steinmetzen	gt_ti	gt_businessNote		Anweisung (Theon an den Ölmüller Sambas),Lieferung von Öl an einen Seinmetzen,Entlohnung	Business Note,Order to pay,Stonemason,Oil,Salary				http://www.psi-online.it/documents/pprag;3;235	Tav. XIX		fv	6	20.5	HR	1	No	3	4	#section1/	#section2 #section3 #section4/	#section4/									1-1/#m1/heading	2-2/#m2/introduction	2-3/#m2/main-text	3-3/#m2/date	4-4/#m3 #m2/addition															
133452	133452			Oxyrhynchites	apf;56;60	https://papyri.info/ddbdp/apf;56;60	APF	56	(2010)				S. 60		Ein neuer Papyrus aus dem Dossier des comes Johannes	gt_ti	gt_businessNote		Anweisung,Zahlung,Kaufpreis,Rohr,transversa charta	Business Note,Order to pay,Reed,Vineyard				https://papyri.uni-leipzig.de/receive/UBLPapyri_schrift_00032300			fv	7	29.5	HR	1	No	2	4	#section1 #section2 #section4/	#section3/										1-1/#m1/introduction	2-3/#m1/main-text	3-3/#m2/addition	4-4/#m1/date																
702445	702445			Oxyrhynchos	p.oxy;82;5334	https://papyri.info/ddbdp/p.oxy;82;5334	P.Oxy.	82		5334					Order to supply meat	gt_ti	gt_businessNote		Anweisung,Lieferung,Fleisch	Business Note,Order to pay,Delivery,Meat	https://widgets.figshare.com/articles/21186289/embed?show_title=1			https://doi.org/10.25446/oxford.21186289.v1			fv	4.7	30.6	HR	1	No	2	4	#section1 #section2 #section4/	#section3/										1-1/#m1/introduction	2-2/#m1/main-text	2-3/#m2/addition	4-4/#m1/date																